<?xml version="1.0" encoding="UTF-8" standalone="no"?>
<svg
   xmlns:dc="http://purl.org/dc/elements/1.1/"
   xmlns:cc="http://creativecommons.org/ns#"
   xmlns:rdf="http://www.w3.org/1999/02/22-rdf-syntax-ns#"
   xmlns:svg="http://www.w3.org/2000/svg"
   xmlns="http://www.w3.org/2000/svg"
   xmlns:sodipodi="http://sodipodi.sourceforge.net/DTD/sodipodi-0.dtd"
   xmlns:inkscape="http://www.inkscape.org/namespaces/inkscape"
   width="118"
   height="118"
   viewBox="0 0 98 118"
   version="1.1"
   id="svg62"
   sodipodi:docname="logic.svg"
   style="fill:none"
   inkscape:version="0.92.4 (5da689c313, 2019-01-14)">
  <metadata
     id="metadata68">
    <rdf:RDF>
      <cc:Work
         rdf:about="">
        <dc:format>image/svg+xml</dc:format>
        <dc:type
           rdf:resource="http://purl.org/dc/dcmitype/StillImage" />
      </cc:Work>
    </rdf:RDF>
  </metadata>
  <defs
     id="defs66" />
  <sodipodi:namedview
     pagecolor="#ffffff"
     bordercolor="#666666"
     borderopacity="1"
     objecttolerance="10"
     gridtolerance="10"
     guidetolerance="10"
     inkscape:pageopacity="0"
     inkscape:pageshadow="2"
     inkscape:window-width="3440"
     inkscape:window-height="1377"
     id="namedview64"
     showgrid="false"
     inkscape:zoom="2"
     inkscape:cx="49"
     inkscape:cy="59"
     inkscape:window-x="-8"
     inkscape:window-y="-8"
     inkscape:window-maximized="1"
     inkscape:current-layer="svg62" />
  <path
     d="m 47.7579,103.533 c -25.0913,0 -45.43174,-20.1974 -45.43174,-45.1116 0,-24.9141 20.34044,-45.1111 45.43174,-45.1111 25.0913,0 45.4318,20.197 45.4318,45.1111 0,24.9142 -20.3405,45.1116 -45.4318,45.1116 z"
     id="path2"
     inkscape:connector-curvature="0"
     style="opacity:0.16000001;fill:#feca2f" />
  <path
     d="M 90.3981,24.5017 55.2395,23.2826 c -3.974,-0.1378 -7.3081,2.9494 -7.4469,6.8953 L 44.738,117.033 c -0.1388,3.946 2.9703,7.256 6.9443,7.394 l 35.1587,1.219 c 3.974,0.138 7.3081,-2.949 7.4469,-6.895 l 3.0546,-86.855 c 0.1387,-3.9459 -2.9703,-7.2565 -6.9444,-7.3943 z"
     id="path4"
     inkscape:connector-curvature="0"
     style="clip-rule:evenodd;fill:#f2f2f2;fill-rule:evenodd" />
  <path
     d="m 84.8558,27.2633 c -0.0515,1.4645 -1.2682,2.6159 -2.7345,2.6065 L 82.0425,29.8681 63.205,29.215 C 61.73,29.1638 60.5705,27.9558 60.5799,26.4998 l 0.0017,-0.0782 0.0279,-0.7941 -5.5295,-0.1917 c -2.6494,-0.0919 -4.8721,1.9662 -4.9646,4.5968 l -3.0658,87.1724 c -0.0925,2.63 1.9802,4.838 4.6296,4.929 l 35.4694,1.23 c 2.6493,0.092 4.872,-1.966 4.9645,-4.597 l 3.0658,-87.1718 c 0.0925,-2.6307 -1.9802,-4.8377 -4.6295,-4.9296 l -5.6657,-0.1964 z"
     id="path6"
     inkscape:connector-curvature="0"
     style="clip-rule:evenodd;fill:#240e6a;fill-rule:evenodd" />
  <path
     d="m 15.2252,64.7836 c 2.2569,1.5589 4.9154,7.0599 3.62,8.1953 -0.5166,0.4529 -1.9768,0.7185 -3.6654,0.5956 l 3.7441,5.2923 -4.7824,2.4123 -2.2835,-8.4653 C 10.388,72.2047 9.09022,71.204 8.43619,69.6792 6.55166,65.2856 12.9683,63.2247 15.2252,64.7836 Z"
     id="path8"
     inkscape:connector-curvature="0"
     style="clip-rule:evenodd;fill:#b28b67;fill-rule:evenodd" />
  <path
     d="m 10.4764,64.4028 c 2.5663,-1.2944 4.0812,-0.7326 4.6107,0.1732 -0.945,0.8553 -2.8071,1.9403 -5.57904,3.3135 l 0.10211,0.1984 2.49513,-1.0086 1.0115,0.989 c -0.6588,0.273 -0.8894,0.9346 -0.9528,1.6967 -0.2114,-0.0281 -0.432,0.0012 -0.6329,0.1026 -0.5507,0.2777 -0.7457,0.9913 -0.4866,1.4947 0.2695,0.5236 0.7265,0.8031 1.1699,0.7959 3e-4,0.4644 -0.0526,0.8281 -0.2509,0.9894 C 11.057,73.4955 8.82775,71.9357 7.92709,70.1861 6.94127,68.2709 7.62106,65.8428 10.4764,64.4028 Z"
     id="path10"
     inkscape:connector-curvature="0"
     style="clip-rule:evenodd;fill:#191847;fill-rule:evenodd" />
  <path
     d="m 17.0591,97.68 8.2118,28.054 3.8624,21.063 H 33.01 L 29.1402,97.68 Z"
     id="path12"
     inkscape:connector-curvature="0"
     style="clip-rule:evenodd;fill:#b28b67;fill-rule:evenodd" />
  <path
     d="m 17.0591,97.68 8.2118,28.054 3.8624,21.063 H 33.01 L 29.1402,97.68 Z"
     id="path14"
     inkscape:connector-curvature="0"
     style="clip-rule:evenodd;fill:#000000;fill-opacity:0.1;fill-rule:evenodd" />
  <path
     d="m 13.3686,97.68 c 0.573,14.574 0.347,22.523 0.2188,23.847 -0.1283,1.324 -0.8563,10.192 -5.81738,25.714 h 4.03208 c 6.5702,-14.891 8.8637,-23.759 9.6173,-25.714 0.7535,-1.956 2.9791,-9.905 6.2283,-23.847 z"
     id="path16"
     inkscape:connector-curvature="0"
     style="clip-rule:evenodd;fill:#b28b67;fill-rule:evenodd" />
  <path
     d="m 16.8828,97.68 c 2.136,9.653 5.8304,25.063 11.0832,46.228 h 5.6701 c 0.4188,-21.724 -1.3628,-36.022 -4.448,-46.228 z"
     id="path18"
     inkscape:connector-curvature="0"
     style="clip-rule:evenodd;fill:#191847;fill-rule:evenodd" />
  <path
     d="m 13.3399,97.68 c 0.5612,14.574 -0.8931,28.932 -5.39801,46.455 H 13.9916 C 20.5738,129.466 25.2915,115.178 28.5157,97.68 Z"
     id="path20"
     inkscape:connector-curvature="0"
     style="clip-rule:evenodd;fill:#2f3676;fill-rule:evenodd" />
  <path
     d="M 3.81235,93.9786 8.57512,92.8264 C 7.90661,105.408 7.53033,112.002 7.44626,112.609 c -0.18914,1.364 1.35259,2.992 2.06433,3.896 -1.31506,1.024 -1.77535,-1.46 -3.4259,-0.134 -1.50655,1.21 -2.4425,2.961 -4.72018,2.235 -0.28003,-0.09 -0.687387,-0.585 -0.15641,-1.181 1.32288,-1.485 3.14391,-3.961 3.29624,-4.667 0.20773,-0.962 -0.02293,-7.222 -0.69199,-18.7794 z m 31.46895,-1.9903 7.6672,4.4655 c 1.9834,0.3203 3.6632,0.7994 5.0396,1.4373 0.3354,0.2457 0.7651,0.7688 -0.5123,0.8016 -1.2774,0.0327 -2.6192,0.1242 -2.7477,0.5721 -0.1284,0.4479 0.6938,0.8832 0.403,1.5002 -0.1938,0.411 -1.4114,-0.445 -3.6528,-2.568 l -7.351,-2.1836 z"
     id="path22"
     inkscape:connector-curvature="0"
     style="clip-rule:evenodd;fill:#b28b67;fill-rule:evenodd" />
  <path
     d="m 14.9669,77.0133 1.7955,-0.782 c 5.5865,9.6783 22.568,13.0359 24.4837,16.6964 0.7025,1.3424 -0.1462,2.317 0.4962,2.6205 l -1.9897,2.3778 c -0.5343,-0.3783 -1.1939,0.7162 -3.1898,0.5549 -1.996,-0.1614 -18.4813,-9.147 -21.5959,-21.4676 z"
     id="path24"
     inkscape:connector-curvature="0"
     style="clip-rule:evenodd;fill:#db2721;fill-rule:evenodd" />
  <path
     d="m 11.0418,75.6925 5.9489,-1.0301 c 0.4867,-0.0843 0.9517,0.2399 1.0387,0.7242 l 0.4035,2.2513 c 3.2638,13.835 12.1561,15.3807 11.7714,21.3446 -0.3175,4.9235 -13.1595,13.2885 -16.7272,9.4155 -1.4444,-1.567 -2.4456,-3.647 -3.0983,-6.015 -0.1601,1.982 -0.2546,3.678 -0.2831,5.087 -0.0493,2.43 -2.3811,3.388 -2.15928,4.265 L 4.52196,111.642 C 4.43716,110.398 2.78534,110.187 2.51566,107.426 1.30736,95.0545 3.97893,85.2147 10.5304,77.9067 l -0.2125,-1.1848 c -0.0869,-0.4843 0.2372,-0.9452 0.7239,-1.0294 z"
     id="path26"
     inkscape:connector-curvature="0"
     style="clip-rule:evenodd;fill:#ff4133;fill-rule:evenodd" />
  <mask
     id="mask0"
     mask-type="alpha"
     maskUnits="userSpaceOnUse"
     x="-5"
     y="1"
     width="101"
     height="160">
    <path
       d="m 51.6792,122.135 35.4694,1.23 c 2.6493,0.091 4.872,-1.967 4.9645,-4.597 l 3.0658,-87.1725 c 0.0925,-2.6307 -1.9802,-4.8377 -4.6295,-4.9296 L 82.1281,1.42987 H -4.50913 V 160.104 H 33.5502 c 11.7467,-25.325 17.7897,-37.981 18.129,-37.969 z"
       id="path28"
       inkscape:connector-curvature="0"
       style="fill:#ffffff" />
  </mask>
  <g
     mask="url(#mask0)"
     id="g60">
    <path
       d="m 38.5275,38.6157 c 1.1238,3.9537 7.7135,10.3969 9.986,9.1171 0.9063,-0.5103 2.0103,-2.4474 2.669,-4.8969 l 5.7531,7.8778 5.8321,-5.5923 -11.035,-7.3571 c -0.1482,-2.3773 -0.9442,-4.7015 -2.8118,-6.3702 -5.3815,-4.8082 -11.5171,3.268 -10.3934,7.2216 z"
       id="path31"
       inkscape:connector-curvature="0"
       style="clip-rule:evenodd;fill:#b28b67;fill-rule:evenodd" />
    <mask
       id="mask1"
       mask-type="alpha"
       maskUnits="userSpaceOnUse"
       x="35"
       y="27"
       width="22"
       height="13">
      <path
         d="m 37.2795,36.9834 c -0.397,-0.1995 -2.0174,-0.4432 -1.6042,-2.5526 0.0743,-0.3791 0.6072,-0.5834 0.8374,-0.9985 0.1732,-0.3124 -0.0757,-0.7337 0.1492,-1.0647 0.2334,-0.3432 0.8255,-0.3697 1.1332,-0.7125 0.1885,-0.21 0.1966,-0.825 0.3917,-1.0448 0.3483,-0.3925 1.0353,-0.3679 1.4262,-0.699 0.2267,-0.1919 0.1429,-0.7712 0.3376,-0.9929 0.4738,-0.5394 1.1765,-0.7517 1.7021,-1.1158 0.4844,-0.3357 1.5087,0.3302 2.0137,0.2354 1.5847,-0.2976 2.5164,-0.8494 3.9344,-0.955 1.6858,-0.1254 2.423,0.2771 3.3106,0.4197 0.8875,0.1426 2.8885,1.7251 3.7915,3.1031 0.5327,0.8129 2.0042,3.0169 1.9323,4.4856 -0.0983,2.0103 -1.9736,4.3768 -2.2941,4.4285 -1.484,0.2396 -6.7696,-1.2384 -9.3462,-1.0811 -1.8947,0.1157 -5.256,-0.2192 -7.7154,-1.4554 z"
         id="path33"
         inkscape:connector-curvature="0"
         style="clip-rule:evenodd;fill:#ffffff;fill-rule:evenodd" />
    </mask>
    <g
       mask="url(#mask1)"
       id="g40">
      <path
         d="m 37.2795,36.9834 c -0.397,-0.1995 -2.0174,-0.4432 -1.6042,-2.5526 0.0743,-0.3791 0.6072,-0.5834 0.8374,-0.9985 0.1732,-0.3124 -0.0757,-0.7337 0.1492,-1.0647 0.2334,-0.3432 0.8255,-0.3697 1.1332,-0.7125 0.1885,-0.21 0.1966,-0.825 0.3917,-1.0448 0.3483,-0.3925 1.0353,-0.3679 1.4262,-0.699 0.2267,-0.1919 0.1429,-0.7712 0.3376,-0.9929 0.4738,-0.5394 1.1765,-0.7517 1.7021,-1.1158 0.4844,-0.3357 1.5087,0.3302 2.0137,0.2354 1.5847,-0.2976 2.5164,-0.8494 3.9344,-0.955 1.6858,-0.1254 2.423,0.2771 3.3106,0.4197 0.8875,0.1426 2.8885,1.7251 3.7915,3.1031 0.5327,0.8129 2.0042,3.0169 1.9323,4.4856 -0.0983,2.0103 -1.9736,4.3768 -2.2941,4.4285 -1.484,0.2396 -6.7696,-1.2384 -9.3462,-1.0811 -1.8947,0.1157 -5.256,-0.2192 -7.7154,-1.4554 z"
         id="path36"
         inkscape:connector-curvature="0"
         style="clip-rule:evenodd;fill:#ff9b21;fill-rule:evenodd" />
      <path
         d="m 38.3619,29.7423 c 4.018,2.5564 6.8911,4.2896 8.6192,5.1995 1.7526,0.9228 3.223,1.7184 4.4413,2.355 C 49.4211,36.5069 46.8512,35.495 44.3145,34.3616 42.4958,33.549 40.2821,32.3978 37.6736,30.908 l -0.7223,0.6926 c 4.2656,2.1251 7.3057,3.5504 9.1204,4.2758 2.9197,1.1673 5.0991,2.0899 6.6449,2.6291 -2.1371,-0.4384 -5.5411,-1.2324 -9.7393,-2.6643 -1.5915,-0.5428 -3.8334,-1.5606 -6.7259,-3.0535 l -0.3948,0.9297 c 3.8461,1.7121 6.6131,2.8246 8.301,3.3374 5.5019,1.6718 9.5266,2.0044 10.7947,1.9781 0.2191,-0.0045 0.2821,-0.0168 0.2019,-0.0446 0.0075,-0.0103 0.0089,-0.0223 0.004,-0.0361 0.1159,0.0256 0.2229,0.0426 0.3215,0.0508 1.4199,0.1185 -4.4591,-2.494 -10.0865,-5.7503 -1.723,-0.997 -3.8031,-2.3718 -6.2402,-4.1243 z"
         id="path38"
         inkscape:connector-curvature="0"
         style="clip-rule:evenodd;fill:#000000;fill-opacity:0.2;fill-rule:evenodd" />
    </g>
    <path
       d="m 85.6504,67.0172 -3.1329,43.9988 1.029,32.325 -5.6915,1.195 -9.9413,-73.7948 z"
       id="path42"
       inkscape:connector-curvature="0"
       style="clip-rule:evenodd;fill:#b28b67;fill-rule:evenodd" />
    <path
       d="m 85.6504,67.0172 -3.1329,43.9988 1.029,32.325 -5.6915,1.195 -9.9413,-73.7948 z"
       id="path44"
       inkscape:connector-curvature="0"
       style="clip-rule:evenodd;fill:#000000;fill-opacity:0.1;fill-rule:evenodd" />
    <path
       d="m 91.109,65.8542 c 3.7945,21.722 6.6551,33.4038 7.2647,35.3218 0.6095,1.918 4.5003,14.803 16.7243,36.221 l -5.922,1.244 C 94.7886,118.652 88.5988,106.25 86.8699,103.591 85.1411,100.933 79.3435,89.8678 70.1357,70.2579 Z"
       id="path46"
       inkscape:connector-curvature="0"
       style="clip-rule:evenodd;fill:#b28b67;fill-rule:evenodd" />
    <path
       d="m 85.9116,66.9622 c -0.0655,14.9285 -0.5883,38.8458 -1.5683,71.7528 l -8.3266,1.747 C 68.4901,108.478 66.5574,86.7932 67.8411,70.7555 Z"
       id="path48"
       inkscape:connector-curvature="0"
       style="clip-rule:evenodd;fill:#191847;fill-rule:evenodd" />
    <path
       d="m 91.1516,65.8461 c 3.8127,21.7199 10.5174,42.4989 22.7114,67.0169 l -8.888,1.866 C 90.6377,115.071 79.1609,95.4031 68.8564,70.5266 Z"
       id="path50"
       inkscape:connector-curvature="0"
       style="clip-rule:evenodd;fill:#2f3676;fill-rule:evenodd" />
    <path
       d="m 86.343,54.0088 -6.185,4.0188 c 16.7503,10.826 25.506,16.5038 26.266,17.0334 1.712,1.1917 1.934,4.5432 2.205,6.2462 2.493,-0.3856 0.206,-3.4338 3.379,-3.8772 2.896,-0.4047 5.807,0.3683 7.345,-2.8627 0.189,-0.3973 0.058,-1.3496 -1.151,-1.3807 -3.013,-0.0773 -7.641,-0.6276 -8.582,-1.1842 -1.283,-0.759 -9.042,-6.7568 -23.277,-17.9936 z M 30.2324,82.513 c 1.9319,0.2307 3.9543,0.5599 4.0937,1.2577 0.1393,0.6978 -1.1605,1.2424 -0.7959,2.2188 0.243,0.6509 2.194,-0.4752 5.853,-3.3784 l 11.4104,-2.2712 -1.2522,-6.271 -12.1712,5.6888 c -3.0454,0.2048 -5.6505,0.6936 -7.8152,1.4664 -0.5386,0.3253 -1.2545,1.0582 0.6774,1.2889 z"
       id="path52"
       inkscape:connector-curvature="0"
       style="clip-rule:evenodd;fill:#997659;fill-rule:evenodd" />
    <path
       d="m 56.5822,45.4556 -4.6432,3.4482 c 5.839,11.5164 3.7713,22.4989 -12.3107,29.5928 l 7.1221,15.0866 C 61.5208,86.5548 69.9219,73.4359 62.7639,57.182 60.9109,52.9744 58.8234,48.6981 56.5822,45.4556 Z"
       id="path54"
       inkscape:connector-curvature="0"
       style="clip-rule:evenodd;fill:#afb9c5;fill-rule:evenodd" />
    <path
       d="m 58.0804,42.4758 -8e-4,0.007 -6.2564,6.4109 c 8.1424,12.4418 9.4192,22.9689 13.3068,33.4356 l 0.1186,0.3171 19.8542,-12.7944 c 2.3692,3.0126 4.6886,6.1835 6.9838,9.4963 L 106.953,69.7682 C 91.925,54.1237 75.7947,44.9228 58.5619,42.1656 Z"
       id="path56"
       inkscape:connector-curvature="0"
       style="clip-rule:evenodd;fill:#c5cfd6;fill-rule:evenodd" />
    <path
       d="m 70.2415,53.9446 c 5.6315,7.4964 9.2384,13.6625 10.8207,18.4983 l 4.0313,-2.5988 C 80.5076,64.0113 75.7349,58.7727 70.5889,54.2484 Z"
       id="path58"
       inkscape:connector-curvature="0"
       style="clip-rule:evenodd;fill:#000000;fill-opacity:0.1;fill-rule:evenodd" />
  </g>
</svg>
