<?xml version="1.0" encoding="UTF-8" standalone="no"?>
<svg
   xmlns:dc="http://purl.org/dc/elements/1.1/"
   xmlns:cc="http://creativecommons.org/ns#"
   xmlns:rdf="http://www.w3.org/1999/02/22-rdf-syntax-ns#"
   xmlns:svg="http://www.w3.org/2000/svg"
   xmlns="http://www.w3.org/2000/svg"
   xmlns:sodipodi="http://sodipodi.sourceforge.net/DTD/sodipodi-0.dtd"
   xmlns:inkscape="http://www.inkscape.org/namespaces/inkscape"
   width="115"
   height="115"
   viewBox="0 0 72 115"
   version="1.1"
   id="svg35"
   sodipodi:docname="sharing.svg"
   style="fill:none"
   inkscape:version="0.92.4 (5da689c313, 2019-01-14)">
  <metadata
     id="metadata39">
    <rdf:RDF>
      <cc:Work
         rdf:about="">
        <dc:format>image/svg+xml</dc:format>
        <dc:type
           rdf:resource="http://purl.org/dc/dcmitype/StillImage" />
      </cc:Work>
    </rdf:RDF>
  </metadata>
  <sodipodi:namedview
     pagecolor="#ffffff"
     bordercolor="#666666"
     borderopacity="1"
     objecttolerance="10"
     gridtolerance="10"
     guidetolerance="10"
     inkscape:pageopacity="0"
     inkscape:pageshadow="2"
     inkscape:window-width="3440"
     inkscape:window-height="1377"
     id="namedview37"
     showgrid="false"
     inkscape:zoom="2.0521739"
     inkscape:cx="-135.03814"
     inkscape:cy="57.5"
     inkscape:window-x="-8"
     inkscape:window-y="-8"
     inkscape:window-maximized="1"
     inkscape:current-layer="svg35" />
  <g
     clip-path="url(#clip0)"
     id="g28"
     transform="matrix(0.91175119,0,0,0.91175119,26.353914,10.131051)">
    <path
       d="m 29.0467,3.67159 c -1.6689,3.11072 -1.4706,11.00131 0.6863,11.55731 0.8602,0.2217 2.6925,-0.3214 4.5575,-1.4454 L 33.12,22.065 h 6.912 L 37.6526,10.9739 c 1.327,-1.55763 2.2251,-3.46656 2.075,-5.60555 -0.4324,-6.163341 -9.012,-4.807485 -10.6809,-1.69676 z"
       id="path2"
       inkscape:connector-curvature="0"
       style="clip-rule:evenodd;fill:#915b3c;fill-rule:evenodd" />
    <path
       d="M 39.2159,3.78991 C 37.64,-2.68538 28.7224,1.33485 27.0066,0.24228 26.6315,2.5933 27.8412,4.489 32.0944,4.12274 c 0.9384,0.52429 1.606,1.50759 2.4097,2.79744 0.1956,-0.07695 0.4088,-0.11921 0.6319,-0.11921 0.9543,0 1.728,0.77365 1.728,1.728 0,0.48435 -0.1993,0.92216 -0.5204,1.23591 0.3994,0.56432 0.8476,1.15402 1.3612,1.76252 1.9143,-1.1485 3.3386,-4.49362 1.5172,-7.72522 z"
       id="path4"
       inkscape:connector-curvature="0"
       style="clip-rule:evenodd;fill:#191847;fill-rule:evenodd" />
    <path
       d="m 45.6066,45.9689 c -0.5193,7.0876 -33.9732,27.9543 -34.1684,28.5398 -0.0868,0.2602 3.3842,8.4857 10.4129,24.6763 l -2.9244,1.136 C 8.14588,83.1743 3.03233,73.6872 3.58607,71.8601 4.37887,69.2443 13.031,60.639 29.5426,46.0443 Z"
       id="path6"
       inkscape:connector-curvature="0"
       style="clip-rule:evenodd;fill:#915b3c;fill-rule:evenodd" />
    <path
       d="m 45.6066,45.9689 c -0.5193,7.0876 -33.9732,27.9543 -34.1684,28.5398 -0.0868,0.2602 3.3842,8.4857 10.4129,24.6763 l -2.9244,1.136 C 8.14588,83.1743 3.03233,73.6872 3.58607,71.8601 4.37887,69.2443 13.031,60.639 29.5426,46.0443 Z"
       id="path8"
       inkscape:connector-curvature="0"
       style="clip-rule:evenodd;fill:#000000;fill-opacity:0.1;fill-rule:evenodd" />
    <path
       d="m 21.0814,95.5285 -4.7745,1.738 C 6.2391,85.9071 2.29282,76.5345 3.01237,71.759 3.49207,68.5754 12.1144,59.9845 28.8793,45.9862 H 45.9488 C 45.3664,62.4 14.3588,74.5711 13.944,75.2706 c -0.4147,0.6994 3.6668,7.5499 7.1374,20.2579 z"
       id="path10"
       inkscape:connector-curvature="0"
       style="clip-rule:evenodd;fill:#2f3676;fill-rule:evenodd" />
    <path
       d="m 22.9269,98.6267 c 0.597,0.6981 0.9685,1.2477 1.1145,1.6493 0.1777,0.488 0.3556,1.229 0.5337,2.225 -0.5661,0.206 -5.6541,2.058 -15.26407,5.556 -0.87395,-1.167 -0.90265,-1.959 -0.0861,-2.374 0.81657,-0.416 1.49217,-0.769 2.02677,-1.059 l 5.9434,-5.7447 c 0.1144,-0.1106 0.2967,-0.1075 0.4072,0.0069 0.0019,0.0019 0.0038,0.0039 0.0056,0.0059 l 0.8587,0.9403 c 0.9255,0.0811 1.6356,0.0317 2.1302,-0.1483 0.4019,-0.1463 0.8978,-0.5106 1.4878,-1.0929 h -10e-5 c 0.2264,-0.2235 0.5911,-0.2211 0.8146,0.0053 0.0097,0.0097 0.0189,0.0198 0.0278,0.0302 z"
       id="path12"
       inkscape:connector-curvature="0"
       style="clip-rule:evenodd;fill:#e4e4e4;fill-rule:evenodd" />
    <path
       d="M 41.7601,45.9691 56.6629,81.7464 71.3101,111.993 H 67.8543 L 30.046,45.9691 Z"
       id="path14"
       inkscape:connector-curvature="0"
       style="clip-rule:evenodd;fill:#915b3c;fill-rule:evenodd" />
    <path
       d="m 71.5167,110.597 c 0.3222,0.86 0.4833,1.503 0.4833,1.93 0,0.52 -0.0865,1.278 -0.2596,2.274 -0.6024,0 -6.017,0 -16.2437,0 -0.4221,-1.396 -0.1784,-2.149 0.731,-2.26 0.9095,-0.112 1.665,-0.212 2.2665,-0.302 l 7.55,-3.365 c 0.1452,-0.065 0.3155,0 0.3803,0.145 0.0011,0.003 0.0022,0.005 0.0032,0.008 l 0.4853,1.177 c 0.8419,0.393 1.5261,0.589 2.0524,0.589 0.4277,0 1.0183,-0.172 1.7719,-0.518 v 0 c 0.2891,-0.132 0.631,-0.005 0.7636,0.284 0.0057,0.012 0.011,0.025 0.0158,0.038 z"
       id="path16"
       inkscape:connector-curvature="0"
       style="clip-rule:evenodd;fill:#e4e4e4;fill-rule:evenodd" />
    <path
       d="m 69.9873,105.71 -7.6787,1.44 C 56.3715,98.421 31.5243,62.6304 28.8,45.9691 H 45.8945 C 54.9922,58.0135 64.328,96.8366 69.9873,105.71 Z"
       id="path18"
       inkscape:connector-curvature="0"
       style="clip-rule:evenodd;fill:#5c63ab;fill-rule:evenodd" />
    <path
       d="m 18.6892,35.6494 -9.18675,6.746 c -2.49163,0.6723 -4.5733,1.5088 -6.24502,2.5095 -0.39489,0.3598 -0.87215,1.0885 0.76555,0.9626 1.6377,-0.126 3.36598,-0.1848 3.59195,0.3738 0.22597,0.5586 -0.76507,1.2266 -0.30829,1.9803 0.30453,0.5025 1.74322,-0.7574 4.31606,-3.7797 L 20.72,40.6695 Z M 0.73768,10.8396 c 1.08617,1.2321 2.17325,2.577 1.86313,3.0936 -0.31012,0.5167 -1.44005,0.1272 -1.767074,0.9456 -0.218015,0.5456 1.654014,0.9364 5.616084,1.1723 l 8.48768,4.9951 2.787,-4.6431 -10.91626,-3.277 C 4.77179,11.5409 2.85096,10.3818 1.04573,9.64889 0.520712,9.55007 -0.348492,9.60747 0.73768,10.8396 Z"
       id="path20"
       inkscape:connector-curvature="0"
       style="clip-rule:evenodd;fill:#915b3c;fill-rule:evenodd" />
    <path
       d="m 32.9585,17.482 c -5.0028,9.3282 -12.237,16.479 -22.7247,23.9124 l 3.9711,4.4775 c 11.7099,-4.3516 17.8901,-6.9772 20.925,-15.7904 0.7617,-2.212 1.2941,-9.2632 1.7508,-12.9733 z"
       id="path22"
       inkscape:connector-curvature="0"
       style="clip-rule:evenodd;fill:#2026a2;fill-rule:evenodd" />
    <path
       d="M 46.9438,48.561 H 24.7679 c 5.0232,-15.32 7.5893,-25.8348 7.6981,-31.5442 0.0056,-0.2911 0.5432,-0.804 0.781,-0.7368 1.7392,0.4912 3.6004,0.3075 5.5834,-0.551 5.2572,8.4552 7.0753,18.8653 8.1134,32.832 z"
       id="path24"
       inkscape:connector-curvature="0"
       style="clip-rule:evenodd;fill:#f2f2f2;fill-rule:evenodd" />
    <path
       d="m 8.37426,13.137 -1.17427,5.8676 c 8.98951,5.7816 18.09221,10.2603 26.06841,9.6241 -3.464,14.8569 -3.3043,27.0188 4.3422,27.0188 H 49.4349 C 51.3128,43.0268 46.3772,25.5278 41.8015,16.7015 41.6267,16.3644 41.2547,15.729 40.3785,15.729 h -3.4358 c -0.0015,0.0046 -0.0031,0.0092 -0.0046,0.0138 -6.3566,0.0519 -16.6698,1.2127 -28.56384,-2.6058 z"
       id="path26"
       inkscape:connector-curvature="0"
       style="clip-rule:evenodd;fill:#1f28cf;fill-rule:evenodd" />
  </g>
  <defs
     id="defs33">
    <clipPath
       id="clip0">
      <rect
         width="72"
         height="114.801"
         transform="matrix(-1,0,0,1,72,0)"
         id="rect30"
         x="0"
         y="0"
         style="fill:#ffffff" />
    </clipPath>
  </defs>
</svg>
