<svg width="72" height="33" viewBox="0 0 72 33" fill="none" xmlns="http://www.w3.org/2000/svg">
<g clip-path="url(#clip0)">
<rect opacity="0.16" width="48" height="18" rx="9" fill="white"/>
<rect opacity="0.64" x="36" y="21.0001" width="36" height="12" rx="6" fill="white"/>
</g>
<defs>
<clipPath id="clip0">
<rect width="72" height="33" fill="white"/>
</clipPath>
</defs>
</svg>
