<svg width="56" height="120" viewBox="0 0 56 120" fill="none" xmlns="http://www.w3.org/2000/svg">
<path d="M24.9712 15.1276L29.3868 10.6965C32.5132 7.55902 37.5939 7.55902 40.7203 10.6965L55.2643 25.2915C58.2527 28.2905 59.9307 32.3516 59.9307 36.5854V169.495" stroke="#CBCBCB" stroke-width="5"/>
<path d="M10.196 10.5766C15.5595 5.19642 24.2554 5.19642 29.619 10.5766C34.9825 15.9567 34.9825 24.6796 29.6189 30.0598L21.3789 38.3253L1.95595 18.8422L10.196 10.5766Z" fill="#C5CFD6"/>
<path fill-rule="evenodd" clip-rule="evenodd" d="M10.0833 30.2784C15.4468 35.6585 20.6512 39.1609 21.7076 38.1012C22.764 37.0415 19.2725 31.8209 13.909 26.4408C8.54549 21.0607 3.34109 17.5583 2.28464 18.618C1.2282 19.6777 4.71975 24.8983 10.0833 30.2784Z" fill="#F2F2F2"/>
</svg>
