<svg width="331" height="240" viewBox="0 0 331 240" fill="none" xmlns="http://www.w3.org/2000/svg">
<g opacity="0.16">
<path d="M308.426 0.803772H252.45C250.562 0.803772 249.032 2.33422 249.032 4.22213V117.028C249.032 118.916 250.562 120.446 252.45 120.446H308.426C310.314 120.446 311.844 118.916 311.844 117.028V4.22213C311.844 2.33422 310.314 0.803772 308.426 0.803772Z" fill="#DDE3E9"/>
<path d="M280.224 113.182C283.764 113.182 286.634 110.313 286.634 106.773C286.634 103.233 283.764 100.363 280.224 100.363C276.685 100.363 273.815 103.233 273.815 106.773C273.815 110.313 276.685 113.182 280.224 113.182Z" fill="white"/>
<path d="M274.67 8.92231C275.142 8.92231 275.524 8.5397 275.524 8.06772C275.524 7.59575 275.142 7.21313 274.67 7.21313C274.198 7.21313 273.815 7.59575 273.815 8.06772C273.815 8.5397 274.198 8.92231 274.67 8.92231Z" fill="white"/>
<path d="M285.779 7.21313H278.515C278.043 7.21313 277.661 7.59575 277.661 8.06772C277.661 8.5397 278.043 8.92231 278.515 8.92231H285.779C286.251 8.92231 286.634 8.5397 286.634 8.06772C286.634 7.59575 286.251 7.21313 285.779 7.21313Z" fill="white"/>
<path d="M304.152 12.768H256.723C255.779 12.768 255.014 13.5332 255.014 14.4772V32.7504C255.014 33.6944 255.779 34.4596 256.723 34.4596H304.152C305.096 34.4596 305.862 33.6944 305.862 32.7504V14.4772C305.862 13.5332 305.096 12.768 304.152 12.768Z" fill="white"/>
<path d="M283.642 19.2748H260.141C259.433 19.2748 258.859 19.8488 258.859 20.5567V21.2464C258.859 21.9543 259.433 22.5283 260.141 22.5283H283.642C284.35 22.5283 284.924 21.9543 284.924 21.2464V20.5567C284.924 19.8488 284.35 19.2748 283.642 19.2748Z" fill="#DDE3E9"/>
<path d="M275.073 24.6972H260.141C259.433 24.6972 258.859 25.2711 258.859 25.9791V26.6687C258.859 27.3767 259.433 27.9506 260.141 27.9506H275.073C275.781 27.9506 276.355 27.3767 276.355 26.6687V25.9791C276.355 25.2711 275.781 24.6972 275.073 24.6972Z" fill="#DDE3E9"/>
<path d="M300.428 26.6038C302.079 26.6038 303.419 25.2646 303.419 23.6127C303.419 21.9608 302.079 20.6216 300.428 20.6216C298.776 20.6216 297.437 21.9608 297.437 23.6127C297.437 25.2646 298.776 26.6038 300.428 26.6038Z" fill="#DDE3E9"/>
<path d="M300.428 24.8946C301.136 24.8946 301.71 24.3207 301.71 23.6127C301.71 22.9047 301.136 22.3308 300.428 22.3308C299.72 22.3308 299.146 22.9047 299.146 23.6127C299.146 24.3207 299.72 24.8946 300.428 24.8946Z" fill="#F2F2F2"/>
<path d="M304.152 37.9783H256.723C255.779 37.9783 255.014 38.7436 255.014 39.6875V52.3807C255.014 53.3247 255.779 54.0899 256.723 54.0899H304.152C305.096 54.0899 305.862 53.3247 305.862 52.3807V39.6875C305.862 38.7436 305.096 37.9783 304.152 37.9783Z" fill="white"/>
<path d="M296.534 42.8127H272.887C272.219 42.8127 271.678 43.3539 271.678 44.0213C271.678 44.6888 272.219 45.2299 272.887 45.2299H296.534C297.202 45.2299 297.743 44.6888 297.743 44.0213C297.743 43.3539 297.202 42.8127 296.534 42.8127Z" fill="#DDE3E9"/>
<path d="M287.965 46.8412H272.887C272.219 46.8412 271.678 47.3824 271.678 48.0499C271.678 48.7173 272.219 49.2585 272.887 49.2585H287.965C288.633 49.2585 289.174 48.7173 289.174 48.0499C289.174 47.3824 288.633 46.8412 287.965 46.8412Z" fill="#DDE3E9"/>
<path d="M263.987 51.1633C266.819 51.1633 269.114 48.8676 269.114 46.0358C269.114 43.2039 266.819 40.9083 263.987 40.9083C261.155 40.9083 258.859 43.2039 258.859 46.0358C258.859 48.8676 261.155 51.1633 263.987 51.1633Z" fill="#C5CFD6"/>
<path d="M304.152 57.6339H256.723C255.779 57.6339 255.014 58.3991 255.014 59.3431V72.0363C255.014 72.9802 255.779 73.7455 256.723 73.7455H304.152C305.096 73.7455 305.862 72.9802 305.862 72.0363V59.3431C305.862 58.3991 305.096 57.6339 304.152 57.6339Z" fill="white"/>
<path d="M283.716 62.4683H260.068C259.401 62.4683 258.859 63.0094 258.859 63.6769C258.859 64.3444 259.401 64.8855 260.068 64.8855H283.716C284.383 64.8855 284.924 64.3444 284.924 63.6769C284.924 63.0094 284.383 62.4683 283.716 62.4683Z" fill="#DDE3E9"/>
<path d="M275.146 66.4968H260.068C259.401 66.4968 258.859 67.0379 258.859 67.7054C258.859 68.3729 259.401 68.914 260.068 68.914H275.146C275.814 68.914 276.355 68.3729 276.355 67.7054C276.355 67.0379 275.814 66.4968 275.146 66.4968Z" fill="#AFB9C5"/>
<path d="M300.428 68.6823C302.079 68.6823 303.419 67.3432 303.419 65.6913C303.419 64.0393 302.079 62.7002 300.428 62.7002C298.776 62.7002 297.437 64.0393 297.437 65.6913C297.437 67.3432 298.776 68.6823 300.428 68.6823Z" fill="#DDE3E9"/>
<path d="M300.428 66.9731C301.136 66.9731 301.71 66.3992 301.71 65.6912C301.71 64.9833 301.136 64.4094 300.428 64.4094C299.72 64.4094 299.146 64.9833 299.146 65.6912C299.146 66.3992 299.72 66.9731 300.428 66.9731Z" fill="#F2F2F2"/>
<path d="M304.152 77.2894H256.723C255.779 77.2894 255.014 78.0547 255.014 78.9986V91.6918C255.014 92.6357 255.779 93.401 256.723 93.401H304.152C305.096 93.401 305.862 92.6357 305.862 91.6918V78.9986C305.862 78.0547 305.096 77.2894 304.152 77.2894Z" fill="white"/>
<path d="M296.534 82.1238H272.887C272.219 82.1238 271.678 82.665 271.678 83.3324C271.678 83.9999 272.219 84.541 272.887 84.541H296.534C297.202 84.541 297.743 83.9999 297.743 83.3324C297.743 82.665 297.202 82.1238 296.534 82.1238Z" fill="#DDE3E9"/>
<path d="M287.965 86.1523H272.887C272.219 86.1523 271.678 86.6935 271.678 87.3609C271.678 88.0284 272.219 88.5695 272.887 88.5695H287.965C288.633 88.5695 289.174 88.0284 289.174 87.3609C289.174 86.6935 288.633 86.1523 287.965 86.1523Z" fill="#DDE3E9"/>
<path d="M263.987 90.4744C266.819 90.4744 269.114 88.1788 269.114 85.3469C269.114 82.515 266.819 80.2194 263.987 80.2194C261.155 80.2194 258.859 82.515 258.859 85.3469C258.859 88.1788 261.155 90.4744 263.987 90.4744Z" fill="#C5CFD6"/>
<path d="M98.1972 10.6315H37.0941C35.2062 10.6315 33.6758 12.162 33.6758 14.0499V136.256C33.6758 138.144 35.2062 139.674 37.0941 139.674H98.1972C100.085 139.674 101.616 138.144 101.616 136.256V14.0499C101.616 12.162 100.085 10.6315 98.1972 10.6315Z" fill="#F2F2F2"/>
<path d="M67.4319 131.556C70.9717 131.556 73.8413 128.686 73.8413 125.146C73.8413 121.607 70.9717 118.737 67.4319 118.737C63.8921 118.737 61.0225 121.607 61.0225 125.146C61.0225 128.686 63.8921 131.556 67.4319 131.556Z" fill="white"/>
<path d="M61.8771 19.1774C62.349 19.1774 62.7316 18.7948 62.7316 18.3228C62.7316 17.8508 62.349 17.4682 61.8771 17.4682C61.4051 17.4682 61.0225 17.8508 61.0225 18.3228C61.0225 18.7948 61.4051 19.1774 61.8771 19.1774Z" fill="white"/>
<path d="M72.9868 17.4682H65.7228C65.2508 17.4682 64.8682 17.8508 64.8682 18.3228C64.8682 18.7948 65.2508 19.1774 65.7228 19.1774H72.9868C73.4587 19.1774 73.8413 18.7948 73.8413 18.3228C73.8413 17.8508 73.4587 17.4682 72.9868 17.4682Z" fill="white"/>
<path d="M93.9241 22.5958H41.3669C40.4229 22.5958 39.6577 23.361 39.6577 24.3049V43.9605C39.6577 44.9044 40.4229 45.6697 41.3669 45.6697H93.9241C94.868 45.6697 95.6333 44.9044 95.6333 43.9605V24.3049C95.6333 23.361 94.868 22.5958 93.9241 22.5958Z" fill="white"/>
<path d="M86.2329 29.5179H57.6041C56.8962 29.5179 56.3223 30.0919 56.3223 30.7998V31.6971C56.3223 32.4051 56.8962 32.979 57.6041 32.979H86.2329C86.9408 32.979 87.5147 32.4051 87.5147 31.6971V30.7998C87.5147 30.0919 86.9408 29.5179 86.2329 29.5179Z" fill="#DDE3E9"/>
<path d="M75.9778 35.2864H57.6041C56.8962 35.2864 56.3223 35.8603 56.3223 36.5683V37.4656C56.3223 38.1735 56.8962 38.7475 57.6041 38.7475H75.9778C76.6858 38.7475 77.2597 38.1735 77.2597 37.4656V36.5683C77.2597 35.8603 76.6858 35.2864 75.9778 35.2864Z" fill="#DDE3E9"/>
<path d="M48.6309 39.2602C51.4628 39.2602 53.7585 36.9646 53.7585 34.1327C53.7585 31.3009 51.4628 29.0052 48.6309 29.0052C45.7991 29.0052 43.5034 31.3009 43.5034 34.1327C43.5034 36.9646 45.7991 39.2602 48.6309 39.2602Z" fill="#C5CFD6"/>
<path d="M93.9241 49.088H41.3669C40.4229 49.088 39.6577 49.8532 39.6577 50.7972V65.3252C39.6577 66.2691 40.4229 67.0344 41.3669 67.0344H93.9241C94.868 67.0344 95.6333 66.2691 95.6333 65.3252V50.7972C95.6333 49.8532 94.868 49.088 93.9241 49.088Z" fill="white"/>
<path d="M86.2329 54.4719H57.6041C56.8962 54.4719 56.3223 55.0458 56.3223 55.7538V55.882C56.3223 56.59 56.8962 57.1639 57.6041 57.1639H86.2329C86.9408 57.1639 87.5147 56.59 87.5147 55.882V55.7538C87.5147 55.0458 86.9408 54.4719 86.2329 54.4719Z" fill="#DDE3E9"/>
<path d="M75.9778 58.9585H57.6041C56.8962 58.9585 56.3223 59.5324 56.3223 60.2404V60.3686C56.3223 61.0765 56.8962 61.6504 57.6041 61.6504H75.9778C76.6858 61.6504 77.2597 61.0765 77.2597 60.3686V60.2404C77.2597 59.5324 76.6858 58.9585 75.9778 58.9585Z" fill="#DDE3E9"/>
<path d="M48.6309 63.1887C51.4628 63.1887 53.7585 60.893 53.7585 58.0612C53.7585 55.2293 51.4628 52.9337 48.6309 52.9337C45.7991 52.9337 43.5034 55.2293 43.5034 58.0612C43.5034 60.893 45.7991 63.1887 48.6309 63.1887Z" fill="#C5CFD6"/>
<path d="M93.9241 70.4527H41.3669C40.4229 70.4527 39.6577 71.2179 39.6577 72.1619V86.6899C39.6577 87.6338 40.4229 88.3991 41.3669 88.3991H93.9241C94.868 88.3991 95.6333 87.6338 95.6333 86.6899V72.1619C95.6333 71.2179 94.868 70.4527 93.9241 70.4527Z" fill="white"/>
<path d="M86.2329 75.8366H57.6041C56.8962 75.8366 56.3223 76.4105 56.3223 77.1185V77.2467C56.3223 77.9546 56.8962 78.5286 57.6041 78.5286H86.2329C86.9408 78.5286 87.5147 77.9546 87.5147 77.2467V77.1185C87.5147 76.4105 86.9408 75.8366 86.2329 75.8366Z" fill="#DDE3E9"/>
<path d="M75.9778 80.3232H57.6041C56.8962 80.3232 56.3223 80.8971 56.3223 81.6051V81.7333C56.3223 82.4412 56.8962 83.0151 57.6041 83.0151H75.9778C76.6858 83.0151 77.2597 82.4412 77.2597 81.7333V81.6051C77.2597 80.8971 76.6858 80.3232 75.9778 80.3232Z" fill="#DDE3E9"/>
<path d="M48.6309 84.5534C51.4628 84.5534 53.7585 82.2577 53.7585 79.4259C53.7585 76.594 51.4628 74.2983 48.6309 74.2983C45.7991 74.2983 43.5034 76.594 43.5034 79.4259C43.5034 82.2577 45.7991 84.5534 48.6309 84.5534Z" fill="#AFB9C5"/>
<path d="M93.9241 91.8174H41.3669C40.4229 91.8174 39.6577 92.5827 39.6577 93.5266V108.055C39.6577 108.999 40.4229 109.764 41.3669 109.764H93.9241C94.868 109.764 95.6333 108.999 95.6333 108.055V93.5266C95.6333 92.5827 94.868 91.8174 93.9241 91.8174Z" fill="white"/>
<path d="M86.2329 97.2014H57.6041C56.8962 97.2014 56.3223 97.7753 56.3223 98.4832V98.6114C56.3223 99.3194 56.8962 99.8933 57.6041 99.8933H86.2329C86.9408 99.8933 87.5147 99.3194 87.5147 98.6114V98.4832C87.5147 97.7753 86.9408 97.2014 86.2329 97.2014Z" fill="#DDE3E9"/>
<path d="M75.9778 101.688H57.6041C56.8962 101.688 56.3223 102.262 56.3223 102.97V103.098C56.3223 103.806 56.8962 104.38 57.6041 104.38H75.9778C76.6858 104.38 77.2597 103.806 77.2597 103.098V102.97C77.2597 102.262 76.6858 101.688 75.9778 101.688Z" fill="#DDE3E9"/>
<path d="M48.6309 105.918C51.4628 105.918 53.7585 103.622 53.7585 100.791C53.7585 97.9588 51.4628 95.6631 48.6309 95.6631C45.7991 95.6631 43.5034 97.9588 43.5034 100.791C43.5034 103.622 45.7991 105.918 48.6309 105.918Z" fill="#C5CFD6"/>
<path d="M243.904 43.5332H107.598C105.71 43.5332 104.179 45.0637 104.179 46.9516V187.959C104.179 189.847 105.71 191.377 107.598 191.377H243.904C245.792 191.377 247.323 189.847 247.323 187.959V46.9516C247.323 45.0637 245.792 43.5332 243.904 43.5332Z" fill="#F2F2F2"/>
<path d="M237.068 61.9069H213.994C212.106 61.9069 210.576 63.4373 210.576 65.3252V93.0993C210.576 94.9872 212.106 96.5177 213.994 96.5177H237.068C238.956 96.5177 240.486 94.9872 240.486 93.0993V65.3252C240.486 63.4373 238.956 61.9069 237.068 61.9069Z" fill="white"/>
<path d="M225.531 81.9897C229.307 81.9897 232.368 78.9288 232.368 75.153C232.368 71.3772 229.307 68.3163 225.531 68.3163C221.755 68.3163 218.694 71.3772 218.694 75.153C218.694 78.9288 221.755 81.9897 225.531 81.9897Z" fill="#DDE3E9"/>
<path d="M234.931 83.6989H216.131C215.423 83.6989 214.849 84.2728 214.849 84.9807C214.849 85.6887 215.423 86.2626 216.131 86.2626H234.931C235.639 86.2626 236.213 85.6887 236.213 84.9807C236.213 84.2728 235.639 83.6989 234.931 83.6989Z" fill="#DDE3E9"/>
<path d="M231.513 87.9718H219.549C218.841 87.9718 218.267 88.5457 218.267 89.2537C218.267 89.9616 218.841 90.5356 219.549 90.5356H231.513C232.221 90.5356 232.795 89.9616 232.795 89.2537C232.795 88.5457 232.221 87.9718 231.513 87.9718Z" fill="#DDE3E9"/>
<path fill-rule="evenodd" clip-rule="evenodd" d="M107.598 43.5332H243.904C245.792 43.5332 247.323 45.0637 247.323 46.9516V55.0701H104.179V46.9516C104.179 45.0637 105.71 43.5332 107.598 43.5332Z" fill="#C5CFD6"/>
<path d="M109.734 51.2245C110.678 51.2245 111.443 50.4593 111.443 49.5153C111.443 48.5714 110.678 47.8062 109.734 47.8062C108.79 47.8062 108.025 48.5714 108.025 49.5153C108.025 50.4593 108.79 51.2245 109.734 51.2245Z" fill="#F2F2F2"/>
<path d="M114.862 51.2245C115.805 51.2245 116.571 50.4593 116.571 49.5153C116.571 48.5714 115.805 47.8062 114.862 47.8062C113.918 47.8062 113.152 48.5714 113.152 49.5153C113.152 50.4593 113.918 51.2245 114.862 51.2245Z" fill="#F2F2F2"/>
<path d="M119.989 51.2245C120.933 51.2245 121.698 50.4593 121.698 49.5153C121.698 48.5714 120.933 47.8062 119.989 47.8062C119.045 47.8062 118.28 48.5714 118.28 49.5153C118.28 50.4593 119.045 51.2245 119.989 51.2245Z" fill="#F2F2F2"/>
<path d="M237.068 99.936H213.994C212.106 99.936 210.576 101.466 210.576 103.354V179.413C210.576 181.301 212.106 182.831 213.994 182.831H237.068C238.956 182.831 240.486 181.301 240.486 179.413V103.354C240.486 101.466 238.956 99.936 237.068 99.936Z" fill="white"/>
<path d="M231.086 107.627H219.976C219.032 107.627 218.267 108.393 218.267 109.336V117.028C218.267 117.972 219.032 118.737 219.976 118.737H231.086C232.03 118.737 232.795 117.972 232.795 117.028V109.336C232.795 108.393 232.03 107.627 231.086 107.627Z" fill="#DDE3E9"/>
<path d="M231.086 122.155H219.976C219.032 122.155 218.267 122.921 218.267 123.865V131.129C218.267 132.072 219.032 132.838 219.976 132.838H231.086C232.03 132.838 232.795 132.072 232.795 131.129V123.865C232.795 122.921 232.03 122.155 231.086 122.155Z" fill="#AFB9C5"/>
<path d="M231.086 136.256H219.976C219.032 136.256 218.267 137.021 218.267 137.965V145.229C218.267 146.173 219.032 146.938 219.976 146.938H231.086C232.03 146.938 232.795 146.173 232.795 145.229V137.965C232.795 137.021 232.03 136.256 231.086 136.256Z" fill="#DDE3E9"/>
<path d="M231.086 164.457H219.976C219.032 164.457 218.267 165.223 218.267 166.167V173.431C218.267 174.375 219.032 175.14 219.976 175.14H231.086C232.03 175.14 232.795 174.375 232.795 173.431V166.167C232.795 165.223 232.03 164.457 231.086 164.457Z" fill="#DDE3E9"/>
<path d="M231.086 150.357H219.976C219.032 150.357 218.267 151.122 218.267 152.066V159.33C218.267 160.274 219.032 161.039 219.976 161.039H231.086C232.03 161.039 232.795 160.274 232.795 159.33V152.066C232.795 151.122 232.03 150.357 231.086 150.357Z" fill="#C5CFD6"/>
<path d="M205.448 62.3342H112.725C111.781 62.3342 111.016 63.0994 111.016 64.0433V80.7078C111.016 81.6518 111.781 82.417 112.725 82.417H205.448C206.392 82.417 207.157 81.6518 207.157 80.7078V64.0433C207.157 63.0994 206.392 62.3342 205.448 62.3342Z" fill="white"/>
<path d="M184.938 68.359H116.144C115.436 68.359 114.862 68.9329 114.862 69.6409V70.0896C114.862 70.7975 115.436 71.3714 116.144 71.3714H184.938C185.646 71.3714 186.22 70.7975 186.22 70.0896V69.6409C186.22 68.9329 185.646 68.359 184.938 68.359Z" fill="#DDE3E9"/>
<path d="M161.478 73.3798H116.144C115.436 73.3798 114.862 73.9537 114.862 74.6616V75.1103C114.862 75.8183 115.436 76.3922 116.144 76.3922H161.478C162.186 76.3922 162.76 75.8183 162.76 75.1103V74.6616C162.76 73.9537 162.186 73.3798 161.478 73.3798Z" fill="#DDE3E9"/>
<path d="M196.883 75.3666C198.535 75.3666 199.874 74.0275 199.874 72.3756C199.874 70.7237 198.535 69.3845 196.883 69.3845C195.231 69.3845 193.892 70.7237 193.892 72.3756C193.892 74.0275 195.231 75.3666 196.883 75.3666Z" fill="#DDE3E9"/>
<path d="M196.882 73.6575C197.59 73.6575 198.164 73.0835 198.164 72.3756C198.164 71.6676 197.59 71.0937 196.882 71.0937C196.175 71.0937 195.601 71.6676 195.601 72.3756C195.601 73.0835 196.175 73.6575 196.882 73.6575Z" fill="#F2F2F2"/>
<path d="M205.448 85.8353H112.725C111.781 85.8353 111.016 86.6006 111.016 87.5445V100.791C111.016 101.735 111.781 102.5 112.725 102.5H205.448C206.392 102.5 207.157 101.735 207.157 100.791V87.5445C207.157 86.6006 206.392 85.8353 205.448 85.8353Z" fill="white"/>
<path d="M184.97 90.8347H116.112C115.421 90.8347 114.862 91.3943 114.862 92.0846C114.862 92.7748 115.421 93.3344 116.112 93.3344H184.97C185.66 93.3344 186.22 92.7748 186.22 92.0846C186.22 91.3943 185.66 90.8347 184.97 90.8347Z" fill="#DDE3E9"/>
<path d="M161.51 95.0009H116.112C115.421 95.0009 114.862 95.5604 114.862 96.2507C114.862 96.9409 115.421 97.5005 116.112 97.5005H161.51C162.2 97.5005 162.76 96.9409 162.76 96.2507C162.76 95.5604 162.2 95.0009 161.51 95.0009Z" fill="#DDE3E9"/>
<path d="M196.883 97.1586C198.535 97.1586 199.874 95.8195 199.874 94.1676C199.874 92.5157 198.535 91.1765 196.883 91.1765C195.231 91.1765 193.892 92.5157 193.892 94.1676C193.892 95.8195 195.231 97.1586 196.883 97.1586Z" fill="#DDE3E9"/>
<path d="M196.882 95.4495C197.59 95.4495 198.164 94.8755 198.164 94.1676C198.164 93.4596 197.59 92.8857 196.882 92.8857C196.175 92.8857 195.601 93.4596 195.601 94.1676C195.601 94.8755 196.175 95.4495 196.882 95.4495Z" fill="#F2F2F2"/>
<path d="M205.448 105.918H112.725C111.781 105.918 111.016 106.683 111.016 107.627V120.873C111.016 121.817 111.781 122.583 112.725 122.583H205.448C206.392 122.583 207.157 121.817 207.157 120.873V107.627C207.157 106.683 206.392 105.918 205.448 105.918Z" fill="white"/>
<path d="M184.97 110.918H116.112C115.421 110.918 114.862 111.477 114.862 112.167C114.862 112.858 115.421 113.417 116.112 113.417H184.97C185.66 113.417 186.22 112.858 186.22 112.167C186.22 111.477 185.66 110.918 184.97 110.918Z" fill="#DDE3E9"/>
<path d="M161.51 115.084H116.112C115.421 115.084 114.862 115.643 114.862 116.334C114.862 117.024 115.421 117.583 116.112 117.583H161.51C162.2 117.583 162.76 117.024 162.76 116.334C162.76 115.643 162.2 115.084 161.51 115.084Z" fill="#DDE3E9"/>
<path d="M196.883 117.241C198.535 117.241 199.874 115.902 199.874 114.25C199.874 112.598 198.535 111.259 196.883 111.259C195.231 111.259 193.892 112.598 193.892 114.25C193.892 115.902 195.231 117.241 196.883 117.241Z" fill="#DDE3E9"/>
<path d="M196.882 115.532C197.59 115.532 198.164 114.958 198.164 114.25C198.164 113.542 197.59 112.969 196.882 112.969C196.175 112.969 195.601 113.542 195.601 114.25C195.601 114.958 196.175 115.532 196.882 115.532Z" fill="#AFB9C5"/>
<path d="M205.448 166.167H112.725C111.781 166.167 111.016 166.932 111.016 167.876V181.122C111.016 182.066 111.781 182.831 112.725 182.831H205.448C206.392 182.831 207.157 182.066 207.157 181.122V167.876C207.157 166.932 206.392 166.167 205.448 166.167Z" fill="white"/>
<path d="M184.97 171.166H116.112C115.421 171.166 114.862 171.726 114.862 172.416C114.862 173.106 115.421 173.666 116.112 173.666H184.97C185.66 173.666 186.22 173.106 186.22 172.416C186.22 171.726 185.66 171.166 184.97 171.166Z" fill="#DDE3E9"/>
<path d="M161.51 175.332H116.112C115.421 175.332 114.862 175.892 114.862 176.582C114.862 177.272 115.421 177.832 116.112 177.832H161.51C162.2 177.832 162.76 177.272 162.76 176.582C162.76 175.892 162.2 175.332 161.51 175.332Z" fill="#DDE3E9"/>
<path d="M196.883 177.49C198.535 177.49 199.874 176.151 199.874 174.499C199.874 172.847 198.535 171.508 196.883 171.508C195.231 171.508 193.892 172.847 193.892 174.499C193.892 176.151 195.231 177.49 196.883 177.49Z" fill="#DDE3E9"/>
<path d="M196.882 175.781C197.59 175.781 198.164 175.207 198.164 174.499C198.164 173.791 197.59 173.217 196.882 173.217C196.175 173.217 195.601 173.791 195.601 174.499C195.601 175.207 196.175 175.781 196.882 175.781Z" fill="#F2F2F2"/>
<path d="M205.448 146.084H112.725C111.781 146.084 111.016 146.849 111.016 147.793V161.039C111.016 161.983 111.781 162.748 112.725 162.748H205.448C206.392 162.748 207.157 161.983 207.157 161.039V147.793C207.157 146.849 206.392 146.084 205.448 146.084Z" fill="white"/>
<path d="M184.97 151.083H116.112C115.421 151.083 114.862 151.643 114.862 152.333C114.862 153.023 115.421 153.583 116.112 153.583H184.97C185.66 153.583 186.22 153.023 186.22 152.333C186.22 151.643 185.66 151.083 184.97 151.083Z" fill="#DDE3E9"/>
<path d="M161.51 155.249H116.112C115.421 155.249 114.862 155.809 114.862 156.499C114.862 157.189 115.421 157.749 116.112 157.749H161.51C162.2 157.749 162.76 157.189 162.76 156.499C162.76 155.809 162.2 155.249 161.51 155.249Z" fill="#DDE3E9"/>
<path d="M196.883 157.407C198.535 157.407 199.874 156.068 199.874 154.416C199.874 152.764 198.535 151.425 196.883 151.425C195.231 151.425 193.892 152.764 193.892 154.416C193.892 156.068 195.231 157.407 196.883 157.407Z" fill="#DDE3E9"/>
<path d="M196.882 155.698C197.59 155.698 198.164 155.124 198.164 154.416C198.164 153.708 197.59 153.134 196.882 153.134C196.175 153.134 195.601 153.708 195.601 154.416C195.601 155.124 196.175 155.698 196.882 155.698Z" fill="#F2F2F2"/>
<path d="M205.448 126.001H112.725C111.781 126.001 111.016 126.766 111.016 127.71V140.956C111.016 141.9 111.781 142.665 112.725 142.665H205.448C206.392 142.665 207.157 141.9 207.157 140.956V127.71C207.157 126.766 206.392 126.001 205.448 126.001Z" fill="white"/>
<path d="M184.97 131H116.112C115.421 131 114.862 131.56 114.862 132.25C114.862 132.94 115.421 133.5 116.112 133.5H184.97C185.66 133.5 186.22 132.94 186.22 132.25C186.22 131.56 185.66 131 184.97 131Z" fill="#DDE3E9"/>
<path d="M161.51 135.167H116.112C115.421 135.167 114.862 135.726 114.862 136.416C114.862 137.107 115.421 137.666 116.112 137.666H161.51C162.2 137.666 162.76 137.107 162.76 136.416C162.76 135.726 162.2 135.167 161.51 135.167Z" fill="#DDE3E9"/>
<path d="M196.883 137.324C198.535 137.324 199.874 135.985 199.874 134.333C199.874 132.681 198.535 131.342 196.883 131.342C195.231 131.342 193.892 132.681 193.892 134.333C193.892 135.985 195.231 137.324 196.883 137.324Z" fill="#DDE3E9"/>
<path d="M196.882 135.615C197.59 135.615 198.164 135.041 198.164 134.333C198.164 133.625 197.59 133.051 196.882 133.051C196.175 133.051 195.601 133.625 195.601 134.333C195.601 135.041 196.175 135.615 196.882 135.615Z" fill="#F2F2F2"/>
<path d="M164.855 25.5868C164.855 24.8788 164.281 24.3049 163.573 24.3049C162.865 24.3049 162.291 24.8788 162.291 25.5868V33.7054C162.291 34.4134 162.865 34.9873 163.573 34.9873C164.281 34.9873 164.855 34.4134 164.855 33.7054V25.5868Z" fill="#DDE3E9"/>
<path d="M170.837 18.7501C170.837 18.0421 170.263 17.4682 169.555 17.4682C168.847 17.4682 168.273 18.0421 168.273 18.7501V33.7054C168.273 34.4133 168.847 34.9873 169.555 34.9873C170.263 34.9873 170.837 34.4133 170.837 33.7054V18.7501Z" fill="#DDE3E9"/>
<path d="M176.819 15.3318C176.819 14.6238 176.245 14.0499 175.537 14.0499C174.829 14.0499 174.255 14.6238 174.255 15.3318V33.7055C174.255 34.4134 174.829 34.9873 175.537 34.9873C176.245 34.9873 176.819 34.4134 176.819 33.7055V15.3318Z" fill="#DDE3E9"/>
<path d="M182.801 18.7501C182.801 18.0421 182.227 17.4682 181.519 17.4682C180.811 17.4682 180.237 18.0421 180.237 18.7501V33.7054C180.237 34.4133 180.811 34.9873 181.519 34.9873C182.227 34.9873 182.801 34.4133 182.801 33.7054V18.7501Z" fill="#DDE3E9"/>
<path d="M188.783 11.9134C188.783 11.2054 188.21 10.6315 187.502 10.6315C186.794 10.6315 186.22 11.2054 186.22 11.9134V33.7054C186.22 34.4134 186.794 34.9873 187.502 34.9873C188.21 34.9873 188.783 34.4134 188.783 33.7054V11.9134Z" fill="#C5CFD6"/>
<path fill-rule="evenodd" clip-rule="evenodd" d="M298.498 177.353C297.677 178.224 296.514 178.772 295.22 178.772C292.735 178.772 290.72 176.763 290.72 174.285C290.72 171.807 292.735 169.799 295.22 169.799V161.466C288.149 161.466 282.361 167.236 282.361 174.285C282.361 181.334 288.149 187.104 295.22 187.104C298.935 187.104 302.292 185.538 304.58 183.046L298.498 177.353Z" fill="#F2F2F2"/>
<path fill-rule="evenodd" clip-rule="evenodd" d="M295.18 161.466V169.799C297.658 169.799 299.666 171.807 299.666 174.285H307.999C307.999 167.236 302.229 161.466 295.18 161.466Z" fill="#AFB9C5"/>
<path fill-rule="evenodd" clip-rule="evenodd" d="M299.494 174.285C299.494 175.741 298.808 177.035 297.743 177.871L302.983 184.54C306.032 182.152 307.998 178.451 307.998 174.285H299.494Z" fill="#C5CFD6"/>
<path fill-rule="evenodd" clip-rule="evenodd" d="M12.7601 72.8045C12.1285 73.4728 11.2337 73.8924 10.2386 73.8924C8.3265 73.8924 6.77643 72.3524 6.77643 70.4527C6.77643 68.553 8.3265 67.013 10.2386 67.013V60.6249C4.79904 60.6249 0.34668 65.0484 0.34668 70.4527C0.34668 75.857 4.79904 80.2805 10.2386 80.2805C13.0959 80.2805 15.6782 79.0795 17.4384 77.169L12.7601 72.8045Z" fill="#F2F2F2"/>
<path fill-rule="evenodd" clip-rule="evenodd" d="M10.1743 60.6249V67.013C12.074 67.013 13.614 68.553 13.614 70.4527H20.0021C20.0021 65.0484 15.5786 60.6249 10.1743 60.6249Z" fill="#AFB9C5"/>
<path fill-rule="evenodd" clip-rule="evenodd" d="M13.624 70.4527C13.624 71.5445 13.1098 72.5151 12.311 73.1417L16.2406 78.144C18.528 76.3531 20.0023 73.5771 20.0023 70.4527H13.624Z" fill="#C5CFD6"/>
<path fill-rule="evenodd" clip-rule="evenodd" d="M310.138 64.892C310.136 64.8961 310.134 64.9002 310.132 64.9051C310.134 64.901 310.138 64.8846 310.138 64.892Z" fill="#C5CFD6"/>
<path fill-rule="evenodd" clip-rule="evenodd" d="M310.134 64.8983C310.134 64.8992 310.133 64.9008 310.133 64.9025C310.133 64.8983 310.14 64.886 310.134 64.8983Z" fill="#C5CFD6"/>
<path fill-rule="evenodd" clip-rule="evenodd" d="M310.163 64.8262C310.157 64.8433 310.15 64.8596 310.143 64.8767C310.146 64.8681 310.15 64.8613 310.153 64.8527C310.064 65.0749 310.121 64.9305 310.163 64.8262Z" fill="#C5CFD6"/>
<path fill-rule="evenodd" clip-rule="evenodd" d="M310.144 64.8777C310.141 64.8854 310.137 64.8939 310.134 64.9016C310.109 64.9495 310.144 64.8777 310.144 64.8777Z" fill="#C5CFD6"/>
<path fill-rule="evenodd" clip-rule="evenodd" d="M310.134 64.8996C310.134 64.8983 310.134 64.8983 310.136 64.897C310.134 64.8983 310.134 64.8983 310.134 64.8996Z" fill="#C5CFD6"/>
<path fill-rule="evenodd" clip-rule="evenodd" d="M310.13 64.9043C310.125 64.9142 310.153 64.8665 310.13 64.9043V64.9043Z" fill="#C5CFD6"/>
<path fill-rule="evenodd" clip-rule="evenodd" d="M310.134 64.8996L310.136 64.897C310.135 64.8983 310.135 64.8996 310.134 64.8996Z" fill="#C5CFD6"/>
<path d="M328.508 42.6786H291.334C290.39 42.6786 289.625 43.4438 289.625 44.3878V67.8889C289.625 68.8329 290.39 69.5981 291.334 69.5981H328.508C329.452 69.5981 330.217 68.8329 330.217 67.8889V44.3878C330.217 43.4438 329.452 42.6786 328.508 42.6786Z" fill="#C5CFD6"/>
<path fill-rule="evenodd" clip-rule="evenodd" d="M305.007 50.3699L293.043 69.5982H316.971L305.007 50.3699Z" fill="#AFB9C5"/>
<path fill-rule="evenodd" clip-rule="evenodd" d="M316.758 55.4974L306.289 69.5981H327.227L316.758 55.4974Z" fill="#AFB9C5"/>
<path d="M321.245 55.4974C323.368 55.4974 325.09 53.7756 325.09 51.6517C325.09 49.5278 323.368 47.8061 321.245 47.8061C319.121 47.8061 317.399 49.5278 317.399 51.6517C317.399 53.7756 319.121 55.4974 321.245 55.4974Z" fill="white"/>
<path fill-rule="evenodd" clip-rule="evenodd" d="M33.6725 199.917C33.6741 199.921 33.6758 199.925 33.6782 199.93C33.6758 199.926 33.6725 199.91 33.6725 199.917Z" fill="#C5CFD6"/>
<path fill-rule="evenodd" clip-rule="evenodd" d="M33.6764 199.923C33.6764 199.924 33.6772 199.926 33.6772 199.927C33.6772 199.923 33.6698 199.911 33.6764 199.923Z" fill="#C5CFD6"/>
<path fill-rule="evenodd" clip-rule="evenodd" d="M33.6467 199.851C33.6527 199.868 33.6604 199.885 33.6672 199.902C33.6638 199.893 33.6604 199.886 33.657 199.878C33.7459 200.1 33.6894 199.955 33.6467 199.851Z" fill="#C5CFD6"/>
<path fill-rule="evenodd" clip-rule="evenodd" d="M33.6659 199.903C33.6694 199.91 33.6728 199.919 33.6762 199.927C33.701 199.975 33.6659 199.903 33.6659 199.903Z" fill="#C5CFD6"/>
<path fill-rule="evenodd" clip-rule="evenodd" d="M33.6758 199.925C33.6758 199.923 33.6758 199.923 33.6745 199.922C33.6758 199.923 33.6758 199.923 33.6758 199.925Z" fill="#C5CFD6"/>
<path fill-rule="evenodd" clip-rule="evenodd" d="M33.6796 199.929C33.6845 199.939 33.6566 199.891 33.6796 199.929V199.929Z" fill="#C5CFD6"/>
<path fill-rule="evenodd" clip-rule="evenodd" d="M33.6763 199.925L33.6737 199.922C33.675 199.923 33.675 199.925 33.6763 199.925Z" fill="#C5CFD6"/>
<path d="M5.0466 167.021H62.304C63.248 167.021 64.0132 167.786 64.0132 168.73V205.478C64.0132 206.422 63.248 207.187 62.304 207.187H5.0466C4.10265 207.187 3.33743 206.422 3.33743 205.478V168.73C3.33743 167.786 4.10265 167.021 5.0466 167.021Z" fill="#DDE3E9"/>
<path fill-rule="evenodd" clip-rule="evenodd" d="M41.4838 178.558L59.0264 207.187H23.9412L41.4838 178.558Z" fill="#AFB9C5"/>
<path fill-rule="evenodd" clip-rule="evenodd" d="M23.3966 186.227L38.9053 207.187H7.88799L23.3966 186.227Z" fill="#C5CFD6"/>
<path d="M16.7974 186.249C13.6116 186.249 11.029 183.667 11.029 180.481C11.029 177.295 13.6116 174.712 16.7974 174.712C19.9833 174.712 22.5659 177.295 22.5659 180.481C22.5659 183.667 19.9833 186.249 16.7974 186.249Z" fill="white"/>
</g>
<path fill-rule="evenodd" clip-rule="evenodd" d="M256.065 47.5522C253.173 52.9435 253.516 66.619 257.254 67.5826C258.745 67.9669 261.921 67.0256 265.153 65.0775L263.125 79.4306H275.104L270.98 60.2082C273.28 57.5085 274.837 54.2001 274.577 50.4929C273.827 39.811 258.957 42.1609 256.065 47.5522Z" fill="#B28B67"/>
<path fill-rule="evenodd" clip-rule="evenodd" d="M262.559 42.3046C259.198 42.5929 256.197 43.6178 255.346 44.2265C255.346 47.4086 255.963 48.3528 261.229 48.2695C262.523 48.9529 263.518 50.1296 264.554 51.6722C264.096 58.0599 262.883 61.2541 260.915 61.2541C257.964 61.2541 255.46 59.3805 254.165 59.3805C253.221 59.3805 253.432 60.5618 254.057 61.4377C254.574 62.1603 257.088 62.8568 257.088 63.9771C257.088 65.0974 255.101 64.2307 255.101 64.8952C255.101 65.9942 254.752 68.0606 256.66 68.0606C258.59 68.0606 264.125 67.3571 265.074 64.492C265.686 62.643 266.082 58.8116 266.261 52.9979C266.378 52.9832 266.497 52.976 266.618 52.976C268.272 52.976 269.613 54.3168 269.613 55.9709C269.613 56.8105 269.268 57.5695 268.711 58.1133C269.404 59.0914 270.181 60.1132 271.07 61.1675C274.414 59.1617 276.895 53.2899 273.626 47.6493C272.723 44.886 270.677 43.41 268.262 42.7247C266.305 41.9062 264.274 41.8139 262.559 42.3046Z" fill="#191847"/>
<path fill-rule="evenodd" clip-rule="evenodd" d="M279.096 120.859L261 184.364L247.796 231.17H238.166L252.197 120.859H279.096Z" fill="#191847"/>
<path fill-rule="evenodd" clip-rule="evenodd" d="M283.936 120.859C284.354 153.59 285.782 171.443 286.221 174.417C286.661 177.39 293.306 196.308 306.157 231.17H296.181C279.821 197.726 270.688 178.808 268.783 174.417C266.878 170.025 260.998 152.173 252.143 120.859H283.936Z" fill="#2F3676"/>
<path fill-rule="evenodd" clip-rule="evenodd" d="M307.048 240.155L306.549 229.673H296.067C291.097 233.167 284.608 235.995 276.601 238.158V240.155H295.568L302.057 239.157V240.155H307.048Z" fill="#191847"/>
<path fill-rule="evenodd" clip-rule="evenodd" d="M249.148 240.155L248.649 229.673H238.167C233.197 233.167 226.708 235.995 218.7 238.158V240.155H237.668L244.157 239.157V240.155H249.148Z" fill="#191847"/>
<path fill-rule="evenodd" clip-rule="evenodd" d="M306.296 109.379L296.068 111.409C306.354 130.578 311.87 140.738 312.617 141.889C314.296 144.477 312.729 149.22 312.151 151.717C315.782 152.562 314.35 147.097 318.945 148.238C323.139 149.28 326.696 151.953 330.607 148.348C331.087 147.905 331.439 146.519 329.8 145.809C325.716 144.038 319.681 140.724 318.703 139.437C317.368 137.682 313.233 127.663 306.296 109.379ZM205.13 94.0332L205.315 94.305C206.857 96.5752 208.299 98.9569 207.681 99.7484C207.039 100.572 205.177 99.663 204.442 101.002C203.952 101.894 207.089 102.962 213.855 104.205L227.401 114.59L233.176 107.192L215.089 99.2487C211.921 96.0916 208.862 93.692 205.911 92.05C205.029 91.7691 203.521 91.6842 205.13 94.0332Z" fill="#B28B67"/>
<path fill-rule="evenodd" clip-rule="evenodd" d="M268.268 71.1109L263.952 70.3706C254.551 79.49 250.714 101.399 244.449 104.299C238.526 107.041 230.129 104.388 220.148 100.805L217.092 107.635C226.16 117.446 245.48 125.735 253.311 121.003C265.831 113.437 268.722 86.4155 268.268 71.1109Z" fill="#DB2721"/>
<path fill-rule="evenodd" clip-rule="evenodd" d="M287.083 125.352C269.777 125.352 257.047 125.352 248.893 125.352C247.148 125.352 247.477 122.832 247.729 121.56C250.641 106.885 262.006 91.0664 262.006 70.1769L273.022 68.4495C282.133 83.1035 285.284 101.146 287.083 125.352Z" fill="#DDE3E9"/>
<path fill-rule="evenodd" clip-rule="evenodd" d="M269.37 68.4495C259.481 102.16 256.754 124.622 261.191 135.834H295.568C295.024 127.629 293.28 118.952 290.891 110.492C298.677 124.537 305.221 134.647 310.524 140.825L318.529 139.257C313.372 107.278 298.44 83.6755 273.732 68.4495L269.37 68.4495Z" fill="#FF4133"/>
<path fill-rule="evenodd" clip-rule="evenodd" d="M158.375 83.9897C161.267 89.3811 160.924 103.057 157.185 104.02C155.695 104.404 152.519 103.463 149.287 101.515L151.315 115.868H139.336L143.46 96.6457C141.16 93.9461 139.603 90.6376 139.863 86.9305C140.613 76.2486 155.483 78.5984 158.375 83.9897Z" fill="#EAC7A8"/>
<path fill-rule="evenodd" clip-rule="evenodd" d="M138.338 71.9435C142.473 71.9435 145.825 75.2956 145.825 79.4306L145.824 79.3243C151.842 77.2391 159.652 79.6754 158.607 84.5622C157.936 87.7001 154.302 89.2674 150.726 90.9448C150.2 90.031 149.197 89.4135 148.045 89.4135C146.348 89.4135 144.972 90.7544 144.972 92.4084C144.972 93.0041 145.15 93.5593 145.458 94.0257C144.255 95.072 143.407 96.3314 143.202 97.9647C141.263 97.9647 138.13 92.2728 139.164 86.8725C138.893 86.9025 138.617 86.9178 138.338 86.9178C134.203 86.9178 130.851 83.5657 130.851 79.4306C130.851 75.2956 134.203 71.9435 138.338 71.9435Z" fill="#191847"/>
<path fill-rule="evenodd" clip-rule="evenodd" d="M117.684 178.261H156.245L161.298 240.155H103.896L117.684 178.261Z" fill="#C5CFD6"/>
<path fill-rule="evenodd" clip-rule="evenodd" d="M117.684 178.261H129.544L136.642 240.155H103.896L117.684 178.261Z" fill="black" fill-opacity="0.1"/>
<path fill-rule="evenodd" clip-rule="evenodd" d="M220.775 237.659C210.934 225.642 204.276 216.733 200.799 210.932C194.847 200.999 189.975 192.161 188.438 188.785C184.772 180.734 196.878 176.965 199.618 180.72C203.764 186.403 212.621 204.288 226.186 234.374L220.775 237.659Z" fill="#EAC7A8"/>
<path fill-rule="evenodd" clip-rule="evenodd" d="M200.609 234.165L182.294 188.063C178.377 179.658 197.294 174.134 200.173 178.045C206.709 186.925 222.243 221.953 224.19 224.599L200.609 234.165Z" fill="#2F3676"/>
<path fill-rule="evenodd" clip-rule="evenodd" d="M151.831 224.92C155.398 219.715 168.375 202.207 175.443 194.963C177.474 192.881 179.456 190.883 181.33 189.021C186.902 183.487 197.997 192.789 192.436 197.83C178.586 210.383 158.378 227.33 156.69 228.841C154.324 230.959 149.588 228.19 151.831 224.92Z" fill="#EAC7A8"/>
<path fill-rule="evenodd" clip-rule="evenodd" d="M152.665 222.569C151.436 223.58 150.637 224.407 150.267 225.048C149.817 225.827 149.29 227.04 148.686 228.685C149.59 229.207 157.717 233.899 173.067 242.761C174.91 241.033 175.197 239.691 173.928 238.736C172.66 237.78 171.613 236.975 170.788 236.319L162.372 224.725C162.21 224.502 161.898 224.452 161.675 224.614C161.671 224.617 161.668 224.62 161.664 224.622L159.915 225.969C158.311 225.829 157.114 225.531 156.324 225.075C155.682 224.704 154.945 223.933 154.114 222.761L154.114 222.761C153.794 222.312 153.171 222.206 152.722 222.525C152.702 222.539 152.683 222.554 152.665 222.569Z" fill="#E4E4E4"/>
<path fill-rule="evenodd" clip-rule="evenodd" d="M216.542 235.863C215.984 237.354 215.705 238.469 215.705 239.209C215.705 240.109 215.855 241.423 216.154 243.15C217.199 243.15 226.583 243.15 244.307 243.15C245.039 240.731 244.616 239.425 243.04 239.233C241.464 239.04 240.154 238.866 239.112 238.71L226.027 232.877C225.775 232.765 225.48 232.878 225.368 233.13C225.366 233.134 225.364 233.138 225.362 233.143L224.521 235.183C223.062 235.864 221.876 236.204 220.964 236.204C220.223 236.204 219.199 235.905 217.893 235.306L217.893 235.306C217.392 235.076 216.799 235.296 216.57 235.797C216.56 235.819 216.551 235.841 216.542 235.863Z" fill="#E4E4E4"/>
<path fill-rule="evenodd" clip-rule="evenodd" d="M175.705 190.365C160.482 187.885 150.286 186.19 145.116 185.278C130.38 182.68 126.083 174.75 128.624 157.448H155.775C159.368 158.485 174.381 164.903 200.814 176.7C205.57 179.06 204.684 186.021 203.815 188.315C203.78 188.408 195.762 202.147 179.763 229.529L157.552 215.38L175.746 192.033C176.227 191.065 176.213 190.509 175.705 190.365Z" fill="#5C63AB"/>
<path fill-rule="evenodd" clip-rule="evenodd" d="M116.529 151.317L126.96 151.358C120.519 172.149 117.043 183.181 116.529 184.453C115.374 187.316 117.818 191.675 118.864 194.018C115.459 195.541 115.822 189.9 111.528 191.897C107.608 193.721 104.626 197.025 100.098 194.231C99.5412 193.887 98.9311 192.594 100.405 191.583C104.078 189.065 109.37 184.657 110.085 183.207C111.06 181.228 113.208 170.599 116.529 151.317ZM177.661 150.914L193.583 162.605C197.901 163.771 201.509 165.22 204.406 166.955C205.091 167.578 205.918 168.841 203.079 168.623C200.241 168.405 197.246 168.303 196.854 169.271C196.462 170.239 198.18 171.397 197.388 172.703C196.861 173.574 194.367 171.39 189.908 166.152L174.141 159.614L177.661 150.914Z" fill="#EAC7A8"/>
<path fill-rule="evenodd" clip-rule="evenodd" d="M146.172 107.548L150.488 106.808C166.502 120.642 173.08 147.219 192.709 161.297L187.985 167.154C153.931 162.938 145.491 130.52 146.172 107.548Z" fill="#E87613"/>
<path fill-rule="evenodd" clip-rule="evenodd" d="M127.357 161.789C144.663 161.789 157.393 161.789 165.547 161.789C167.292 161.789 166.963 159.27 166.711 157.998C163.8 143.323 152.435 127.504 152.435 106.614L141.419 104.887C132.307 119.541 129.156 137.583 127.357 161.789Z" fill="#DDE3E9"/>
<path fill-rule="evenodd" clip-rule="evenodd" d="M140.589 104.887C140.961 104.887 141.302 104.91 141.612 104.957L145.062 105.154C154.957 138.687 157.685 161.059 153.249 172.271L123.19 172.272C121.409 176.425 119.705 179.918 118.077 182.753H109.887C109.116 157.83 115.042 136.675 127.664 119.291C126.064 118.831 124.797 117.759 123.863 116.073C119.837 108.808 121.291 104.808 125.594 103.493C129.896 102.179 133.734 104.887 140.589 104.887Z" fill="#FF9B21"/>
<path fill-rule="evenodd" clip-rule="evenodd" d="M134.345 172.271L123.189 172.272C125.267 167.428 127.449 161.687 129.735 155.05C130.68 162.959 132.217 168.7 134.345 172.271Z" fill="black" fill-opacity="0.1"/>
<path fill-rule="evenodd" clip-rule="evenodd" d="M76.5151 47.5524C79.4075 52.9437 79.0638 66.6192 75.3256 67.5828C73.8348 67.967 70.6591 67.0258 67.4269 65.0776L69.4555 79.4307H57.4761L61.5998 60.2084C59.3 57.5087 57.7434 54.2003 58.0036 50.4931C58.753 39.8112 73.6226 42.1611 76.5151 47.5524Z" fill="#57331F"/>
<path fill-rule="evenodd" clip-rule="evenodd" d="M77.6462 49.973C77.5275 49.2742 77.2375 48.4981 77.0035 47.837C76.7019 46.9847 76.2453 46.2162 75.7429 45.4919C74.797 44.1284 73.6623 42.8971 72.4094 41.8751C70.121 40.0084 67.2079 38.9317 64.3432 39.2813C62.8968 39.4579 61.4927 40.0096 60.2977 40.9279C59.218 41.7576 58.1794 42.979 56.7813 43.0667C55.26 43.1621 53.8656 41.8194 52.6455 40.9901C51.2699 40.0552 49.8065 39.374 48.1988 39.1092C45.5054 38.6658 42.9752 39.5757 41.119 41.7855C39.1438 44.137 37.7079 47.5854 39.0051 50.7012C39.2462 51.2803 39.5564 51.7686 40.0016 52.1733C40.4098 52.5444 41.0334 52.9392 41.1989 53.5322C41.3748 54.1625 40.8495 54.9756 40.6459 55.5443C40.3541 56.3591 40.1145 57.2144 40.1997 58.1001C40.3396 59.5545 41.2536 60.943 42.2188 61.899C43.201 62.8718 44.4098 63.4296 45.7009 63.6868C46.563 63.8585 47.4441 63.9532 48.3203 63.8887C48.7553 63.8568 49.1391 63.7359 49.5605 63.6398C49.9704 63.5464 50.1994 63.6552 50.5471 63.88C52.1624 64.9242 53.8991 65.3282 55.7642 65.1729C57.3383 65.0418 59.1526 64.6603 60.4367 63.5818C61.8627 62.384 61.8343 60.7323 61.4988 58.9675C61.8543 59.1437 62.8379 59.2528 62.2501 58.5505C62.0173 58.2723 61.5774 58.1592 61.2786 57.9956C60.9308 57.8051 60.5776 57.5589 60.3074 57.2482C59.2167 55.9936 60.3183 53.4403 61.6892 53.0195C63.726 52.3944 64.182 55.2748 65.6359 56.0199C66.4719 56.4483 67.3464 55.8628 67.9727 55.2649C68.8117 54.4639 69.3835 53.4028 69.8772 52.3231C70.2839 51.4338 70.6623 50.5321 71.0768 49.6473C71.2703 49.2341 71.9404 48.0661 71.6039 47.5989C73.0627 47.308 74.6875 47.9142 75.9439 48.7092C76.4632 49.0379 76.8591 49.4002 77.1361 49.9804C77.1955 50.1047 77.3246 50.4743 77.4869 50.4894C77.7888 50.5177 77.676 50.1486 77.6462 49.973Z" fill="#191847"/>
<path fill-rule="evenodd" clip-rule="evenodd" d="M53.4834 120.86L71.7675 183.865L80.3674 231.17H88.9991L80.3827 120.86H53.4834Z" fill="#57331F"/>
<path fill-rule="evenodd" clip-rule="evenodd" d="M53.4834 120.86L71.7675 183.865L80.3674 231.17H88.9991L80.3827 120.86H53.4834Z" fill="black" fill-opacity="0.1"/>
<path fill-rule="evenodd" clip-rule="evenodd" d="M45.2669 120.86C46.5427 153.591 46.0395 171.443 45.754 174.417C45.4685 177.39 43.8474 197.307 32.8013 232.169H41.779C56.4078 198.724 61.5146 178.808 63.1924 174.417C64.8703 170.025 69.8256 152.173 77.0602 120.86H45.2669Z" fill="#57331F"/>
<path fill-rule="evenodd" clip-rule="evenodd" d="M53.0913 120.86C57.8473 142.54 66.0731 177.147 77.7687 224.681H90.3935C91.326 175.892 87.3592 143.781 80.4898 120.86H53.0913Z" fill="#191847"/>
<path fill-rule="evenodd" clip-rule="evenodd" d="M45.2022 120.86C46.4517 153.591 43.2136 185.837 33.1831 225.191H46.6531C61.3089 192.246 71.8131 160.159 78.9921 120.86H45.2022Z" fill="#2F3676"/>
<path fill-rule="evenodd" clip-rule="evenodd" d="M31.5215 238.658L32.0168 230.671C34.9171 231.52 38.5498 231.187 42.9148 229.673C47.6083 232.998 53.5167 235.268 60.6402 236.483C61.1836 236.576 61.549 237.092 61.4563 237.635C61.4503 237.671 61.4424 237.705 61.4326 237.74L60.7478 240.155H42.9148H32.5122L31.5215 238.658Z" fill="#E4E4E4"/>
<path fill-rule="evenodd" clip-rule="evenodd" d="M78.4404 238.658L78.9358 230.671C81.8361 231.52 85.4687 231.187 89.8338 229.673C94.5272 232.998 100.436 235.268 107.559 236.483C108.103 236.576 108.468 237.092 108.375 237.635C108.369 237.671 108.361 237.705 108.352 237.74L107.667 240.155H89.8338H79.4312L78.4404 238.658Z" fill="#E4E4E4"/>
<path fill-rule="evenodd" clip-rule="evenodd" d="M27.3616 107.151L36.2023 108.435C26.7125 129.024 21.625 139.913 20.9396 141.102C19.3975 143.775 21.2111 148.432 21.9201 150.898C18.3371 151.932 19.4814 146.396 14.9508 147.777C10.8156 149.038 7.40307 151.895 3.30747 148.497C2.80394 148.08 2.37978 146.714 3.98023 145.918C7.96754 143.935 13.8218 140.307 14.7319 138.97C15.9728 137.147 20.1827 126.541 27.3616 107.151ZM95.5904 112.679L110.658 125.452C114.884 126.916 118.382 128.614 121.152 130.546C121.791 131.216 122.528 132.534 119.712 132.118C116.895 131.702 113.914 131.391 113.456 132.33C112.998 133.268 114.631 134.543 113.75 135.791C113.163 136.623 110.828 134.271 106.745 128.734L91.4724 121.112L95.5904 112.679Z" fill="#57331F"/>
<path fill-rule="evenodd" clip-rule="evenodd" d="M64.3123 71.1109L69.7904 69.2993C77.2214 87.8625 88.3039 105.823 106.82 120.994L102.242 128.894C85.9681 119.308 70.5634 111.861 64.3123 97.4769C62.2143 92.6492 64.1411 76.8834 64.3123 71.1109Z" fill="#C5CFD6"/>
<path fill-rule="evenodd" clip-rule="evenodd" d="M45.4966 123.355C61.1888 125.019 73.5403 125.019 82.5511 123.355C83.6675 123.149 83.8436 121.28 83.3259 120.011C75.2637 100.257 69.7352 83.0203 69.7352 69.2993C68.2558 70.0451 65.6669 70.1569 61.9683 69.6346C52.0285 83.7745 47.4595 99.9984 45.4966 123.355Z" fill="#323337"/>
<path fill-rule="evenodd" clip-rule="evenodd" d="M59.5123 68.1906L59.4979 68.4491L63.6402 68.4494C64.595 74.0654 67.5862 149.41 76.7584 175.299L77.0383 176.068H26.2228C27.3245 153.048 36.0147 125.396 44.818 102.256C37.0337 109.379 30.2491 121.449 24.4641 138.466L14.9458 136.022C22.0228 105.527 36.5731 83.1126 58.5965 68.7792L58.7402 68.4494L59.1085 68.4491L59.5123 68.1906Z" fill="#DDE3E9"/>
</svg>
