<svg width="480" height="640" viewBox="0 0 480 640" fill="none" xmlns="http://www.w3.org/2000/svg">
<path fill-rule="evenodd" clip-rule="evenodd" d="M391.428 75.7186C394.708 79.1618 399.355 81.324 404.524 81.324C414.455 81.324 422.506 73.3893 422.506 63.6013C422.506 53.8133 414.455 45.8786 404.524 45.8786V12.965C432.777 12.965 455.902 35.7564 455.902 63.6013C455.902 91.4462 432.777 114.238 404.524 114.238C389.683 114.238 376.271 108.05 367.128 98.2061L391.428 75.7186Z" fill="#F2F2F2"/>
<path fill-rule="evenodd" clip-rule="evenodd" d="M405.551 12.965V46.306C395.562 46.306 387.465 54.3438 387.465 64.2589H353.876C353.876 36.0524 377.135 12.965 405.551 12.965Z" fill="#42A5FF"/>
<path fill-rule="evenodd" clip-rule="evenodd" d="M387.941 62.9437C387.941 68.7316 390.687 73.8764 394.953 77.1983L373.968 103.716C361.752 94.2223 353.878 79.5062 353.878 62.9437H387.941Z" fill="#C5CFD6"/>
<path d="M391.642 432.523C381.763 432.523 373.755 424.573 373.755 414.767C373.755 404.961 381.763 397.012 391.642 397.012C401.521 397.012 409.529 404.961 409.529 414.767C409.529 424.573 401.521 432.523 391.642 432.523Z" fill="#89C5CC"/>
<path d="M290.943 149.749C281.064 149.749 273.055 141.8 273.055 131.993C273.055 122.187 281.064 114.238 290.943 114.238C300.822 114.238 308.83 122.187 308.83 131.993C308.83 141.8 300.822 149.749 290.943 149.749Z" fill="#69A1AC"/>
<path d="M326.716 406.219C316.837 406.219 308.829 398.269 308.829 388.463C308.829 378.657 316.837 370.707 326.716 370.707C336.595 370.707 344.604 378.657 344.604 388.463C344.604 398.269 336.595 406.219 326.716 406.219Z" fill="#69A1AC"/>
<path d="M261.794 286.533C248.257 286.533 237.282 275.639 237.282 262.201C237.282 248.763 248.257 237.87 261.794 237.87C275.332 237.87 286.307 248.763 286.307 262.201C286.307 275.639 275.332 286.533 261.794 286.533Z" fill="#C1DEE2"/>
<path d="M427.415 370.707C417.536 370.707 409.528 362.758 409.528 352.952C409.528 343.146 417.536 335.196 427.415 335.196C437.294 335.196 445.303 343.146 445.303 352.952C445.303 362.758 437.294 370.707 427.415 370.707Z" fill="#C1DEE2"/>
<path d="M464.516 444.36C457.564 444.36 451.929 438.766 451.929 431.865C451.929 424.965 457.564 419.371 464.516 419.371C471.468 419.371 477.104 424.965 477.104 431.865C477.104 438.766 471.468 444.36 464.516 444.36Z" fill="#C1DEE2"/>
<path d="M326.055 333.881C318.737 333.881 312.805 327.993 312.805 320.729C312.805 313.465 318.737 307.576 326.055 307.576C333.373 307.576 339.305 313.465 339.305 320.729C339.305 327.993 333.373 333.881 326.055 333.881Z" fill="#C1DEE2"/>
<path d="M206.805 304.946C194.365 304.946 184.281 294.936 184.281 282.587C184.281 270.239 194.365 260.229 206.805 260.229C219.245 260.229 229.33 270.239 229.33 282.587C229.33 294.936 219.245 304.946 206.805 304.946Z" fill="#C1DEE2"/>
<path d="M197.532 211.565C185.092 211.565 175.007 201.555 175.007 189.206C175.007 176.858 185.092 166.847 197.532 166.847C209.972 166.847 220.057 176.858 220.057 189.206C220.057 201.555 209.972 211.565 197.532 211.565Z" fill="#C1DEE2"/>
<path d="M373.755 307.576C361.314 307.576 351.23 297.566 351.23 285.217C351.23 272.869 361.314 262.858 373.755 262.858C386.195 262.858 396.279 272.869 396.279 285.217C396.279 297.566 386.195 307.576 373.755 307.576Z" fill="#89C5CC"/>
<path fill-rule="evenodd" clip-rule="evenodd" d="M284.908 239.141C268.226 239.141 262.16 219.266 252.682 208.359C245.902 200.556 234.329 202.883 230.904 191.958C222.29 164.487 245.345 145.152 275.42 145.152C305.496 145.152 325.775 162.109 330.154 187.6C334.533 213.092 314.983 239.141 284.908 239.141Z" fill="#191847"/>
<path fill-rule="evenodd" clip-rule="evenodd" d="M239.452 184.565C230.995 200.254 232 240.051 242.931 242.855C247.29 243.973 256.576 241.234 266.027 235.565L260.096 277.333H295.125L283.067 221.395C289.792 213.539 294.343 203.911 293.583 193.123C291.391 162.038 247.91 168.876 239.452 184.565Z" fill="#915B3C"/>
<path fill-rule="evenodd" clip-rule="evenodd" d="M237.35 184.653C244.05 185.904 257.542 192.269 268.299 201.399C269.571 200.728 271.029 200.348 272.579 200.348C277.542 200.348 281.565 204.25 281.565 209.063C281.565 211.028 280.895 212.84 279.764 214.298C281.893 217.791 283.346 221.46 283.823 225.232C291.203 225.232 318.137 197.443 291.305 171.297C264.474 145.152 225.699 182.476 237.35 184.653Z" fill="#191847"/>
<path fill-rule="evenodd" clip-rule="evenodd" d="M225.065 458.9C212.168 458.9 201.713 469.305 201.713 482.141V615.774C201.713 628.609 212.168 639.015 225.065 639.015H392.915C405.812 639.015 416.268 628.609 416.268 615.774V482.141C416.268 469.305 405.812 458.9 392.915 458.9H225.065ZM248.418 499.571H369.562C372.786 499.571 375.4 502.172 375.4 505.381V592.533C375.4 595.742 372.786 598.344 369.562 598.344H248.418C245.194 598.344 242.58 595.742 242.58 592.533V505.381C242.58 502.172 245.194 499.571 248.418 499.571Z" fill="#C5CFD6"/>
<path fill-rule="evenodd" clip-rule="evenodd" d="M117.124 428.044L116.704 427.799C104.638 421.072 84.9331 430.208 84.9468 440.363C84.9882 471.105 113.179 615.993 114.651 625.152C116.123 634.312 131.891 636.731 132.809 625.182C134.27 606.807 136.985 543.195 134.269 513.752C133.148 501.597 131.94 490.021 130.752 479.694C145.542 506.278 168.421 544.344 199.386 593.89L216.195 586.247C202.996 542.967 192.172 512.413 183.725 494.584C169.261 464.056 155.698 437.913 149.99 428.705C141.011 414.219 125.382 419.274 117.124 428.044Z" fill="#915B3C"/>
<path fill-rule="evenodd" clip-rule="evenodd" d="M214.995 562.212L157.302 426.2C143.481 404.074 104.731 430.702 109.444 443.535C120.144 472.669 174.565 566.989 177.753 575.67L214.995 562.212Z" fill="#1F28CF"/>
<path fill-rule="evenodd" clip-rule="evenodd" d="M218.167 577.685C221.767 580.639 224.109 583.051 225.194 584.92C226.514 587.194 228.061 590.729 229.835 595.527C227.192 597.044 203.443 610.679 158.587 636.432C153.189 631.386 152.342 627.474 156.049 624.697C159.755 621.919 162.813 619.577 165.224 617.67L189.784 583.923C190.257 583.273 191.169 583.13 191.823 583.603C191.834 583.611 191.845 583.619 191.856 583.628L196.977 587.559C201.668 587.159 205.168 586.296 207.477 584.97C209.353 583.893 211.504 581.65 213.931 578.24L213.931 578.24C214.863 576.932 216.685 576.626 218.001 577.559C218.058 577.599 218.113 577.641 218.167 577.685Z" fill="#E4E4E4"/>
<path fill-rule="evenodd" clip-rule="evenodd" d="M136.504 617.81C138.137 622.148 138.953 625.394 138.953 627.547C138.953 630.167 138.515 633.989 137.638 639.014C134.584 639.014 107.144 639.014 55.316 639.014C53.1767 631.976 54.4116 628.176 59.0207 627.615C63.6297 627.054 67.4585 626.547 70.5071 626.095L108.769 609.12C109.506 608.793 110.369 609.122 110.697 609.855C110.702 609.867 110.708 609.88 110.713 609.893L113.173 615.83C117.439 617.811 120.907 618.802 123.574 618.802C125.742 618.802 128.735 617.931 132.554 616.188L132.554 616.188C134.019 615.52 135.752 616.16 136.424 617.619C136.453 617.681 136.479 617.745 136.504 617.81Z" fill="#E4E4E4"/>
<path fill-rule="evenodd" clip-rule="evenodd" d="M80.9049 450.814C80.9049 489.403 99.3199 579.417 99.3315 587.914L138.952 587.945C133.153 507.626 131.097 467.034 132.783 466.169C135.313 464.871 236.486 476.221 266.829 476.221C310.585 476.221 328.686 448.762 330.154 397.893H243.476C225.828 399.773 133.772 418.251 99.5848 424.603C84.9485 427.323 80.9049 440.183 80.9049 450.814Z" fill="#2B44FF"/>
<path fill-rule="evenodd" clip-rule="evenodd" d="M386.334 364.485L356.425 370.39C386.503 426.175 402.634 455.741 404.816 459.088C409.727 466.62 405.145 480.422 403.453 487.69C414.071 490.15 409.883 474.245 423.32 477.566C435.585 480.597 445.984 488.376 457.42 477.885C458.826 476.595 459.856 472.564 455.062 470.496C443.119 465.345 425.473 455.698 422.612 451.953C418.711 446.847 406.618 417.69 386.334 364.485ZM90.5107 319.827L91.0526 320.618C95.5604 327.224 99.7785 334.155 97.9717 336.458C96.0927 338.854 90.6496 336.21 88.4991 340.106C87.0655 342.703 96.2407 345.81 116.025 349.426L155.634 379.648L172.521 358.118L119.634 335.004C110.37 325.817 101.423 318.834 92.7956 314.056C90.2157 313.238 85.8081 312.991 90.5107 319.827Z" fill="#915B3C"/>
<path fill-rule="evenodd" clip-rule="evenodd" d="M275.133 253.122L262.512 250.967C235.023 277.505 223.805 341.262 205.485 349.701C188.164 357.68 163.611 349.959 134.425 339.534L125.487 359.407C152.005 387.958 208.498 412.079 231.398 398.309C268.009 376.293 276.461 297.659 275.133 253.122Z" fill="#DB2721"/>
<path fill-rule="evenodd" clip-rule="evenodd" d="M330.152 410.965C279.547 410.965 242.323 410.965 218.479 410.965C213.377 410.965 214.338 403.633 215.076 399.932C223.589 357.227 256.822 311.193 256.822 250.403L289.034 245.377C315.677 288.021 324.891 340.524 330.152 410.965Z" fill="#DDE3E9"/>
<path fill-rule="evenodd" clip-rule="evenodd" d="M278.359 245.377C249.441 343.476 241.469 408.84 254.443 441.469H354.966C353.375 417.593 348.276 392.343 341.29 367.724C364.056 408.593 383.192 438.016 398.698 455.994L422.105 451.431C407.027 358.37 363.363 289.685 291.113 245.377L278.359 245.377Z" fill="#FF4133"/>
<path d="M469.154 565.361C469.154 563.182 470.933 561.415 473.129 561.415C475.324 561.415 477.104 563.182 477.104 565.361V590.35C477.104 592.529 475.324 594.296 473.129 594.296C470.933 594.296 469.154 592.529 469.154 590.35V565.361Z" fill="#42A5FF"/>
<path d="M450.603 544.317C450.603 542.138 452.382 540.372 454.578 540.372C456.773 540.372 458.553 542.138 458.553 544.317V590.35C458.553 592.529 456.773 594.296 454.578 594.296C452.382 594.296 450.603 592.529 450.603 590.35V544.317Z" fill="#42A5FF"/>
<path d="M432.054 533.796C432.054 531.617 433.834 529.85 436.029 529.85C438.224 529.85 440.004 531.617 440.004 533.796V590.351C440.004 592.53 438.224 594.296 436.029 594.296C433.834 594.296 432.054 592.53 432.054 590.351V533.796Z" fill="#42A5FF"/>
<path d="M413.505 544.317C413.505 542.138 415.285 540.372 417.48 540.372C419.675 540.372 421.455 542.138 421.455 544.317V590.35C421.455 592.529 419.675 594.296 417.48 594.296C415.285 594.296 413.505 592.529 413.505 590.35V544.317Z" fill="#42A5FF"/>
<path d="M394.954 523.274C394.954 521.094 396.734 519.328 398.929 519.328C401.125 519.328 402.904 521.094 402.904 523.274V590.35C402.904 592.529 401.125 594.296 398.929 594.296C396.734 594.296 394.954 592.529 394.954 590.35V523.274Z" fill="#2B44FF"/>
<path fill-rule="evenodd" clip-rule="evenodd" d="M79.6063 571.301C79.6063 549.953 62.3114 532.48 41.1816 532.48V571.301L67.4411 599.557C74.9108 592.649 79.6063 582.514 79.6063 571.301Z" fill="#F2F2F2"/>
<path fill-rule="evenodd" clip-rule="evenodd" d="M42.6495 570.622H4.08203C4.08203 580.579 8.14897 589.908 14.5782 596.688C21.6495 604.103 31.7195 608.764 42.6495 608.764C52.7176 608.764 61.9333 604.742 69.0065 598.383L42.6495 570.622Z" fill="#AFB9C5"/>
<path fill-rule="evenodd" clip-rule="evenodd" d="M2.75781 570.622C2.75781 549.648 20.0528 532.48 41.1825 532.48V570.622H2.75781ZM60.3949 532.48L45.025 566.807L79.6072 551.551C76.1874 542.652 68.5082 535.875 60.3949 532.48Z" fill="#8991DC"/>
<path d="M328.042 439.099C317.431 439.099 308.829 430.56 308.829 420.028C308.829 409.495 317.431 400.957 328.042 400.957C338.652 400.957 347.254 409.495 347.254 420.028C347.254 430.56 338.652 439.099 328.042 439.099Z" fill="#89C5CC"/>
<path d="M271.729 319.413C266.607 319.413 262.454 315.291 262.454 310.206C262.454 305.121 266.607 301 271.729 301C276.851 301 281.004 305.121 281.004 310.206C281.004 315.291 276.851 319.413 271.729 319.413Z" fill="#C1DEE2"/>
<path d="M155.129 322.044C144.152 322.044 135.254 313.211 135.254 302.315C135.254 291.419 144.152 282.587 155.129 282.587C166.106 282.587 175.004 291.419 175.004 302.315C175.004 313.211 166.106 322.044 155.129 322.044Z" fill="#89C5CC"/>
</svg>
