<svg width="120" height="80" viewBox="0 0 120 80" fill="none" xmlns="http://www.w3.org/2000/svg">
<rect width="80" height="80" rx="8" fill="#189DFB"/>
<path d="M42.4698 40.296L52.7418 57H47.7978L39.7818 43.944L32.1497 57H27.3018L37.5258 40.296L27.2538 23.544H32.1497L40.2138 36.648L47.8938 23.544H52.7898L42.4698 40.296Z" fill="white"/>
<rect x="64" y="24" width="56" height="56" rx="8" fill="white"/>
<path d="M100.543 42.54L94.1034 54.944V62H90.9114V54.944L84.4434 42.54H87.9994L92.5074 52.088L97.0154 42.54H100.543Z" fill="#18214D"/>
</svg>
