<svg width="242" height="320" viewBox="0 0 242 320" fill="none" xmlns="http://www.w3.org/2000/svg">
<path fill-rule="evenodd" clip-rule="evenodd" d="M105.444 19.4123C100.93 27.8263 101.466 49.1692 107.3 50.673C109.627 51.2727 114.583 49.8037 119.627 46.7633L116.461 69.1636H135.157L128.721 39.164C132.311 34.9507 134.74 29.7874 134.334 24.0017C133.164 7.33089 109.958 10.9983 105.444 19.4123Z" fill="#B28B67"/>
<path fill-rule="evenodd" clip-rule="evenodd" d="M142.485 18.4524C143.089 17.854 143.418 16.9998 143.703 16.1888C143.999 15.3463 144.286 14.4951 144.483 13.6182C144.875 11.8661 144.879 9.85106 143.629 8.49053C142.627 7.39952 141.123 6.91017 139.734 6.80382C138.81 6.73289 137.86 6.86242 136.973 7.15387C136.093 7.443 135.335 8.01925 134.483 8.3769C134.45 6.48872 134.127 4.51303 133.169 2.90081C132.247 1.34959 130.777 0.479107 129.104 0.248811C127.386 0.0124699 125.689 0.41446 124.151 1.24611C123.766 1.45439 123.385 1.6726 123.02 1.91956C122.714 2.12637 122.396 2.37542 122.038 2.45952C121.638 2.55339 121.44 2.32248 121.18 2.03079C120.875 1.6888 120.532 1.38758 120.169 1.12054C118.563 -0.0600063 116.456 -0.545401 114.595 0.162228C113.737 0.488253 112.904 1.04194 112.322 1.80491C111.804 2.48503 111.434 3.56387 110.718 4.03772C110.415 4.23887 110.2 3.97237 109.924 3.77541C109.508 3.47946 109.112 3.15289 108.692 2.865C108.102 2.46053 107.463 2.15799 106.778 1.99963C105.776 1.76778 104.391 1.82212 104.105 3.1346C103.997 3.62759 104.079 4.15484 104.114 4.65155C104.162 5.3336 104.212 6.01542 104.271 6.69646C104.316 7.21356 104.373 7.71299 104.47 8.22078C104.522 8.49146 104.685 8.99608 104.569 9.26715C104.424 9.60596 103.755 9.41334 103.469 9.42512C102.904 9.44845 102.336 9.54752 101.814 9.7889C101.409 9.97602 100.984 10.2512 100.813 10.7152C100.708 11.0002 100.735 11.293 100.785 11.5862C100.845 11.9381 100.777 12.1248 100.732 12.4799C99.9733 12.1063 97.3441 11.2762 97.0133 12.6359C96.9031 13.0887 97.1539 13.6003 97.3453 13.9821C97.6809 14.6518 98.121 15.264 98.5708 15.8477C99.5092 17.0656 100.629 18.116 101.835 19.0143C100.423 19.6421 100.054 21.4938 101.277 22.5971C101.816 23.0842 102.542 23.1926 103.223 23.1615C103.472 23.1501 103.832 23.0543 104.028 23.0977C104.133 23.121 104.246 23.2104 104.393 23.2204C105.354 23.2863 106.438 23.0547 107.378 22.8415C109.052 22.4615 110.636 21.6684 111.931 20.4606C112.262 20.1508 112.537 19.9724 112.984 19.977C113.375 19.981 113.759 20.0883 114.15 20.0982C115.186 20.1247 116.119 19.6187 117.08 19.2819C117.139 20.5803 117.509 22.0104 118.04 23.1785C118.473 24.1311 119.377 24.2695 120.266 24.3531C123.108 24.6205 125.961 24.3221 128.806 24.326C126.052 24.9487 123.205 25.2054 120.475 25.9381C119.24 26.2692 120.183 27.101 120.711 27.6777C121.58 28.6272 122.226 29.8037 122.674 31.0432C124.021 29.2866 126.403 28.1291 128.514 28.6688C130.845 29.2649 132.487 32.4181 130.996 34.6851C130.13 36.001 128.567 36.509 127.267 37.0744C128.281 38.1294 128.527 39.6875 129.137 41C129.439 41.6472 129.861 42.3791 130.535 42.6046C130.784 42.6881 131.077 42.6952 131.273 42.8984C131.517 43.1499 131.575 43.4312 131.886 43.6474C133.127 44.5102 135.066 44.4437 136.166 43.3177C137.161 42.2993 136.902 40.6878 136.071 39.6553C137.393 39.104 139.803 38.395 139.277 36.3345C142.143 36.1442 149.101 31.4963 145.255 28.0999C147.366 26.9069 149.305 23.9912 147.949 21.4211C146.905 19.442 144.477 18.5573 142.485 18.4524Z" fill="#191847"/>
<path fill-rule="evenodd" clip-rule="evenodd" d="M139.831 133.82L81.9467 230.592L38.5502 312.405H29.2029L101.914 133.82L139.831 133.82Z" fill="#997659"/>
<path fill-rule="evenodd" clip-rule="evenodd" d="M44.265 308.628C45.1365 310.955 45.5723 312.695 45.5723 313.85C45.5723 315.255 45.3382 317.305 44.8702 320C43.2406 320 28.595 320 0.933479 320C-0.208279 316.225 0.450809 314.188 2.91075 313.887C5.37069 313.586 7.4142 313.314 9.04129 313.071L29.4627 303.967C29.8556 303.792 30.3162 303.969 30.4913 304.362C30.4943 304.368 30.4972 304.375 30.5 304.382L31.8127 307.566C34.09 308.629 35.9405 309.16 37.3642 309.16C38.521 309.16 40.1185 308.693 42.1568 307.758L42.1568 307.758C42.939 307.4 43.8637 307.743 44.2223 308.525C44.2378 308.559 44.252 308.593 44.265 308.628Z" fill="#E4E4E4"/>
<path fill-rule="evenodd" clip-rule="evenodd" d="M50.6024 299.304L32.5764 293.851C40.4741 270.242 50.1538 244.26 61.6156 215.906C73.0773 187.553 85.3869 160.191 98.5441 133.82H149.456C134.828 167.178 119.32 197.487 102.933 224.749C86.5457 252.01 69.1021 276.862 50.6024 299.304Z" fill="#DB2721"/>
<path fill-rule="evenodd" clip-rule="evenodd" d="M143.635 133.82C149.098 167.827 159.635 211.274 160.63 212.614C161.293 213.508 185.159 221.506 232.228 236.606L230.208 244.849C174.079 236.75 144.503 230.467 141.482 225.999C136.95 219.297 114.32 166.353 105.555 133.82H143.635Z" fill="#B28B67"/>
<path fill-rule="evenodd" clip-rule="evenodd" d="M215.682 229.481L212.125 242.756C170.143 246.438 144.42 243.778 134.956 234.775C125.491 225.772 114.704 192.12 102.595 133.82H151.143C158.815 181.56 163.104 206.432 164.01 208.436C164.917 210.44 182.14 217.455 215.682 229.481Z" fill="#FF4133"/>
<path fill-rule="evenodd" clip-rule="evenodd" d="M229.923 233.172C232.365 232.718 234.155 232.591 235.293 232.792C236.676 233.036 238.654 233.622 241.227 234.551C240.944 236.156 238.401 250.579 233.597 277.82C229.682 278.289 227.789 277.286 227.92 274.811C228.051 272.337 228.138 270.277 228.182 268.632L222.762 246.94C222.658 246.523 222.912 246.1 223.329 245.996C223.337 245.994 223.344 245.992 223.351 245.991L226.715 245.251C228.156 243.193 229.001 241.463 229.248 240.061C229.449 238.921 229.266 237.267 228.7 235.098L228.7 235.098C228.483 234.265 228.982 233.414 229.814 233.197C229.85 233.187 229.886 233.179 229.923 233.172Z" fill="#E4E4E4"/>
<path fill-rule="evenodd" clip-rule="evenodd" d="M170.751 124.488L154.472 124.552C164.523 157 169.95 174.217 170.751 176.202C172.553 180.669 168.739 187.473 167.108 191.129C172.42 193.506 171.854 184.702 178.556 187.82C184.673 190.666 189.327 195.822 196.394 191.461C197.263 190.925 198.215 188.907 195.915 187.329C190.183 183.399 181.924 176.521 180.808 174.256C179.286 171.169 175.933 154.579 170.751 124.488ZM75.3447 123.858L50.4961 142.105C43.7566 143.923 38.126 146.186 33.6043 148.893C32.5362 149.866 31.2453 151.837 35.675 151.496C40.1047 151.156 44.7794 150.997 45.3906 152.507C46.0018 154.018 43.3212 155.825 44.5568 157.864C45.3804 159.223 49.2719 155.815 56.2311 147.64L80.8377 137.437L75.3447 123.858Z" fill="#B28B67"/>
<path fill-rule="evenodd" clip-rule="evenodd" d="M124.488 56.1794L117.752 55.024C92.7596 76.6142 82.4941 118.091 51.8592 140.064L59.2327 149.204C112.379 142.623 125.552 92.0309 124.488 56.1794Z" fill="#E87613"/>
<path fill-rule="evenodd" clip-rule="evenodd" d="M153.853 140.831C126.843 140.831 106.976 140.831 94.2505 140.831C91.527 140.831 92.0402 136.899 92.4339 134.914C96.9777 112.011 114.715 87.3232 114.715 54.7216L131.907 52.0258C146.127 74.8958 151.044 103.053 153.853 140.831Z" fill="#DDE3E9"/>
<path fill-rule="evenodd" clip-rule="evenodd" d="M133.202 52.0257C132.621 52.0257 132.089 52.0621 131.606 52.1347L126.221 52.4423C110.779 104.776 106.521 139.691 113.445 157.19L160.357 157.191C163.136 163.672 165.796 169.124 168.335 173.549H181.118C182.321 134.651 173.073 101.637 153.374 74.5056C155.871 73.7885 157.848 72.1145 159.306 69.484C165.59 58.1456 163.32 51.903 156.605 49.851C149.89 47.799 143.901 52.0257 133.202 52.0257Z" fill="#FF9B21"/>
<path fill-rule="evenodd" clip-rule="evenodd" d="M142.947 157.19L160.356 157.191C157.114 149.631 153.709 140.672 150.141 130.313C148.666 142.657 146.268 151.616 142.947 157.19Z" fill="black" fill-opacity="0.1"/>
</svg>
