<svg width="282" height="271" viewBox="0 0 282 271" fill="none" xmlns="http://www.w3.org/2000/svg">
<path fill-rule="evenodd" clip-rule="evenodd" d="M274.23 218.581C270.009 272.662 196.328 280.427 181.619 228.318L181.61 228.321C181.558 228.119 181.447 227.713 181.388 227.513L181.398 227.511C180.092 222.406 179.606 216.882 179.977 211.532L179.977 211.532C180.683 200.494 185.388 189.461 192.939 181.398L192.94 181.399C195.044 179.12 197.357 177.068 199.826 175.252C204.492 189.319 211.257 201.899 219.832 212.362L219.5 212.771C219.913 213 220.324 213.228 220.734 213.458C220.876 213.63 221.031 213.822 221.171 214C220.598 215.461 221.814 216.879 223.251 217.158C222.813 218.186 223.885 218.593 224.528 218.778C226.648 219.263 229.138 219.368 230.743 218.181C232.815 216.285 232.088 212.545 229.848 211.124C229.857 211.1 229.865 211.076 229.873 211.051C229.573 211.019 229.301 210.908 229.078 210.726C227.958 210.294 226.651 210.298 225.553 210.782C218.102 198.68 210.63 185.526 206.495 171.187C208.242 170.315 210.058 169.543 211.902 168.896L211.9 168.893C211.95 168.877 212.099 168.826 212.146 168.809L212.146 168.81C213.857 168.221 215.619 167.729 217.392 167.347L217.391 167.345C217.548 167.313 217.874 167.245 218.031 167.211L218.031 167.214C221.191 166.577 224.483 166.277 227.761 166.324L227.761 166.323C227.884 166.325 228.351 166.335 228.502 166.338L228.502 166.341C229.616 166.372 230.762 166.454 231.88 166.561C231.869 166.603 231.852 166.656 231.83 166.719C231.922 166.723 232.011 166.737 232.098 166.758C232.111 166.703 232.124 166.647 232.137 166.591C233.02 166.691 233.912 166.811 234.789 166.96L234.789 166.959L235.417 167.068L235.416 167.07C246.673 169.056 257.279 175.732 264.188 184.879L264.188 184.879C267.104 188.677 269.447 192.908 271.159 197.466L271.16 197.466L271.435 198.212L271.433 198.212C273.734 204.621 274.697 211.657 274.219 218.581L274.23 218.581ZM193.743 147.587C176.82 163.694 158.047 178.678 143.718 197.292L141.039 195.674L141.309 195.623C140.414 195.534 139.586 194.697 138.923 194.152C140.351 194.252 140.806 194.517 141.657 192.888C144.639 187.531 147.21 182.066 150.426 176.779C153.056 172.119 155.689 167.502 158.318 162.793C159.707 160.764 162.029 155.364 158.203 152.649C168.226 148.078 179.775 142.587 190.48 135.926C191.346 139.842 192.698 143.629 193.94 147.404L193.743 147.587ZM136.233 119.258C134.798 117.94 133.219 116.668 132.499 114.757C134.715 115.121 136.907 115.331 139.354 115.371C139.494 115.371 139.623 115.24 139.625 115.094C139.674 112.275 139.67 109.172 139.415 106.159C140.618 106.755 141.584 106.075 142.674 105.491C143.815 106.343 144.993 106.09 146.388 105.491C146.401 105.487 152.022 103.406 152.035 103.404C153.289 103.012 153.827 102.638 154.142 101.842C154.304 101.885 154.631 101.971 154.794 102.012C156.14 104.008 175.675 110.203 177.411 107.906C179.228 108.676 181.4 108.053 183.323 107.915C184.826 108.042 186.355 108.379 187.855 108.189C188.152 109.744 188.452 111.299 188.753 112.853C184.719 118.728 184.119 121.388 185.268 128.446C185.517 129.907 185.998 130.397 187.797 130.61C177.108 136.458 166.36 142.063 155.805 148.316C157.298 144.781 158.782 141.179 160.188 137.645C160.686 136.561 161.354 134.966 161.407 133.482C161.82 127.968 144.603 122.913 137.858 121.088C137.667 120.303 136.801 119.841 136.233 119.258ZM191.141 129.365C191.219 129.23 191.523 128.59 191.597 128.442C191.77 128.768 192.108 129.371 192.323 129.665C191.902 129.816 190.872 130.379 190.463 130.595L191.141 129.365ZM131.182 157.435C131 158.169 130.835 158.867 130.676 159.538C126.688 161.615 122.723 163.514 118.722 165.55L118.848 165.783C116.584 167.107 114.121 167.908 111.897 169.283C110.158 161.789 108.833 154.198 107.848 146.546C108.766 146.512 109.678 146.426 110.606 146.237C111.532 146.26 112.399 146.158 113.136 145.915C118.281 149.71 123.726 153.223 129.322 156.364C129.944 156.778 130.592 156.912 131.295 156.976L131.182 157.435ZM130.535 214.257C129.911 214.195 129.346 214.849 128.745 215.064C126.879 216.028 125.057 217.01 123.263 218.009C122.642 214.4 121.088 211.06 120.982 207.329L120.922 207.441C120.696 207.003 120.237 206.222 119.973 205.802C120.415 205.905 121.251 206.096 121.686 206.195L121.637 206.263C122.202 206.166 122.972 206.524 123.506 206.593C125.443 206.959 127.421 207.334 129.385 207.619C128.88 208.407 128.907 208.449 129.843 208.451C129.308 209.523 129.184 210.821 129.235 211.95C129.25 212.156 129.333 212.115 129.438 212.195C129.645 212.784 130.051 213.19 130.741 213.448L130.535 214.257ZM113.473 173.235L113.298 172.687L113.516 172.614C113.481 172.528 113.345 172.479 113.238 172.501L113.218 172.439C118.586 170.149 123.839 167.574 129.134 165.134C126.025 174.103 119.846 181.857 118.295 191.369L117.477 191.422C115.655 185.272 114.164 178.973 112.723 172.882L112.979 172.795C112.944 173.063 113.21 173.297 113.473 173.235ZM117.337 217.652C116.754 217.85 116.05 217.921 115.401 217.854C112.578 217.311 109.703 216.867 106.898 216.427C108.493 201.133 103.39 185.55 92.9866 174.329C96.8553 170.812 100.96 167.108 105.345 163.174C109.442 183.046 114.1 202.663 117.702 217.529L117.337 217.652ZM99.9734 211.627C99.9479 212.846 99.8713 214.078 99.76 215.292C88.136 213.478 75.6439 211.591 63.0916 210.089L63.6509 209.486C64.3545 208.622 63.1709 207.202 62.4707 206.805C61.1565 206.023 59.6836 206.319 58.2294 207.011L57.7476 206.336C60.4325 203.907 63.1222 201.498 65.7954 199.056C68.9016 200.379 72.0457 201.522 75.1792 202.735L75.0566 203.488C75.7568 203.491 76.4621 203.4 77.1321 203.468C84.8734 206.353 93.0426 209.13 99.9803 211.312L99.9734 211.627ZM99.2094 219.278C98.7365 221.921 98.0344 224.528 97.1384 227.046L97.1319 227.043C87.3549 257.971 44.9523 268.489 22.9458 243.897C-1.77192 219.707 10.2887 171.679 44.9178 164.406C46.9001 167.97 48.5652 171.563 50.3434 175.171C51.1984 177.257 52.7419 179.11 53.0918 181.396C53.3227 182.235 53.5387 183.074 53.7466 183.913C53.7806 183.929 53.8145 183.945 53.8489 183.96C53.8464 183.949 53.8438 183.938 53.8412 183.927L54.6067 183.61C56.1372 186.24 58.0941 190.85 59.8366 193.655C62.0937 197.051 61.9845 196.804 63.665 196.998C61.6677 198.98 59.6395 200.993 57.642 202.972C55.8704 204.693 54.1968 206.88 51.5309 207.37C50.6639 207.45 49.9283 207.728 49.4131 208.312C49.2927 208.675 49.1127 209.016 48.9083 209.342C47.9937 212.78 52.7039 215.453 55.1619 212.541C69.959 214.808 84.4814 216.519 99.2852 218.856L99.2094 219.278ZM67.5103 158.208C73.4359 158.126 80.6036 158.846 88.4444 158.408C88.9114 158.284 89.4474 158.191 89.8054 157.931C91.8952 158.994 94.019 160.089 96.1678 161.081C96.0023 162.012 97.0106 162.567 97.3316 163.381C94.7097 165.847 92.0116 168.259 89.5234 170.897C83.2421 165.202 75.5821 161.089 67.3995 159.035L67.5103 158.208ZM280.387 207.441C277.396 182.976 255.814 161.227 231.002 159.951L230.877 159.141C232.06 158.681 233.099 157.733 233.965 156.323C226.12 155.538 218.023 156.463 210.808 159.118C209.469 159.636 208.015 160.152 206.53 159.958C206.315 159.532 206.053 159.087 205.766 158.639C205.754 158.637 205.742 158.634 205.73 158.63C205.291 158.475 204.871 158.262 204.657 157.827C204.46 157.425 204.467 156.941 204.385 156.509C204.37 156.43 204.389 156.363 204.426 156.311C203.738 155.129 203.099 153.933 201.624 153.8L202.11 153.283C202.313 153.047 202.191 152.628 201.842 152.557C199.871 145.434 197.46 138.611 195.587 131.444L194.986 131.616C194.909 131.421 194.434 130.238 194.346 130.019L195.409 130.757L195.282 130.266C204.6 133.883 213.648 135.477 222.339 133.961L222.343 133.936C223.37 133.625 224.334 133.182 225.132 132.618C225.635 132.655 225.77 132.355 226.015 131.532C226.527 129.844 227.102 128.143 227.648 126.495C230.78 116.27 235.092 106.449 237.931 96.2766C238.005 96.2154 238.265 95.9681 238.213 95.9546C227.032 89.4349 200.119 91.4145 185.527 93.6008C185.78 97.5359 186.534 101.389 187.262 105.134C181.963 101.375 176.901 96.9528 170.538 95.0664L172.036 94.7614C172.281 94.7212 172.436 94.2474 172.179 94.1477L171.885 94.0423C172.433 89.7932 167.644 89.2937 164.963 91.385C164.376 91.8697 163.722 93.5393 164.808 93.9058L164.76 94.7199C163.867 94.8542 162.722 95.3575 161.767 95.8459C161.982 94.5478 161.502 92.7699 159.987 93.9938C138.263 84.0616 147.687 73.8598 145.923 57.7563C145.81 52.9213 145.228 52.6173 140.626 50.4509C137.97 48.8311 135.116 47.6969 132.366 46.2727L132.561 46.0776C132.308 45.571 131.758 44.4745 131.456 43.8705L131.343 43.9038C130.924 42.8936 130.602 41.8696 130.412 40.8062C130.301 39.5709 129.723 38.822 128.345 38.5859C124.881 37.8572 121.415 38.4151 120.027 42.0715L120.009 42.0745C119.673 43.0405 119.022 44.027 118.213 44.4978L118.714 44.9454C118.693 44.9839 118.672 45.0223 118.651 45.0606L117.864 44.8262C117.866 44.7837 117.871 44.7246 117.875 44.6815C117.433 44.8823 116.909 45.0332 116.374 45.0327C99.5967 42.1871 94.573 55.2997 97.0669 69.761C96.0787 73.4929 95.2056 77.231 94.3042 80.9453C91.6741 93.3437 83.7768 101.05 81.087 113.035C80.3776 115.947 77.4328 121.304 80.0182 123.172C79.5749 126.595 81.0132 130.272 83.5784 132.846C79.7028 132.955 74.3022 139.269 78.8731 142.376C80.5362 143.105 82.5338 143.02 84.348 143.335L84.2081 143.8C84.2825 144.213 84.978 144.187 85.3135 144.146C85.3127 145.137 85.1866 146.218 85.5917 147.096C85.6363 147.596 85.8419 147.76 85.9441 147.726C86.6135 147.747 87.2925 147.664 87.9688 147.704C88.9925 149.351 90.5245 150.392 92.1086 149.55C93.0724 149.049 93.0559 147.709 93.968 147.031C96.3556 145.533 99.0684 145.779 101.592 145.819C102.638 149.326 103.109 152.884 103.932 156.424C102.853 157.777 101.619 159.15 100.203 160.587L100.018 160.544L99.831 160.602C98.7549 159.64 97.56 157.999 96.0329 158.597C83.2831 147.066 62.7679 148.839 47.0045 148.952C39.8745 149.036 32.5124 149.114 25.282 149.443C23.2193 149.49 21.8887 149.643 21.8177 151.193C20.4542 151.252 19.4416 151.587 18.1591 151.686C17.358 151.728 16.9406 151.793 16.9132 152.02C17.0682 154.233 17.1553 156.547 17.9273 158.613C18.7354 160.658 21.2003 160.656 23.0822 159.901C23.7883 159.599 23.1796 158.725 23.1589 158.19C22.7296 156.439 22.4616 154.647 22.3807 152.806C23.2704 152.875 24.0489 152.917 25.0739 152.931L25.0913 153.405C26.894 153.475 34.5558 153.61 36.4242 153.35C35.6579 154.276 35.3611 155.226 36.0969 156.269C38.0408 158.432 41.6246 157.448 44.1772 157.774L44.2167 158.602C4.01025 166.079 -11.2978 220.584 17.8651 248.645C46.3832 279.604 100.908 261.169 106.42 219.968C108.793 220.367 111.178 220.681 113.544 221.184C112.147 222.455 110.14 223.098 108.768 224.314C106.389 226.629 105.684 228.15 106.775 229.344L106.795 229.327C107.668 229.812 108.734 229.771 109.709 229.441C110.326 229.525 110.967 229.622 111.581 229.622C112.579 229.601 113.522 229.351 113.786 228.563C113.815 228.264 113.241 227.754 112.961 227.504C114.5 226.43 116.047 225.197 117.813 224.034C118.245 223.819 118.449 223.605 118.6 223.226C126.193 225.94 134.142 220.137 138.983 215.829C138.977 215.854 138.972 215.88 138.966 215.905C139.554 215.326 140.172 214.764 140.842 214.664C141.037 214.467 141.255 214.281 141.5 214.108L145.079 214.235C146.043 214.27 147.328 214.48 148.204 214.155C150.233 213.18 149.365 210.191 148.334 208.814C149.959 208.717 151.61 208.744 153.224 208.526C157.363 208.042 156.186 203.904 152.868 202.967C151.949 201.783 147.864 200.528 147.752 199.04C163.157 182.687 179.803 167.104 195.23 151.652C195.738 153.317 195.844 155.094 195.86 156.777C195.862 160.823 196.937 164.829 197.914 168.693C162.26 191.196 166.975 250.023 206.19 266.017C244.61 283.602 286.346 247.594 280.387 207.441Z" fill="white"/>
<path fill-rule="evenodd" clip-rule="evenodd" d="M234.014 156.131C233.229 157.424 232.16 158.598 230.69 159.17C251.009 160.487 269.183 174.514 276.587 193.072C295.132 236.773 251.853 285.823 205.685 266.04C165.917 249.008 161.343 191.835 197.094 168.146C196.309 165.061 195.513 161.922 195.204 158.751C195.135 157.978 195.118 157.201 195.101 156.423C195.069 154.97 195.037 153.518 194.668 152.099C179.309 167.212 163.951 182.328 148.777 197.62L148.26 198.145C148.23 198.175 148.194 198.208 148.156 198.243C148.014 198.373 147.84 198.532 147.833 198.697C148.004 199.358 149.348 200.104 150.611 200.804C151.556 201.328 152.455 201.828 152.783 202.247C156.44 203.467 157.561 207.917 152.945 208.579C151.919 208.722 150.881 208.757 149.844 208.793C149.472 208.806 149.1 208.819 148.729 208.836C149.695 210.395 150.064 213.311 148.021 214.183C147.245 214.467 146.326 214.4 145.467 214.337C145.213 214.319 144.964 214.301 144.725 214.292L141.296 214.171C139.508 215.518 139.329 217.692 139.153 219.828C139.075 220.775 138.998 221.715 138.781 222.571C137.943 228.838 133.594 232.979 127.071 232.98C119.889 233.483 112.462 233.098 105.5 231.209C105.476 231.245 105.428 231.279 105.382 231.262C104.493 230.721 105.455 229.571 105.978 229.085C104.527 227.315 106.852 224.879 108.139 223.649C108.78 223.044 109.582 222.609 110.385 222.174C111.022 221.829 111.66 221.484 112.219 221.052C110.95 220.798 109.669 220.6 108.388 220.401C107.734 220.299 107.081 220.198 106.429 220.089C99.6719 261.676 47.2957 279.739 17.2291 248.58C-11.9435 219.571 2.52221 166.323 43.7932 157.828C43.0598 157.749 42.2473 157.759 41.4143 157.77C39.1947 157.798 36.8295 157.828 35.4274 156.166C34.8735 155.412 34.697 154.28 35.2299 153.497C34.2302 153.6 17.462 153.626 24.7291 152.988C23.9811 152.977 23.2347 152.951 22.4908 152.897C22.5362 153.639 22.6076 154.379 22.7119 155.115C22.8367 156.002 23.0331 156.868 23.2301 157.736C23.3155 158.112 23.4011 158.489 23.4809 158.868C23.5801 159.338 23.3423 159.802 22.8606 159.942C20.7455 160.733 18.2178 160.769 17.1986 158.407C16.4763 156.482 16.3355 154.375 16.1986 152.327C16.1837 152.104 16.1688 151.881 16.1532 151.659C16.1785 150.99 17.0288 150.945 17.7982 150.905C18.1669 150.885 18.5169 150.867 18.7487 150.781C19.5358 150.615 20.318 150.512 21.1123 150.442C21.3664 148.749 23.3302 148.7 24.9329 148.661C25.3244 148.651 25.6944 148.642 26.0126 148.61C32.8898 148.329 39.7739 148.25 46.6573 148.17C48.4692 148.149 50.281 148.128 52.0926 148.103C52.4089 148.099 52.726 148.094 53.0439 148.089C67.7392 147.866 84.1741 147.617 95.7986 157.768C97.1637 157.379 98.2478 158.444 99.1697 159.35C99.3174 159.495 99.461 159.636 99.6009 159.767C99.644 159.753 99.6876 159.753 99.7295 159.762C100.921 158.545 102.068 157.287 103.138 155.957C102.846 154.687 102.597 153.406 102.349 152.125C101.94 150.023 101.532 147.921 100.935 145.868L100.85 145.865C98.5642 145.8 95.8591 145.723 93.8931 146.995C93.5042 147.308 93.2935 147.748 93.0839 148.185C92.8207 148.735 92.5592 149.281 91.949 149.568C90.1183 150.544 88.3628 149.254 87.396 147.754C87.0987 147.744 86.8042 147.756 86.5101 147.769C86.2033 147.782 85.897 147.795 85.5888 147.783C85.0715 147.754 84.9122 147.316 84.8451 146.849C84.5115 146.082 84.5277 145.247 84.5434 144.436C84.5448 144.367 84.5461 144.298 84.5472 144.23C84.0634 144.259 83.3037 143.861 83.4668 143.317C82.9925 143.248 82.511 143.2 82.0288 143.153C80.7666 143.028 79.4989 142.903 78.3381 142.386C73.7029 139.547 78.2123 132.878 82.4106 132.194C80.1581 129.706 78.8973 126.328 79.2383 122.993C77.2636 121.402 78.5824 117.704 79.5978 114.856C79.9071 113.988 80.1883 113.2 80.3396 112.574C81.3796 107.795 83.5414 103.379 85.6846 99.0009L85.7826 98.8009C86.4471 97.518 87.0687 96.3553 87.6513 95.2653C90.2984 90.3137 92.1417 86.8655 93.5552 80.4923C93.76 79.6485 93.9631 78.8041 94.1663 77.9597C94.8563 75.0916 95.5465 72.2229 96.3004 69.3715C96.2441 68.9494 96.1914 68.5655 96.1427 68.2101C95.8008 65.7164 95.652 64.6314 95.7912 61.6446C96.159 49.5545 102.066 42.2961 116.093 44.2548C117.87 44.1357 118.819 42.951 119.341 41.3815C119.389 41.2733 119.556 41.3535 119.528 41.4592C119.294 42.5462 118.934 43.7824 117.949 44.4242C117.459 50.1632 126.761 52.0802 130.687 49.2342C131.888 48.4875 132.201 47.8265 132.229 46.4686C131.691 45.8103 131.597 44.9975 131.503 44.1846C131.452 43.7486 131.401 43.3126 131.282 42.9004L132.734 45.7981C133.605 46.2397 134.488 46.6561 135.37 47.0723C137.101 47.8895 138.831 48.7058 140.467 49.7093C145.138 51.9163 145.882 52.3012 146.003 57.3568C146.436 62.2179 146.095 66.3561 145.794 70.0051C144.994 79.7164 144.479 85.9625 159.608 93.1477C161 92.1738 161.963 93.4126 161.887 94.7937C162.675 94.4105 163.466 94.1032 164.346 93.9446C162.918 93.5084 163.475 91.4405 164.361 90.6955C167.255 88.4976 172.227 88.9001 171.983 93.3904C172.648 93.6287 172.444 94.6751 171.781 94.8102C176.197 96.3475 179.953 99.1302 183.674 101.886C184.552 102.537 185.428 103.186 186.31 103.817C185.618 100.248 184.967 96.6553 184.755 93.0378C184.7 93.0188 184.69 92.9354 184.747 92.9106C184.651 92.3119 184.892 92.218 185.049 92.8371C195.966 90.8693 207.174 90.7955 218.244 90.9433C224.211 91.0182 230.218 91.8127 235.766 94.0619C235.908 94.1354 236.135 94.2204 236.397 94.318C237.418 94.6999 238.961 95.2763 237.984 96.13C237.786 97.373 237.372 98.5816 236.961 99.7802C236.891 99.9851 236.82 100.19 236.751 100.394L236.267 101.741C233.41 109.688 230.553 117.633 227.912 125.653C227.843 125.862 227.773 126.071 227.704 126.28C227.175 127.866 226.646 129.453 226.15 131.05C226.126 131.125 226.104 131.205 226.08 131.286C225.898 131.914 225.68 132.668 224.924 132.674C224.145 133.206 223.276 133.606 222.375 133.895C220.665 143.707 212.712 150.984 205.615 157.478L205.483 157.599C205.833 158.113 206.167 158.646 206.457 159.198C207.806 159.317 209.069 158.838 210.32 158.363C210.938 158.129 211.554 157.895 212.174 157.736C219.042 155.508 226.489 154.831 233.671 155.543C233.953 155.571 234.19 155.859 234.014 156.131ZM190.992 251.749C215.879 278.261 260.53 268.348 273.391 235.118C291.077 193.446 249.065 146.849 205.516 167.227L205.539 167.306C205.745 168.019 205.952 168.73 206.166 169.44C230.693 156.983 261.887 170.24 271.452 195.277C288.094 234.48 249.312 278.544 207.865 260.795C172.916 246.002 168.089 195.612 198.738 173.904C198.5 173.147 198.271 172.388 198.049 171.627C172.096 189.427 168.803 229.75 190.992 251.749ZM234.146 217.061C233.436 216.485 232.73 215.905 232.028 215.32C231.976 215.839 231.846 216.347 231.628 216.827C232.468 216.903 233.307 216.982 234.146 217.061ZM230.422 216.092C230.39 216.149 230.357 216.205 230.321 216.26C230.323 216.265 230.324 216.27 230.326 216.275C230.327 216.279 230.329 216.284 230.331 216.289C230.363 216.224 230.394 216.158 230.422 216.092ZM230.07 216.63C230.055 216.649 230.041 216.668 230.026 216.687L230.078 216.692C230.132 216.623 230.181 216.551 230.226 216.477L230.213 216.428C230.167 216.496 230.12 216.564 230.07 216.63ZM227.459 215.533C227.454 215.609 227.459 215.634 227.467 215.634C227.474 215.634 227.482 215.613 227.488 215.592C227.494 215.569 227.495 215.544 227.486 215.542C227.487 215.542 227.484 215.541 227.476 215.539C227.472 215.538 227.466 215.536 227.459 215.533ZM226.699 212.753C227.026 213.151 227.37 213.568 227.49 214.076C227.568 214.406 227.542 214.711 227.508 215.033C227.671 214.905 227.822 214.728 227.973 214.549C228.358 214.097 228.752 213.633 229.396 213.909C229.511 212.307 227.556 211.174 226.119 211.677C226.104 211.694 226.056 211.778 226.07 211.808C226.19 212.134 226.439 212.437 226.699 212.753ZM225.482 216.838C225.482 216.774 225.493 216.708 225.515 216.647C225.177 216.938 224.768 217.122 224.328 217.212C224.433 217.245 224.542 217.274 224.648 217.303L224.667 217.308C224.789 217.05 225.173 216.933 225.462 216.844L225.482 216.838ZM224.416 210.987C224.154 211.07 223.859 211.164 223.863 211.41C223.96 211.395 223.876 211.508 223.828 211.513C224.037 211.561 224.244 211.629 224.444 211.714C224.449 211.438 224.55 211.121 224.684 210.889C224.612 210.925 224.516 210.955 224.416 210.987ZM222.415 213.551C222.512 213.697 222.61 213.842 222.702 213.992C223.217 214.869 221.899 215.635 221.304 214.8C221.339 214.909 221.383 215.014 221.435 215.11C221.475 215.077 221.508 215.139 221.462 215.158C221.916 215.941 222.891 216.249 223.789 216.233C223.741 215.615 223.812 215.606 223.851 216.229C226.194 215.926 225.8 212.096 221.952 212.589C221.927 212.611 221.902 212.634 221.878 212.657C222.03 212.975 222.222 213.263 222.415 213.551ZM199.275 175.573C196.894 177.359 194.634 179.418 192.611 181.646C198.321 188.116 203.885 194.729 209.447 201.34C211.54 203.827 213.632 206.314 215.732 208.793C215.968 209.073 216.208 209.35 216.448 209.629C217.044 210.319 217.642 211.012 218.185 211.739C218.51 211.918 218.837 212.094 219.167 212.264C210.275 201.399 203.722 188.783 199.275 175.573ZM180.029 211.66C179.706 216.952 180.223 222.344 181.56 227.408C189.622 224.487 197.771 221.794 205.919 219.101C209.852 217.801 213.785 216.501 217.707 215.176C211.036 213.768 204.237 213.458 197.435 213.148C191.609 212.882 185.781 212.616 180.029 211.66ZM209.493 218.436C201.449 221.094 193.405 223.752 185.332 226.322C185.048 226.413 184.764 226.507 184.479 226.6C183.52 226.916 182.553 227.233 181.575 227.459C196.452 279.597 268.406 272.094 273.427 218.662C260.698 219.313 247.913 218.971 235.24 217.573C242.059 222.79 249.071 227.762 256.078 232.73C258.942 234.761 261.806 236.791 264.655 238.837C264.831 238.996 264.605 239.244 264.411 239.148C254.125 232.501 244.287 225.1 234.695 217.507C233.632 217.376 232.57 217.231 231.513 217.068C231.341 217.392 231.128 217.693 230.871 217.954C235.098 231.851 238.096 246.175 239.572 260.61C239.587 260.831 239.217 260.88 239.177 260.662C237.113 246.354 234.389 232.142 230.652 218.157C228.82 219.491 226.215 219.295 224.098 218.825C225.385 233.296 226.505 247.801 227.37 262.299C227.349 262.618 226.846 262.722 226.774 262.378C225.556 247.868 224.708 233.309 223.908 218.768C223.102 218.518 222.21 217.968 222.415 217.081C221.674 216.852 221.028 216.356 220.65 215.729C220.251 216.318 219.85 216.906 219.45 217.494C218.638 218.687 217.825 219.881 217.025 221.082C217.188 220.953 217.35 220.824 217.512 220.695C218.935 219.565 220.359 218.434 221.824 217.364C221.995 217.238 222.198 217.39 222.236 217.562C221.251 218.675 219.961 219.603 218.673 220.531C217.76 221.188 216.848 221.844 216.045 222.566C209.843 232.014 204.47 241.989 200.067 252.368C199.883 252.802 199.155 252.617 199.338 252.171C203.347 242.225 208.428 232.713 214.411 223.778C211.735 225.816 209.044 227.893 206.35 229.973C200.885 234.191 195.401 238.425 189.972 242.388C196.427 237.232 202.925 232.127 209.428 227.031C210.363 226.301 211.297 225.57 212.231 224.84C213.265 224.031 214.299 223.223 215.333 222.415C216.802 220.276 218.336 218.18 219.966 216.164C217.431 217.762 214.899 219.376 212.365 220.99C204.629 225.921 196.877 230.861 188.954 235.42C188.754 235.463 188.65 235.249 188.766 235.102C194.82 231.051 201.122 227.27 207.414 223.494C211.817 220.853 216.215 218.214 220.519 215.487C220.266 214.958 220.191 214.351 220.369 213.729C220.326 213.675 220.284 213.623 220.242 213.57C220.201 213.521 220.161 213.471 220.121 213.422C208.643 206.999 196.267 201.206 184.255 196.455C195.447 200.361 206.271 205.249 216.658 210.904C214.11 207.817 211.548 204.739 208.986 201.661C203.469 195.035 197.952 188.408 192.579 181.681C185.133 189.84 180.679 200.604 180.033 211.593C185.34 212.265 190.71 212.424 196.079 212.584C204.088 212.822 212.095 213.06 219.886 214.998C220.255 215.12 220.099 215.614 219.729 215.558C219.367 215.504 219.006 215.439 218.647 215.369C217.825 215.713 216.971 215.984 216.119 216.255C215.81 216.354 215.501 216.452 215.194 216.553C213.293 217.18 211.393 217.808 209.493 218.436ZM263.326 184.527C253.277 193.391 242.837 201.966 231.799 209.599C230.845 209.601 232.23 208.601 232.898 208.12C233.042 208.016 233.153 207.936 233.199 207.896C243.475 200.399 253.423 192.482 263.267 184.45C256.312 175.468 246.059 169.063 234.809 167.086L234.721 167.751C233.008 180.664 231.294 193.581 230.336 206.574C236.102 195.297 242.463 183.809 250.092 173.838C243.386 184.862 236.691 195.907 230.961 207.46C230.82 207.74 230.683 208.027 230.545 208.315C230.411 208.595 230.276 208.876 230.136 209.155C230.119 209.318 230.11 209.484 230.101 209.651C230.084 209.971 230.067 210.292 229.988 210.594C231.411 211.651 232.171 213.474 232.038 215.205C232.896 215.837 233.753 216.47 234.61 217.106L234.817 217.126C236.29 217.265 237.763 217.405 239.238 217.529C250.615 218.501 262.059 218.661 273.464 218.136C273.938 211.167 272.953 204.103 270.563 197.619C257.596 201.505 244.771 205.861 232.128 210.659C231.794 210.766 231.568 210.244 231.888 210.1C244.5 205.171 257.43 201.009 270.542 197.561C268.814 192.867 266.37 188.438 263.326 184.527ZM212.156 168.773C212.901 170.238 213.579 171.718 214.217 173.229C214.482 173.756 215.315 176.077 213.956 175.437C213.488 174.94 213.211 174.28 212.98 173.65C212.412 172.121 211.917 170.577 211.514 168.996C209.866 169.583 208.231 170.272 206.659 171.046C210.718 184.936 217.842 197.625 225.393 209.908C226.455 209.518 227.682 209.533 228.736 209.923C229.466 208.588 229.508 207.841 229.58 206.534C229.589 206.375 229.598 206.208 229.61 206.03C230.719 192.985 232.031 179.906 234.582 167.046C233.767 166.904 232.947 166.785 232.123 166.689C232.099 166.792 232.075 166.896 232.05 167C231.88 167.723 231.704 168.472 231.649 169.214C231.637 169.343 231.559 169.494 231.413 169.518C229.861 169.61 230.63 167.484 230.942 166.623L230.962 166.567C229.918 166.472 228.868 166.412 227.813 166.389C226.783 180.357 226.29 194.351 226.143 208.35C226.131 208.59 225.779 208.589 225.765 208.35C225.547 194.355 226.247 180.31 227.698 166.386C224.269 166.317 220.841 166.627 217.527 167.313C219.43 180.089 221.61 192.824 223.998 205.516C224.022 205.751 223.659 205.778 223.595 205.57C220.967 192.938 218.855 180.166 217.33 167.355C215.58 167.724 213.855 168.196 212.156 168.773ZM196.661 156.499C196.72 157.879 196.78 159.259 197.04 160.624C200.525 179.528 209.177 197.355 221.378 212.322C221.381 212.321 221.383 212.321 221.387 212.321C221.143 211.245 222.958 211.319 223.639 211.472C223.412 211.118 223.944 210.75 224.315 210.494C224.411 210.427 224.497 210.368 224.556 210.318C214.191 197.45 202.825 171.166 202.069 154.788C202.069 154.667 202.259 154.638 202.285 154.759C202.958 157.829 203.74 160.88 204.579 163.914C211.758 160.576 219.54 158.919 227.487 159.031C227.883 158.845 228.257 158.662 228.563 158.369C228.766 158.271 228.947 158.23 229.138 158.186C229.209 158.17 229.282 158.153 229.358 158.133C229.788 157.881 230.262 157.694 230.735 157.507C231.533 157.191 232.329 156.876 232.912 156.251C226.481 155.674 219.943 156.236 213.713 157.907C211.457 158.671 209.195 159.413 206.896 160.045C206.978 160.173 207.038 160.321 207.099 160.47C207.199 160.719 207.3 160.967 207.505 161.119C207.942 161.49 207.585 162.12 207.12 162.257C206.342 162.487 206.035 161.715 205.874 161.142C205.513 159.858 205.089 158.575 204.437 157.404C204.237 157.042 204.058 156.662 203.878 156.282C203.363 155.19 202.844 154.091 201.822 153.376C201.438 153.472 201.038 153.466 200.639 153.46C200.46 153.457 200.28 153.455 200.103 153.462C199.287 153.474 198.476 153.593 197.668 153.711C197.277 153.768 196.886 153.825 196.496 153.87C196.585 154.744 196.623 155.621 196.661 156.499ZM195.289 148.818C195.53 149.599 195.771 150.381 195.991 151.169C196.168 151.841 196.305 152.516 196.407 153.193C197.713 152.325 199.295 151.933 200.852 151.802C199.993 148.611 199.027 145.424 198.061 142.24C196.859 138.277 195.658 134.318 194.667 130.358C194.663 130.314 194.666 130.27 194.671 130.225L194.584 130.179C193.716 129.721 193.072 129.38 192.033 129.652C191.411 129.777 190.89 130.066 190.78 130.701C190.763 130.795 190.703 130.845 190.63 130.862C191.889 134.956 193.139 139.068 193.881 143.296C194.168 145.184 194.728 147 195.289 148.818ZM165.506 179.761C169.003 176.224 172.5 172.686 176.024 169.175C182.104 163.086 188.23 157.041 194.395 151.037C194.149 150.202 193.887 149.373 193.626 148.543C193.482 148.085 193.337 147.627 193.195 147.168C186.705 154.197 179.712 160.805 172.718 167.414C162.782 176.801 152.847 186.189 144.354 196.786C144.322 196.827 144.287 196.865 144.25 196.899C144.482 196.895 146.412 197.126 145.403 197.168C145.693 197.24 145.894 197.606 145.598 197.778L147.032 198.643C147.128 198.018 147.797 197.409 148.425 196.838C148.761 196.532 149.086 196.237 149.304 195.956C154.768 190.623 160.136 185.192 165.506 179.761ZM152.478 203.08C152.322 202.975 152.16 202.866 152.13 202.678C149.52 201.1 146.911 199.521 144.302 197.94C143.969 198.012 143.601 198.025 143.231 198.037C142.398 198.066 141.555 198.094 141.07 198.805C141.089 198.923 141.045 199.053 140.932 199.108C140.702 199.357 140.164 199.271 140.147 198.812C140.183 197.74 141.827 197.183 142.718 196.98C142.327 196.744 141.936 196.507 141.545 196.27L140.643 195.724C139.799 195.911 138.969 196.163 138.157 196.458C138.063 196.492 137.963 196.539 137.859 196.587C137.578 196.717 137.272 196.859 136.998 196.8C136.975 196.827 136.954 196.854 136.938 196.882C137.013 196.914 137.086 196.948 137.127 196.958C137.465 197.052 137.381 197.527 137.046 197.544C136.525 197.569 135.683 197.429 135.857 196.707C136.31 195.693 138.252 195.266 139.344 195.026C139.382 195.018 139.418 195.01 139.453 195.002C139.299 194.91 139.144 194.815 138.987 194.719C137.365 193.73 135.576 192.639 133.644 192.813C133.356 193.014 133.006 193 132.68 192.902C131.425 193.164 130.29 193.803 129.252 194.526C128.488 194.989 127.809 195.607 127.13 196.224C125.99 197.259 124.852 198.294 123.318 198.596C121.24 198.876 118.528 196.756 118.044 194.881C117.998 194.874 117.952 194.864 117.906 194.85C117.26 196.931 117.281 199.11 117.341 201.254C120.987 201.484 124.631 201.774 128.276 202.064C133.861 202.509 139.447 202.953 145.045 203.184C146.769 203.268 148.492 203.344 150.216 203.412C151.027 203.452 151.822 203.439 152.584 203.153C152.55 203.128 152.514 203.104 152.478 203.08ZM117.305 201.55C117.299 201.584 117.293 201.618 117.287 201.653C117.519 201.611 117.757 201.603 117.996 201.605C117.76 201.576 117.526 201.536 117.317 201.467C117.314 201.494 117.309 201.522 117.305 201.55ZM152.34 207.536C155.572 207.416 155.817 205.11 153.181 203.552C152.854 203.749 152.425 203.771 152.043 203.791C151.937 203.796 151.834 203.802 151.738 203.81C151.585 204.286 150.041 204.158 148.829 204.058C148.281 204.013 147.8 203.973 147.547 203.997C142.707 203.888 137.883 203.47 133.061 203.053C128.174 202.63 123.29 202.207 118.394 202.105C118.337 202.105 118.277 202.104 118.217 202.103C117.713 202.094 117.123 202.084 116.863 202.475C116.855 203.478 117.098 204.298 118.23 204.443C125.559 206.247 133.052 207.363 140.598 207.673C144.497 207.823 148.448 207.864 152.34 207.536ZM146.767 212.026C146.766 211.766 146.765 211.507 146.768 211.247C146.77 211.135 146.78 211.002 146.791 210.861C146.806 210.67 146.822 210.464 146.819 210.279C145.479 210.142 144.138 210.008 142.795 209.909C142.864 210.056 142.898 210.218 142.89 210.376C143.114 210.581 143.24 210.902 143.195 211.212C143.358 211.467 143.413 211.781 143.331 212.061C144.475 212.086 145.62 212.075 146.767 212.026ZM117.316 221.915C125.1 225.431 132.829 219.818 138.511 214.977C138.667 214.663 138.852 214.365 139.072 214.092C138.03 214.013 136.995 214 135.962 213.988C134.115 213.966 132.276 213.945 130.429 213.54C131.213 214.365 130.048 214.744 129.196 215.022C128.967 215.096 128.761 215.164 128.621 215.23C126.846 215.929 125.06 216.602 123.264 217.249C123.902 223.071 118.299 222.084 117.013 217.591C116.618 217.688 116.217 217.719 115.809 217.701C115.732 217.798 115.608 217.863 115.455 217.841C114.025 217.636 112.599 217.389 111.174 217.143C110.459 217.019 109.745 216.895 109.03 216.777C107.85 216.597 106.671 216.396 105.493 216.194C103.323 215.823 101.153 215.452 98.9683 215.217C98.9708 215.194 98.9734 215.17 98.9751 215.147C95.4358 214.621 91.8976 214.074 88.3587 213.527C77.991 211.924 67.6167 210.32 57.1897 209.26C56.693 209.211 56.2742 208.841 56.35 208.313C56.3483 208.315 56.3467 208.316 56.345 208.316C56.2857 208.662 56.2514 209.021 56.2168 209.381C56.1082 210.516 55.9978 211.669 55.1027 212.496C74.6553 214.239 94.1231 217.077 113.459 220.372C114.585 220.661 115.623 221.138 116.668 221.619C116.883 221.718 117.099 221.817 117.316 221.915ZM128.128 231.449C134.646 231.135 136.909 226.06 137.442 220.372C137.487 220.019 137.525 219.651 137.563 219.276C137.654 218.399 137.748 217.48 137.949 216.609C132.685 221.081 125.719 225.632 118.475 223.37C118.322 223.672 117.997 223.857 117.682 224.037C117.544 224.116 117.407 224.194 117.288 224.28C115.955 225.25 114.62 226.218 113.283 227.183C113.762 227.627 114.14 228.242 113.609 228.802C112.559 229.94 110.923 229.716 109.495 229.52L109.407 229.507C108.487 229.798 107.419 229.879 106.52 229.458C106.041 229.856 105.531 230.362 105.518 231.003C105.59 230.937 105.607 230.991 105.581 231.059L105.665 231.065C113.129 231.608 120.658 232.156 128.128 231.449ZM108.986 223.792C107.851 224.865 106.708 226.189 106.396 227.744C106.304 228.519 106.998 228.716 107.632 228.659C107.739 228.512 108.035 228.457 108.211 228.549C108.596 228.436 108.964 228.257 109.319 228.08C112.195 226.683 114.916 224.989 117.367 222.954C117.029 222.845 116.564 222.62 116.058 222.375C114.973 221.85 113.693 221.231 113.041 221.453C112.698 221.662 112.36 221.879 112.022 222.096C111.046 222.722 110.071 223.348 108.986 223.792ZM19.7734 246.175C43.9061 271.64 87.275 262.258 99.8501 230.166C101.271 226.731 102.304 223.177 102.943 219.536C102.002 219.389 101.06 219.242 100.118 219.097C93.9384 256.003 48.5086 272.524 21.6865 244.377C-3.3864 219.071 8.00238 171.641 43.7186 162.984C43.5488 162.496 43.4168 161.999 43.3361 161.489C5.52189 170.28 -7.116 219.444 19.7734 246.175ZM86.819 172.547C78.0381 164.666 66.4298 160.139 54.5328 160.182C50.8403 160.182 47.2101 160.593 43.6714 161.41C43.8009 161.912 43.9807 162.396 44.1942 162.868C58.7668 159.306 74.7371 163.761 85.4971 174.059C85.8299 173.728 86.1637 173.398 86.4972 173.067C86.5179 172.938 86.6083 172.825 86.6966 172.714C86.741 172.658 86.7848 172.603 86.819 172.547ZM41.1985 156.76C41.9633 156.744 42.684 156.728 43.2756 156.789C47.0398 156.924 50.7666 156.855 54.5329 156.713C62.7059 157.16 70.8769 157.284 79.0553 157.408C82.0122 157.453 84.9702 157.497 87.9296 157.558C87.9614 157.51 88.0024 157.467 88.0523 157.43C84.5207 155.376 80.7053 153.405 76.5304 153.177C67.7507 152.813 58.9495 153.026 50.1511 153.238C45.2539 153.356 40.3575 153.474 35.4663 153.493C35.1721 154.063 35.2755 154.756 35.6217 155.307C36.6061 156.857 39.0727 156.805 41.1985 156.76ZM22.4604 152.334C24.793 152.083 27.1432 151.951 29.4906 151.891C44.9416 151.531 60.4253 151.17 75.8736 151.659C77.7858 151.827 79.6089 152.235 81.39 152.861C82.4424 153.146 83.4737 153.503 84.4723 153.943C85.3266 154.308 86.1183 154.781 86.9102 155.254C87.6709 155.709 88.4317 156.163 89.2482 156.522C89.9186 156.857 90.5918 157.188 91.2652 157.52C92.8959 158.323 94.5279 159.126 96.1245 159.987C96.5507 160.217 96.4913 160.67 96.222 160.92C96.3826 161.192 96.5916 161.43 96.7997 161.667C96.8548 161.73 96.9097 161.792 96.9637 161.856C97.1944 161.667 97.4312 161.486 97.6681 161.304C98.0373 161.022 98.4068 160.739 98.7534 160.428C98.5972 160.293 98.4118 160.098 98.2062 159.881C97.4692 159.104 96.4739 158.055 95.6438 158.554C95.59 158.591 95.5336 158.587 95.4874 158.562C83.2616 148.757 66.5856 148.674 51.4234 149.124C43.4547 149.185 35.4845 149.292 27.5169 149.448C27.1385 149.507 26.5118 149.492 25.8011 149.476C24.0429 149.435 21.7704 149.382 21.4702 150.399C22.4595 150.379 22.4595 151.37 22.4596 152.128C22.4596 152.199 22.4596 152.268 22.4604 152.334ZM21.405 158.076C21.3036 158.397 21.0863 158.614 20.8317 158.715C21.0663 158.682 21.3016 158.627 21.5302 158.56C21.4857 158.4 21.4445 158.239 21.405 158.076ZM96.0237 162.313C95.7637 161.991 95.503 161.669 95.4148 161.27C95.3997 161.197 95.3926 161.094 95.3974 160.98C93.616 160.152 91.8625 159.259 90.1106 158.367C89.9016 158.261 89.6925 158.154 89.4835 158.048C89.2457 158.191 88.8935 158.279 88.5671 158.361C88.5057 158.376 88.4452 158.391 88.3866 158.406C88.3028 158.558 88.1464 158.668 87.9152 158.664C80.9978 158.534 74.0808 158.401 67.1634 158.265C75.3208 160.315 82.9035 164.36 89.1612 169.951C90.9797 168.042 92.9131 166.245 94.8469 164.447C95.3883 163.944 95.9298 163.44 96.4687 162.935C96.3491 162.715 96.1865 162.514 96.0237 162.313ZM54.15 188.57C53.5846 186.074 53.0193 183.578 52.3416 181.12C52.1364 179.73 51.4398 178.469 50.7415 177.205C50.3345 176.469 49.9269 175.731 49.6157 174.966C49.17 174.064 48.7314 173.161 48.2932 172.259C47.0308 169.661 45.773 167.072 44.3667 164.527C43.4656 164.746 42.5704 164.994 41.6837 165.273C44.8171 175.009 47.7054 184.83 50.5916 194.644C51.3724 197.299 52.1531 199.953 52.9384 202.605L53.0003 202.594C54.0888 202.405 55.2312 202.207 56.108 201.502C56.5913 201.113 57.2806 201.757 56.8628 202.165C55.8353 203.038 54.4959 203.295 53.1674 203.55C51.5246 203.866 49.8986 204.178 48.9005 205.648C48.5122 206.271 48.3693 207.068 48.787 207.654C49.3427 206.92 50.2643 206.711 51.1355 206.592C53.1887 206.22 54.6845 204.683 56.1012 203.226C56.4065 202.913 56.7081 202.602 57.0108 202.309C58.6294 200.705 60.2473 199.1 61.8651 197.494L62.391 196.973C60.5237 196.804 57.7841 191.192 55.7912 187.11C55.0232 185.536 54.3661 184.19 53.9126 183.471C54.3057 185.19 54.7219 186.905 55.1383 188.62C56.0806 192.503 57.0234 196.388 57.6992 200.322C57.7212 200.508 57.723 200.694 57.7248 200.88C57.7264 201.041 57.728 201.202 57.7429 201.364C57.7469 201.401 57.6928 201.402 57.6804 201.372C56.1116 197.231 55.1306 192.899 54.15 188.57ZM68.8248 224.972C67.8007 224.368 69.6868 223.468 70.237 224.048C70.2622 224.066 70.2698 224.093 70.2647 224.115C77.2695 224.106 84.2623 224.564 91.2276 225.273C92.1404 225.367 93.0515 225.475 93.9618 225.589C94.2546 225.647 94.5592 225.675 94.8644 225.703C95.4548 225.756 96.0478 225.81 96.5633 226.083C97.3836 223.72 98.0149 221.302 98.457 218.841C90.8078 217.638 83.1362 216.589 75.4646 215.539C68.6291 214.604 61.7935 213.669 54.9738 212.626C51.9999 215.686 46.9196 212.495 48.2655 208.575C46.613 207.022 47.964 204.47 49.712 203.597C50.5702 203.112 51.5167 202.869 52.4782 202.688C51.5426 199.533 50.5975 196.38 49.6521 193.227C46.8702 183.946 44.0869 174.661 41.5412 165.318C8.83936 175.418 -0.508183 219.578 22.9107 243.245C45.6598 267.559 85.5463 257.574 96.2506 226.959C95.3356 226.876 94.4202 226.793 93.5044 226.71C86.1961 226.045 78.8621 225.378 71.5163 225.143C71.3 225.134 71.0818 225.127 70.8627 225.121C70.1807 225.1 69.4903 225.079 68.8248 224.972ZM102.233 158.437C102.059 158.594 101.884 158.749 101.716 158.907C94.6445 165.767 87.68 172.735 80.7154 179.702C76.1585 184.26 71.6017 188.819 67.0148 193.347C65.2994 194.948 63.6625 196.647 62.0247 198.347C59.2196 201.257 56.4119 204.171 53.2029 206.602C52.7482 206.857 52.2582 207.064 51.7514 207.194C51.5864 207.23 51.4148 207.259 51.2415 207.289C50.4809 207.42 49.6862 207.556 49.2567 208.253C47.5157 211.188 51.1426 214.512 53.9888 212.47C53.9469 212.473 53.8455 212.438 53.9242 212.406C54.6872 212.206 55.1861 211.168 55.3278 210.437C54.2476 211.01 53.5985 209.947 53.0534 209.054C52.9121 208.822 52.7777 208.602 52.6447 208.425C52.384 208.408 52.1193 208.457 51.8456 208.507C51.7479 208.525 51.649 208.544 51.5488 208.559C50.1533 208.511 51.1773 207.278 52.5288 207.683C53.1941 207.593 53.8679 208.066 54.4032 208.445C54.5357 208.532 54.6814 208.598 54.8266 208.664C55.0586 208.77 55.289 208.875 55.4606 209.061C55.4774 208.848 55.4984 208.634 55.5337 208.423C54.9428 208.256 54.5957 207.55 54.8134 206.987C54.8949 206.596 55.2873 206.273 55.7052 206.267C55.6817 206.271 55.659 206.274 55.6363 206.278C55.6741 206.275 55.9128 206.238 55.8641 206.238C56.0749 206.256 56.3561 206.318 56.4617 206.508C65.1939 198.35 74.0766 190.339 82.96 182.328C90.1835 175.813 97.4074 169.299 104.551 162.704C104.17 160.898 103.792 159.093 103.415 157.287C103.06 157.698 102.645 158.069 102.233 158.437ZM65.5402 199.184C63.6625 200.889 61.7839 202.594 59.9062 204.297C64.7512 203.246 69.7498 202.998 74.6886 202.763C73.832 202.432 72.9727 202.105 72.113 201.778C69.9096 200.939 67.7043 200.1 65.5402 199.184ZM57.7047 206.272C59.1388 205.566 60.9045 205.197 62.3327 206.074C63.3055 206.603 64.5564 208.4 63.6204 209.409C75.4625 210.84 87.2585 212.609 99.0412 214.446C99.1328 213.389 99.1908 212.326 99.2144 211.255C92.9275 209.276 86.6899 207.139 80.4882 204.913C79.2055 204.448 77.9246 203.976 76.6461 203.498C75.8821 203.512 75.1172 203.531 74.3531 203.557C71.4124 203.616 68.4829 203.87 65.5542 204.125C63.5677 204.297 61.5816 204.47 59.5926 204.581C59.3786 204.774 59.1583 204.964 58.9368 205.156C58.5187 205.518 58.0965 205.884 57.7047 206.272ZM103.522 215.158C103.597 214.306 103.652 213.45 103.684 212.591C102.746 212.332 101.813 212.057 100.883 211.773C100.852 212.757 100.792 213.735 100.705 214.709C101.644 214.857 102.583 215.007 103.522 215.158ZM89.0686 177.79C96.8941 186.861 101.089 198.781 100.905 210.755C101.839 211.036 102.775 211.308 103.715 211.568C104.012 198.701 99.3322 185.898 90.6488 176.351C90.4737 176.51 90.2985 176.67 90.1234 176.829C89.7716 177.149 89.4199 177.469 89.0686 177.79ZM93.2409 173.995C97.4124 178.593 100.732 183.837 103.12 189.612C106.522 197.788 107.849 206.841 107.015 215.712L107.088 215.723C109.778 216.144 112.471 216.566 115.141 217.08C115.722 217.125 116.311 217.079 116.864 216.892C112.582 199.205 108.433 181.445 104.743 163.612C100.899 167.062 97.0637 170.522 93.2409 173.995ZM117.953 217.637C117.909 217.513 117.87 217.382 117.838 217.253C117.875 217.381 117.914 217.51 117.953 217.637ZM130.028 210.584C130.683 208.851 132.615 208.116 133.756 209.859C135.288 213.102 129.308 213.621 130.028 210.584ZM128.476 211.596C128.457 210.555 128.49 209.46 128.886 208.49C128.446 208.477 128.143 207.948 128.366 207.577C126.629 207.309 124.898 207 123.178 206.65C123.024 206.654 122.769 206.582 122.488 206.503C121.812 206.313 120.987 206.08 121.06 206.755C121.083 209.016 121.693 211.174 122.302 213.333C122.645 214.549 122.989 215.765 123.227 216.999C124.882 216.081 126.549 215.189 128.231 214.319C128.463 214.228 128.685 214.087 128.906 213.947C129.329 213.678 129.753 213.41 130.254 213.479C129.595 213.231 129.045 212.819 128.763 212.123C128.599 212.029 128.481 211.853 128.476 211.596ZM120.576 206.088C120.555 206.083 120.533 206.078 120.511 206.073C120.528 206.101 120.544 206.129 120.56 206.158C120.566 206.169 120.572 206.181 120.579 206.192C120.595 206.16 120.615 206.13 120.636 206.101C120.616 206.096 120.596 206.092 120.576 206.088ZM106.666 145.976C105.224 145.822 103.783 145.655 102.344 145.484C103.52 151.616 104.924 157.698 106.328 163.781C107.809 170.201 109.291 176.621 110.505 183.1C110.567 183.407 110.629 183.715 110.691 184.023C112.915 195.09 115.143 206.179 118.425 217C118.475 217.156 118.522 217.315 118.569 217.474C118.838 218.38 119.111 219.302 119.819 219.985C120.676 220.633 121.736 220.736 122.245 219.72C122.42 219.112 122.299 218.507 122.175 217.89C122.156 217.795 122.137 217.699 122.119 217.603C121.79 216.021 121.52 214.417 121.249 212.814C120.858 210.498 120.467 208.183 119.902 205.935C116.268 205.242 115.666 204.673 115.888 200.985L115.89 200.945C115.978 199.473 116.066 197.987 116.352 196.538C116.536 195.666 116.85 194.812 117.246 193.992C117.263 193.484 117.297 192.977 117.346 192.472C116.523 192.482 116.318 191.616 116.135 190.84C116.065 190.545 115.999 190.263 115.902 190.047C115.861 189.907 115.819 189.767 115.777 189.628C115.574 188.946 115.371 188.264 115.172 187.583C111.144 173.979 108.108 160.062 106.666 145.976ZM113.041 172.464C113.052 172.458 113.062 172.471 113.057 172.48C112.985 172.62 112.846 172.539 112.794 172.423C114.261 178.623 115.73 184.828 117.542 190.941C118.443 185.264 121.05 180.164 123.656 175.065C125.25 171.948 126.844 168.83 128.047 165.581C126.663 166.223 125.277 166.874 123.889 167.526C120.283 169.22 116.667 170.92 113.041 172.464ZM116.502 166.923C115.075 167.676 113.649 168.429 112.229 169.188C112.174 169.206 112.116 169.208 112.059 169.198C112.291 170.246 112.529 171.292 112.773 172.337C112.783 172.133 113.062 171.995 113.266 171.893C113.321 171.866 113.37 171.842 113.407 171.82C115.126 170.841 116.902 169.964 118.676 169.088C118.872 168.992 119.068 168.895 119.264 168.798C120.134 168.371 121.003 167.943 121.872 167.514C124.08 166.426 126.287 165.337 128.508 164.278C129.025 162.745 129.422 161.177 129.801 159.604C125.463 162.195 120.979 164.562 116.502 166.923ZM108.184 147.575C108.24 148.016 108.296 148.453 108.424 148.882C108.765 153.929 109.845 158.909 110.921 163.874C111.238 165.337 111.555 166.8 111.853 168.262C112.88 167.661 113.964 167.168 115.049 166.675C116.15 166.174 117.252 165.674 118.296 165.059C116.285 166.054 114.27 167.043 112.231 167.974C115.789 165.986 119.47 164.158 123.15 162.332C125.435 161.198 127.719 160.064 129.973 158.892C130.125 158.251 130.277 157.611 130.435 156.972C129.824 156.896 129.282 156.688 128.758 156.355C123.188 153.23 117.852 149.791 112.717 146.014C111.95 146.243 111.114 146.309 110.304 146.295C109.553 146.443 108.79 146.54 108.026 146.578C108.099 146.912 108.142 147.245 108.184 147.575ZM125.108 196.478C127.233 194.76 129.51 193.057 132.159 192.224C131.972 191.217 132.04 190.152 132.43 189.203C126.344 189.2 122.42 189.752 118.564 194.785C118.598 194.885 118.702 194.94 118.794 194.988C118.906 195.047 118.999 195.096 118.927 195.205C120.385 197.062 123.13 198.329 125.108 196.478ZM91.5574 147.755C91.97 146.662 92.6571 145.672 93.7881 145.204C93.8957 145.153 94.005 145.106 94.1143 145.062C91.1492 144.871 88.2283 144.445 85.3339 143.774C85.381 143.973 85.4212 144.176 85.4615 144.38C85.5839 144.997 85.7076 145.621 86.0275 146.174C87.4881 145.729 88.4086 146.446 89.1854 147.587C89.7712 148.262 91.0505 148.815 91.5574 147.755ZM81.4674 114.84C81.0866 115.48 80.7849 116.157 80.5613 116.858C80.1049 118.287 79.9729 119.812 80.1503 121.306C90.8465 114.623 104.043 112.949 116.366 115.281C119.463 115.722 122.614 115.952 125.726 115.529C125.233 112.762 125.472 109.919 125.708 107.115C125.756 106.55 125.803 105.987 125.844 105.426C125.972 103.533 126.186 101.487 127.513 100.001C120.685 98.7866 113.867 96.5995 108.037 92.8364C99.8099 87.4388 98.5026 80.832 96.8216 72.3358C96.7074 71.759 96.5916 71.1734 96.4717 70.579C95.6867 77.1136 94.3153 81.2812 92.4733 86.8792C92.1252 87.9373 91.7602 89.0464 91.3792 90.2323C90.1316 93.7672 88.5354 97.011 86.952 100.229C84.6904 104.825 82.4547 109.369 81.2976 114.633C81.4027 114.595 81.5338 114.729 81.4674 114.84ZM115.185 45.2906C106.333 44.6637 100.634 45.801 98.5529 53.9747C95.6715 65.7276 98.4533 76.7566 103.957 87.4936C108.995 94.6341 118.409 96.5263 126.737 98.2001C127.013 98.2557 127.288 98.311 127.562 98.3662C127.935 98.0666 128.886 98.4061 129.792 98.7298C130.445 98.9627 131.074 99.1874 131.449 99.1599C131.465 99.1414 131.482 99.1216 131.499 99.1015C131.534 99.0597 131.57 99.017 131.608 98.984C131.499 99.0794 131.499 99.0791 131.534 99.0431C131.568 99.0083 131.635 98.9403 131.667 98.8932C132.18 98.1437 132.552 97.2928 132.91 96.4642C132.911 96.4624 132.913 96.4579 132.915 96.4551C132.915 96.4524 132.916 96.4496 132.918 96.4469C133.327 95.4871 133.693 94.7388 134.059 93.9904C134.425 93.2429 134.791 92.4953 135.199 91.5369C118.725 87.9966 105.873 76.2411 110.416 59.7725C110.439 59.7073 110.54 59.7164 110.541 59.789C110.544 60.3988 110.536 61.0084 110.528 61.6178C110.512 62.8879 110.496 64.1575 110.577 65.4282C111.127 77.3552 118.362 83.031 129.627 87.8616C128.406 80.3839 125.716 74.8735 123.158 69.6343C119.587 62.3195 116.273 55.5333 117.578 44.6593C116.869 45.0524 116.033 45.2251 115.185 45.2906ZM133.274 48.2815C130.483 52.9796 122.601 52.6024 118.999 48.9933C118.682 48.6638 118.395 48.2971 118.153 47.9073C118.487 57.4222 121.399 63.2632 124.475 69.4323C126.912 74.32 129.451 79.4136 130.892 86.7034C131.107 84.2631 131.308 82.0505 131.494 79.9964C132.536 68.5109 133.128 61.9787 133.274 48.2815ZM139.527 50.1581C137.96 48.992 136.281 47.9633 134.472 47.1935L134.426 47.1701C134.183 47.0478 133.934 46.9225 133.687 46.7899C135.124 59.6386 134.479 67.1082 133.611 77.1532C133.306 80.6862 132.973 84.5377 132.694 89.054C134.034 89.4986 135.405 89.8582 136.797 90.1244C137.57 90.273 137.581 91.3285 137.053 91.6927C137.003 91.7821 136.953 91.6358 136.906 91.4986C136.862 91.3704 136.821 91.2501 136.785 91.3376C136.786 91.3346 136.788 91.3308 136.79 91.3258C136.791 91.3212 136.794 91.3155 136.796 91.3087C136.649 91.6551 136.514 92.006 136.38 92.3569C137.447 92.5931 138.488 92.9443 139.527 93.2948C140.778 93.717 142.027 94.1383 143.314 94.3563C142.405 93.6247 141.494 92.8692 140.763 91.9596C140.496 91.5881 140.266 91.5139 139.992 91.4253C139.792 91.3607 139.569 91.2884 139.29 91.0877C139.277 91.38 139.263 91.5654 139.251 91.7172C139.229 92.0077 139.216 92.1746 139.237 92.7317C139.253 93.1687 138.605 93.148 138.56 92.7317C138.484 92.2462 138.408 91.7819 138.335 91.3322C137.935 88.8653 137.605 86.836 137.639 84.1307C137.641 83.0461 137.641 82.0131 137.64 81.022C137.635 71.8084 137.632 66.2136 139.996 56.3556C140.016 56.3052 140.082 56.3159 140.089 56.3679C140.177 57.0471 140.149 57.7298 140.121 58.4126C140.116 58.5393 140.111 58.6661 140.106 58.7928C139.951 61.2167 139.791 63.347 139.643 65.3164C139.135 72.072 138.769 76.9354 139.22 85.2697C139.3 85.7899 139.287 86.4147 139.274 87.0619C139.246 88.4487 139.215 89.939 140.089 90.7269C141.234 91.9828 142.61 92.5975 144.059 93.245C144.793 93.5729 145.546 93.9092 146.297 94.3414C146.515 94.5103 146.775 94.4583 147.034 94.4063C147.132 94.3869 147.229 94.3674 147.324 94.3596C147.943 94.2531 148.548 94.1879 149.167 94.3356C150.667 94.6979 151.705 95.9444 152.582 97.1107C153.735 96.4335 155.059 96.2544 156.386 96.075C157.348 95.945 158.311 95.8148 159.211 95.4944C159.131 95.2995 159.065 95.0988 159.023 94.8965C142.676 86.7013 142.987 81.6861 144.291 65.7618C144.311 64.8191 144.333 63.9865 144.354 63.2236C144.445 59.8447 144.5 57.8336 144.1 53.6755C143.799 52.1809 142.628 51.6764 141.384 51.1406C140.749 50.8667 140.094 50.5847 139.527 50.1581ZM160.324 95.0627C160.552 95.543 160.83 96.1289 160.167 96.3752C158.806 96.8744 157.371 97.023 155.934 97.1718C154.939 97.275 153.942 97.3783 152.967 97.5984C153.053 97.7142 153.194 97.8548 153.348 98.0089C153.869 98.5272 154.542 99.1977 153.754 99.5904C153.793 99.6738 153.83 99.7589 153.866 99.8456C155.511 99.6374 157.162 99.4684 158.814 99.2993C159.911 99.1871 161.007 99.0749 162.101 98.9512C161.183 97.6572 160.696 96.1095 160.636 94.5368C160.578 94.7203 160.443 94.8877 160.288 94.9885C160.3 95.0129 160.312 95.0377 160.324 95.0627ZM183.196 103.407C177.668 99.2758 171.652 94.7791 164.363 95.0789C163.562 95.0665 162.725 95.0656 161.922 95.1548C162.018 96.16 162.387 97.1395 162.918 98.0026C169.486 96.9329 175.288 100.681 179.648 105.123C181.711 106.665 184.417 106.86 186.917 106.933C186.826 106.463 186.735 105.992 186.643 105.52L186.611 105.355C185.783 105.412 185.154 104.902 184.532 104.398C184.261 104.178 183.991 103.959 183.707 103.789C183.537 103.662 183.367 103.535 183.196 103.407ZM169.886 92.0561C169.24 90.6599 167.002 91.3429 165.901 91.8141C165.662 91.9512 165.47 92.1032 165.33 92.3071C165.653 92.4162 165.877 92.744 165.874 93.0645C167.247 93.2798 168.645 93.3866 170.036 93.3602C170.081 92.9437 170.069 92.5879 169.951 92.2386C169.952 92.241 169.88 92.0561 169.886 92.0561ZM179.048 106.346C179.037 106.357 179.026 106.368 179.014 106.379C178.803 106.566 178.594 106.765 178.382 106.966C178.231 107.11 178.078 107.255 177.924 107.396C178.862 107.601 179.835 107.497 180.788 107.395C180.852 107.388 180.915 107.381 180.978 107.375C180.293 107.108 179.646 106.769 179.048 106.346ZM140.093 104.506C140.25 104.447 140.409 104.371 140.57 104.286C140.498 104.226 140.427 104.165 140.356 104.105C139.872 103.696 139.389 103.287 138.889 102.9C138.85 103.559 139.446 104.021 139.929 104.396C139.951 104.413 139.973 104.43 139.995 104.447C140.027 104.467 140.059 104.487 140.093 104.506ZM151.708 97.8597C150.795 96.6238 149.857 95.3534 148.213 95.3209C148.262 95.3459 148.309 95.372 148.355 95.3991C147.486 95.1003 146.6 95.2208 145.719 95.3407C145.184 95.4135 144.65 95.486 144.123 95.4644C142.566 95.3381 141.147 94.7955 139.729 94.2532C138.542 93.7992 137.355 93.3454 136.088 93.1362C135.936 93.5432 135.788 93.9524 135.639 94.3621C134.973 96.1932 134.305 98.0328 133.329 99.7196C136.491 99.2169 139.252 101.494 141.545 103.386C141.638 103.463 141.731 103.539 141.822 103.614C141.851 103.601 141.879 103.589 141.908 103.578C142.15 103.85 142.471 104.013 142.786 104.172C142.838 104.199 142.89 104.225 142.941 104.252C142.944 104.435 143.132 104.498 143.309 104.557C143.39 104.584 143.468 104.61 143.525 104.646C143.521 104.653 143.517 104.66 143.512 104.668C143.504 104.682 143.496 104.696 143.487 104.709C144.103 104.882 144.683 104.675 145.288 104.46C145.32 104.448 145.353 104.436 145.385 104.425C146.341 104.059 147.316 103.729 148.291 103.398C149.788 102.891 151.286 102.383 152.717 101.746C153.203 101.354 153.003 100.846 152.812 100.362C152.642 99.9313 152.48 99.5196 152.817 99.2266C152.424 98.8282 152.068 98.3466 151.708 97.8597ZM133.095 100.066C132.705 100.589 132.2 100.99 131.468 101.022C131.286 101.031 131.105 101.017 130.926 100.991C130.889 101.763 130.84 102.539 130.791 103.315C130.589 106.523 130.385 109.757 130.996 112.921C133.414 113.447 135.866 113.828 138.337 114.004C138.439 111.09 138.315 108.172 138.09 105.267C137.379 104.412 136.87 102.985 138.147 102.35C136.638 101.254 134.885 100.572 133.095 100.066ZM127.619 107.608C127.526 109.41 127.433 111.213 127.522 113.018C127.505 113.295 127.553 113.631 127.602 113.981C127.721 114.821 127.852 115.743 127.136 116.135C127.021 116.739 125.33 116.89 124.284 116.983C124.015 117.007 123.788 117.027 123.642 117.05C126.263 117.279 128.786 117.986 131.309 118.693C132.442 119.011 133.574 119.328 134.715 119.602C133.432 118.374 132.2 116.722 132.495 114.871C129.772 114.503 129.115 114.209 129.116 111.361C128.944 107.864 129.098 104.167 130.467 100.898C129.818 100.712 129.203 100.544 128.542 100.365C127.819 101.886 127.769 103.585 127.721 105.244C127.713 105.516 127.705 105.787 127.694 106.056C127.672 106.573 127.645 107.091 127.619 107.608ZM184.516 128.157C183.328 121.398 184.017 118.028 187.968 112.396C187.702 111.024 187.438 109.652 187.175 108.278C186.225 108.361 185.234 108.238 184.261 108.116C183.829 108.062 183.402 108.009 182.983 107.974C182.489 108.011 181.988 108.076 181.483 108.143C180.033 108.333 178.558 108.527 177.177 108.028C175.537 109.62 166.071 106.755 163.704 106.01C163.087 105.806 162.465 105.611 161.843 105.417C159.22 104.596 156.592 103.774 154.31 102.194C153.859 101.903 154.281 101.188 154.735 101.481C155.743 102.13 156.799 102.704 157.896 103.189C162.17 104.775 166.635 105.703 171.095 106.629C172.154 106.849 173.213 107.069 174.268 107.298C174.506 107.318 174.757 107.386 175.011 107.456C175.579 107.611 176.16 107.769 176.624 107.388C177.033 107.038 177.433 106.679 177.834 106.319C178.016 106.155 178.199 105.992 178.382 105.829C174.391 101.51 169.152 98.8153 163.175 98.4294C164.083 99.9634 162.288 100.268 161.114 100.276C160.035 100.396 158.957 100.53 157.88 100.663C156.649 100.816 155.417 100.969 154.182 101.101C154.306 102.466 152.945 103.109 151.817 103.444C149.947 104.136 148.078 104.827 146.208 105.518C144.971 106.066 143.515 106.433 142.307 105.616C142.19 105.677 142.072 105.741 141.953 105.806C141.205 106.212 140.396 106.652 139.542 106.384C139.753 109.165 139.752 111.953 139.706 114.739C139.702 115.108 139.387 115.436 139.005 115.429C136.956 115.394 134.907 115.242 132.881 114.93C133.437 116.097 134.403 116.967 135.35 117.823C135.636 118.08 135.92 118.336 136.191 118.599C136.362 118.774 136.558 118.938 136.755 119.102C137.198 119.471 137.647 119.845 137.839 120.374C145.452 122.292 153.045 124.99 159.584 129.342C162.545 131.357 161.483 134.742 160.24 137.439C158.972 140.622 157.674 143.792 156.345 146.951C163.622 142.668 171.06 138.65 178.495 134.634C181.077 133.239 183.659 131.844 186.234 130.438C185.162 130.231 184.655 129.125 184.516 128.157ZM153.385 154.033C153.411 154.019 153.437 154.005 153.463 153.991C153.408 154.006 153.353 154.021 153.3 154.037L153.276 154.091C153.312 154.072 153.348 154.052 153.385 154.033ZM189.293 133.639C189.237 133.322 189.182 133.003 189.118 132.686C188.977 132 188.847 131.237 189.052 130.547C188.339 130.389 187.634 130.3 186.908 130.474C182.362 133.621 177.483 136.268 172.612 138.91C170.923 139.826 169.236 140.742 167.563 141.677C166.84 142.081 166.116 142.484 165.392 142.886C162.236 144.64 159.08 146.395 155.988 148.256C155.283 149.181 154.836 150.342 154.39 151.503C154.095 152.272 153.8 153.04 153.43 153.739C153.536 153.696 153.643 153.654 153.75 153.612C156.176 152.651 158.626 151.681 160.846 150.313C161.094 150.262 161.714 149.881 162.384 149.471C163.406 148.845 164.541 148.149 164.633 148.452C170.492 145.567 176.259 142.511 181.977 139.364C183.169 138.71 184.359 138.051 185.545 137.385C185.852 137.252 186.305 136.968 186.805 136.654C187.838 136.006 189.072 135.231 189.655 135.396C189.497 134.815 189.395 134.228 189.293 133.639ZM143.219 197.49C143.314 197.478 143.408 197.467 143.503 197.456L143.456 197.428C143.376 197.447 143.297 197.468 143.219 197.49ZM143.11 196.275C143.125 196.214 143.152 196.156 143.191 196.103C154.894 181.9 168.572 169.406 182.203 156.954C185.858 153.616 189.509 150.281 193.118 146.917C192.924 146.33 192.729 145.744 192.533 145.158C191.549 142.208 190.564 139.257 189.864 136.228C179.92 142.372 169.278 147.532 158.62 152.402C161.714 155.193 160.242 159.593 158.347 162.634C156.588 165.785 154.81 168.925 153.031 172.065C152.17 173.586 151.309 175.106 150.45 176.628C148.287 180.214 146.353 183.917 144.418 187.62C143.611 189.164 142.804 190.709 141.98 192.245C141.882 192.393 141.784 192.561 141.682 192.736C141.248 193.48 140.741 194.349 139.842 194.291C140.558 194.889 141.392 194.984 142.295 194.801C142.653 194.76 142.72 195.336 142.379 195.411C142.205 195.449 142.03 195.484 141.855 195.518C142.273 195.77 142.691 196.022 143.11 196.275ZM190.096 123.339C189.982 122.752 189.867 122.164 189.753 121.577C189.592 120.752 189.432 119.927 189.271 119.101C188.892 117.158 188.514 115.216 188.138 113.273C187.958 113.638 187.774 114.003 187.589 114.368C186.424 116.672 185.256 118.983 185.283 121.63C185.231 123.449 185.464 125.274 185.722 127.072C185.736 127.173 185.749 127.283 185.762 127.399C185.822 127.936 185.895 128.589 186.251 128.955C186.585 129.195 186.993 129.12 187.41 129.044C187.746 128.983 188.088 128.92 188.402 129.02C188.493 129.036 188.59 129.065 188.691 129.095C188.94 129.17 189.205 129.25 189.426 129.137C189.995 128.713 190.202 128.029 190.405 127.357C190.496 127.057 190.586 126.759 190.708 126.488C190.505 125.438 190.301 124.389 190.096 123.339ZM191.31 129.043C191.3 129.027 191.29 129.01 191.281 128.993C191.265 129.025 191.249 129.057 191.233 129.088C191.213 129.127 191.192 129.166 191.171 129.205C191.231 129.172 191.293 129.143 191.356 129.116C191.34 129.092 191.325 129.068 191.31 129.043ZM195.038 131.099C195.022 131.015 195.008 130.931 194.995 130.846C194.975 130.836 194.955 130.825 194.937 130.813C194.931 130.809 194.925 130.805 194.919 130.8C194.959 130.9 194.998 131 195.038 131.099ZM221.78 134.066C214.016 135.496 205.776 133.897 198.318 131.637C197.388 131.33 196.465 130.995 195.562 130.617C196.594 134.621 197.823 138.576 199.052 142.532C200.018 145.644 200.984 148.756 201.856 151.892C202.341 152.11 202.42 152.841 202.078 153.207C203.138 153.477 203.731 154.507 204.284 155.47C204.461 155.777 204.633 156.077 204.816 156.343C211.835 150.059 218.587 143.039 221.78 134.066ZM223.948 96.8115C224.051 96.5082 223.564 96.3781 223.462 96.6797C221.224 104.031 219.328 111.508 217.683 119.007C217.37 120.041 218.202 119.986 218.129 119.462C219.688 111.839 221.757 104.284 223.948 96.8115ZM19.1337 158.283C19.317 158.469 19.5414 158.611 19.8179 158.681C19.9238 158.708 20.0314 158.725 20.1407 158.735C19.8954 158.663 19.6609 158.477 19.5103 158.24C19.3884 158.275 19.2598 158.289 19.1337 158.283ZM17.8714 153.561C17.8823 153.396 17.8974 153.231 17.9159 153.066C17.9238 152.998 17.9307 152.924 17.938 152.848C17.9712 152.498 18.0104 152.085 18.1656 151.793C17.968 151.869 17.7714 151.947 17.5738 152.028C17.694 152.534 17.7865 153.047 17.8714 153.561Z" fill="black"/>
<path fill-rule="evenodd" clip-rule="evenodd" d="M137.166 15.7283C131.761 11.3416 123.1 9.91732 117.314 14.3429C112.819 18.4963 110.958 30.2987 111.754 36.2294C111.975 40.0333 114.885 44.3448 119.158 43.1417C119.883 43.0704 120.587 42.7927 121.32 42.7345C122.195 42.6339 123.078 42.6321 123.952 42.7555C125.856 43.0245 127.545 44.0342 129.393 44.5063C132.823 45.3822 136.65 44.793 139.603 42.82C149.36 36.4145 144.94 21.9279 137.166 15.7283Z" fill="white"/>
<path fill-rule="evenodd" clip-rule="evenodd" d="M136.446 44.6137C136.546 44.5792 136.646 44.5431 136.746 44.5062C136.752 44.5292 136.763 44.5513 136.775 44.5727C136.789 44.6071 136.803 44.6407 136.819 44.6743C136.694 44.6753 136.569 44.653 136.446 44.6137ZM136.245 2.10431C136.201 2.0051 136.15 1.90991 136.092 1.81792C136.232 1.86313 136.372 1.9255 136.499 2.00592C136.413 2.03464 136.329 2.06746 136.245 2.10431ZM114.896 15.0834C114.89 15.0824 114.885 15.0816 114.879 15.0806C114.952 14.8857 115.083 14.7018 115.227 14.5689C115.253 14.545 115.281 14.523 115.308 14.5001C115.155 14.6822 115.016 14.8765 114.896 15.0834ZM153.96 35.4632C153.887 34.7789 153.795 34.097 153.676 33.4191C153.562 32.7701 153.466 32.0759 153.135 31.4998C152.806 30.9262 152.476 30.3689 152.085 29.8643C152.141 29.6067 152.215 29.3646 152.279 29.1693C152.649 28.0451 153.013 26.6172 152.245 25.5726C152.066 25.3305 151.849 25.145 151.599 24.9776C151.493 24.9062 151.318 24.8414 151.236 24.7429C151.179 24.6732 151.199 24.7109 151.196 24.6765C151.182 24.491 151.618 24.0996 151.719 23.9527C151.91 23.681 152.052 23.375 152.161 23.0623C152.59 21.8249 152.298 20.4618 152.04 19.2218C151.904 18.5646 151.753 17.9057 151.704 17.2344C151.658 16.6042 151.744 15.9887 151.795 15.3618C151.844 14.743 151.831 14.1046 151.566 13.5318C151.436 13.2528 151.24 13.0066 151 12.8146C150.767 12.6267 150.476 12.5176 150.249 12.3305C150.022 12.1441 150.087 11.8923 150.146 11.6346C150.227 11.285 150.33 10.9379 150.34 10.5768C150.358 9.94744 150.101 9.33437 149.699 8.8585C149.285 8.36695 148.693 8.03453 148.053 7.95985C147.761 7.92539 147.473 7.98373 147.182 7.96322C146.895 7.94352 146.832 7.79992 146.778 7.53732C146.653 6.93582 146.704 6.3417 146.408 5.78041C146.145 5.28148 145.677 4.94331 145.16 4.74399C144.213 4.378 143.111 4.45349 142.111 4.66923C141.521 2.93619 139.68 1.79966 137.868 1.78571C137.585 1.30647 137.106 0.948689 136.559 0.738532C135.655 0.389775 134.698 0.593367 133.756 0.593367H133.752C133.658 0.587541 133.563 0.585161 133.469 0.585982C133.38 0.580976 133.291 0.57359 133.202 0.563825C132.131 0.43737 131.071 -0.000832781 130.009 0.428425C129.535 0.619626 129.159 0.914223 128.921 1.29006C128.562 1.38763 128.207 1.49931 127.86 1.62897C126.354 1.66828 124.861 2.47493 124.099 3.78224C123.027 3.66079 121.863 3.86676 121.154 4.74152C120.969 4.96916 120.826 5.23659 120.731 5.52052C120.008 5.75407 119.339 6.1702 118.901 6.79697C118.502 7.36894 118.425 8.10846 118.695 8.72244C118.049 9.18945 117.545 9.85799 117.302 10.6474C117.154 11.1271 117.132 11.6226 117.227 12.0947C116.566 12.2411 115.934 12.5125 115.374 12.9198C114.787 13.3464 114.054 14.0254 114.015 14.807C114.012 14.8643 114.015 14.9217 114.019 14.9789C112.727 14.8882 111.409 15.1068 110.536 16.1414C109.88 16.9176 109.595 17.9172 109.77 18.8272C108.232 19.139 106.779 19.9416 105.765 21.1282C105.028 21.9906 104.373 23.087 104.412 24.2612C104.424 24.6149 104.507 24.9711 104.651 25.3001V25.3009C104.59 25.4167 104.526 25.5455 104.465 25.6825C103.513 26.348 102.821 27.391 102.431 28.5407C102.117 29.472 101.919 30.6817 102.255 31.6295C102.306 31.7739 102.371 31.9101 102.446 32.0364C102.383 32.1038 102.323 32.1711 102.265 32.2392C101.623 32.9883 100.973 33.932 101.017 34.9635C101.035 35.3788 101.19 35.7965 101.442 36.1394C100.554 37.0381 99.8396 38.1721 99.9102 39.4383C99.971 40.5404 100.577 41.6597 101.526 42.189C101.367 43.0383 101.579 43.9344 102.242 44.5975C102.572 44.929 102.961 45.1473 103.374 45.2638C103.466 46.2641 104.355 47.0691 105.299 47.3005C105.475 47.344 105.651 47.3703 105.826 47.3825C106.676 47.7986 107.689 47.751 108.556 47.3694C108.812 47.6936 109.145 47.9578 109.532 48.1474C109.689 48.2245 109.855 48.2886 110.029 48.3402C111.253 48.7021 112.509 48.2114 113.58 47.6386C113.614 47.6206 113.678 47.5976 113.733 47.5722C113.881 47.7371 114.151 47.9004 114.291 47.9808C114.768 48.2541 115.351 48.3812 115.898 48.3452C116.54 48.3025 117.106 48.0908 117.63 47.7896C117.707 47.8027 117.784 47.8101 117.861 47.8142C118.354 47.8404 118.794 47.6846 119.189 47.4384C119.451 47.4729 119.718 47.4696 119.99 47.422C120.587 47.5737 121.169 47.3325 121.636 46.9493C121.844 46.7795 122.019 46.58 122.206 46.3897C122.401 46.1918 122.549 46.146 122.776 46.013C123.315 45.6987 123.379 44.9019 123.146 44.3258C123.19 44.2249 123.216 44.1125 123.216 43.9878C123.214 42.8996 122.712 41.9018 122.096 41.0311C121.821 40.643 121.522 40.263 121.194 39.9184C120.93 39.6418 120.559 39.193 120.169 39.0805C120.145 39.0633 120.12 39.046 120.096 39.0297C120.171 38.7654 120.216 38.4963 120.197 38.2214C120.177 37.939 120.086 37.6715 119.94 37.4434C120.43 36.494 120.637 35.4527 120.539 34.3662C120.938 33.8007 121.24 33.1763 121.397 32.4919C121.493 32.0685 121.548 31.6229 121.54 31.1887C121.537 30.9804 121.461 30.7169 121.459 30.5011C121.471 30.5692 121.559 30.3148 121.594 30.2516C121.99 29.5172 122.499 28.9444 122.583 28.0787C122.632 27.5723 122.513 27.0127 122.208 26.5975C122.403 25.8311 122.401 25.0079 122.094 24.2768C122.012 24.0815 121.918 23.8903 121.809 23.709C121.859 23.5563 121.905 23.4021 121.964 23.2633C121.987 23.2083 122.01 23.1526 122.033 23.0968C122.256 22.9006 122.463 22.6865 122.637 22.4763C123.024 22.0111 123.319 21.4778 123.356 20.863C123.374 20.5553 123.301 20.2607 123.212 19.9687C123.172 19.8365 123.149 19.6897 123.102 19.5608C123.076 19.4893 123.012 19.4164 122.99 19.3491C122.985 19.3343 122.981 19.322 122.978 19.3122C122.981 19.3023 122.983 19.2818 122.983 19.2432C122.984 18.9486 123.023 18.6605 123.025 18.3767C123.295 18.6491 123.62 18.8526 123.99 18.9716C124.735 19.2104 125.513 19.1021 126.173 18.7337C126.883 19.2195 127.681 19.6592 128.517 19.8357C129.014 19.9407 129.513 19.8973 130.011 19.9621C130.507 20.0269 130.986 20.2427 131.453 20.411C132.491 20.786 133.528 21.1708 134.57 21.536C135.411 21.8306 136.322 22.0645 137.203 21.8987C137.45 22.2794 137.771 22.6012 138.183 22.8375C138.478 23.0057 138.802 23.1197 139.136 23.1764C139.432 23.2265 139.779 23.2068 140.019 23.4095C140.253 23.6064 140.399 23.9001 140.61 24.1217C140.844 24.3696 141.133 24.5846 141.436 24.7388C141.68 24.8627 141.928 24.9521 142.18 25.0105C142.158 25.5709 142.137 26.1306 142.13 26.6919C142.118 27.9113 142.123 29.1306 142.106 30.3501C142.09 31.5654 142.051 32.7808 141.987 33.9944C141.926 35.1334 141.841 36.2765 141.569 37.3876C140.666 41.0746 137.286 43.7145 133.503 43.8491C132.38 43.8893 131.268 43.7317 130.194 43.4018C129.081 43.0597 128.087 42.3555 126.947 42.1389C126.649 42.0831 126.367 42.3827 126.538 42.6706C126.833 43.1655 127.19 43.4675 127.679 43.7653C128.191 44.0764 128.761 44.307 129.324 44.5088C130.36 44.8797 131.455 45.0948 132.554 45.1547C133.392 45.2005 134.234 45.1432 135.055 44.9856C135.112 45.162 135.214 45.3336 135.291 45.4969C135.303 45.5207 135.341 45.5042 135.334 45.4796C135.322 45.4386 135.313 45.4025 135.31 45.3729C135.586 45.7324 136.013 45.9809 136.451 46.1016C136.76 46.187 137.088 46.2132 137.406 46.1771C137.508 46.1656 137.606 46.1484 137.703 46.1271C138.027 46.4102 138.441 46.5989 138.857 46.6933C138.786 47.1266 139 47.5992 139.497 47.7223C139.706 47.774 139.906 47.7749 140.107 47.756C140.269 47.8315 140.443 47.8906 140.628 47.9308C140.869 47.9833 141.156 47.9159 141.338 47.742C141.437 47.8118 141.53 47.8602 141.622 47.9709C142.001 48.4272 142.818 48.0637 142.854 47.5361C142.974 47.5361 143.095 47.5377 143.216 47.5418C143.244 47.5549 143.273 47.5681 143.303 47.582C143.831 47.8273 144.378 48.0415 144.963 47.8487C145.07 47.8133 145.169 47.7683 145.259 47.7158C145.67 47.7527 146.076 47.7535 146.494 47.6189C146.74 47.5393 146.972 47.413 147.165 47.2472C147.809 47.4359 148.489 47.5213 149.13 47.2873C149.61 47.1126 149.996 46.8369 150.268 46.4733C150.684 46.4881 151.106 46.388 151.487 46.1903C152.138 45.8538 152.594 45.2145 152.912 44.5737C153.612 43.1598 154.026 41.6408 154.189 40.0743C154.349 38.5316 154.121 36.997 153.96 35.4632Z" fill="black"/>
<path fill-rule="evenodd" clip-rule="evenodd" d="M129.682 34.2553C131.091 34.0846 132.457 34.5153 133.834 34.7324C134.561 34.8469 135.289 34.9324 136.025 34.9643C136.173 34.9707 136.321 34.9745 136.469 34.9775C136.483 34.8473 136.556 34.7278 136.714 34.6562C137.038 34.5095 137.297 34.4433 137.653 34.4575C137.979 34.4703 138.306 34.5038 138.626 34.5624C139.209 34.669 139.794 34.9109 140.22 35.3313C141.206 36.304 141.055 37.8663 140.294 38.9258C138.72 41.1149 135.847 41.2165 133.387 41.188L133.16 41.185C130.92 41.153 127.715 41.4866 126.697 38.9415C126.323 38.0057 126.375 36.9209 126.833 36.0233C127.38 34.9526 128.53 34.395 129.682 34.2553ZM136.68 37.9002L136.66 37.901C135.627 37.9408 134.594 37.9687 133.561 37.987C133.592 38.252 133.623 38.5171 133.659 38.7815C133.688 38.9896 133.718 39.1974 133.75 39.405C133.763 39.4929 133.812 39.6294 133.798 39.7165L133.793 39.7509C133.846 39.7749 133.894 39.8134 133.93 39.8695C133.943 39.8888 133.952 39.9084 133.961 39.9278C134.763 39.9341 135.626 39.9186 136.444 39.773L136.446 39.7552C136.461 39.6509 136.504 39.5807 136.562 39.5325C136.619 39.1998 136.614 38.8453 136.636 38.5152C136.65 38.3101 136.665 38.1052 136.68 37.9002ZM132.772 38.0014C132.027 38.014 131.282 38.0238 130.538 38.0147L130.2 38.0095C130.272 38.3917 130.349 38.7727 130.414 39.1575C130.481 39.5585 130.128 39.8135 129.822 39.8032C129.856 39.8088 129.89 39.8146 129.925 39.8194C130.881 39.9544 131.873 39.9186 132.843 39.9176C132.791 39.6134 132.812 39.2702 132.804 39.0163L132.803 38.9769C132.788 38.6516 132.778 38.3265 132.772 38.0014ZM127.715 37.9307C127.741 38.1295 127.791 38.324 127.866 38.5051C128.184 39.2703 128.913 39.6273 129.683 39.7777C129.55 39.7316 129.444 39.6208 129.417 39.431C129.35 38.9592 129.326 38.4794 129.324 38.0003C128.787 37.9953 128.246 37.9839 127.715 37.9307ZM139.481 37.7683C139.099 37.8584 138.654 37.8171 138.279 37.8341C137.928 37.85 137.576 37.8639 137.224 37.8781C137.241 38.1178 137.257 38.3574 137.275 38.5969C137.297 38.9064 137.299 39.2336 137.359 39.5418C138.066 39.3007 138.7 38.914 139.176 38.2957C139.294 38.1417 139.4 37.9609 139.481 37.7683ZM129.521 35.5112C128.884 35.6617 128.282 35.9797 127.958 36.5615C127.766 36.9067 127.681 37.3158 127.697 37.719C128.235 37.6565 128.783 37.6327 129.327 37.6131C129.329 37.5152 129.332 37.4173 129.334 37.3197L129.343 37.0694C129.358 36.5921 129.365 35.9928 129.521 35.5112ZM132.816 35.5695L132.536 35.538C131.757 35.4495 130.979 35.3565 130.201 35.4098C130.088 35.4176 129.974 35.4298 129.859 35.4466C129.997 35.9424 129.985 36.5247 130.043 37.0156C130.065 37.2054 130.093 37.3936 130.124 37.5811L130.259 37.5748C131.094 37.5296 131.931 37.5017 132.767 37.4686C132.767 37.3119 132.767 37.1551 132.77 36.9982L132.773 36.8413C132.783 36.4405 132.757 35.9891 132.816 35.5695ZM136.725 35.5054C135.91 35.6368 135.067 35.6648 134.267 35.6658C133.947 35.6662 133.627 35.6466 133.307 35.6183C133.328 35.7882 133.339 35.9601 133.355 36.1276C133.386 36.4662 133.422 36.8042 133.462 37.142L133.497 37.4375C134.524 37.3909 135.552 37.3407 136.579 37.2886L136.724 37.2808L136.764 36.7129C136.792 36.3342 136.823 35.9555 136.866 35.5785L136.833 35.5669C136.795 35.5514 136.76 35.53 136.725 35.5054ZM137.079 35.6468C137.124 36.1823 137.149 36.72 137.182 37.2563L137.86 37.2202C137.972 37.2141 138.085 37.2078 138.198 37.2013C138.637 37.176 139.201 37.0433 139.635 37.1671C139.668 36.7733 139.555 36.3895 139.199 36.125C138.574 35.6602 137.779 35.8257 137.079 35.6468ZM134.766 30.8599C135.774 30.2832 138.304 29.6937 138.465 31.506C138.538 32.34 137.918 33.031 137.192 33.3394L137.165 33.3507C136.485 33.6299 135.28 33.9452 134.691 33.3398C134.202 32.836 134.851 31.9326 135.46 32.3453C135.773 32.5574 136.431 32.4011 136.78 32.3002L136.802 32.2939C137.178 32.1833 137.681 31.8296 137.525 31.3665C137.387 30.9569 136.801 30.882 136.433 30.8687C135.885 30.8491 135.352 30.9762 134.808 31.0176C134.722 31.0242 134.696 30.8998 134.766 30.8599ZM138.943 27.946C140.312 27.882 141.163 29.3744 140.848 30.5972C140.794 30.8082 140.558 31.0153 140.33 30.9916L140.272 30.9863C140.243 30.9835 140.214 30.9798 140.187 30.9724C139.97 30.9125 139.776 30.6874 139.792 30.4542L139.796 30.3863C139.828 29.8086 139.765 29.1431 139.077 29.0032C138.494 28.8846 138.169 29.445 138.162 29.9608C138.161 30.0524 138.058 30.1163 137.977 30.0671C137.555 29.811 137.482 29.3014 137.643 28.8627C137.847 28.3067 138.358 27.9734 138.943 27.946ZM128.786 28.2653C129.782 27.9335 130.856 28.4637 131.339 29.343C131.508 29.392 131.677 29.5222 131.653 29.7216C131.619 30.0085 131.568 30.1893 131.369 30.4069C131.058 30.7472 130.474 30.5732 130.345 30.1543L130.339 30.1353C130.192 29.5938 129.595 29.2365 129.051 29.4261C128.416 29.6475 128.434 30.3174 127.989 30.7077C127.936 30.7536 127.874 30.7609 127.811 30.7306C127.338 30.5022 127.423 29.8149 127.591 29.4215C127.813 28.9053 128.243 28.4461 128.786 28.2653ZM127.429 25.2451C128.236 24.4227 130.341 23.6269 130.893 25.1456C130.998 25.4349 130.774 25.8249 130.473 25.8849C129.979 25.983 129.541 25.7689 129.05 25.8073C128.653 25.8386 128.239 25.9711 127.921 26.2168C127.042 26.8973 126.848 28.0482 126.235 28.9142C126.206 28.9564 126.148 28.9387 126.142 28.8889C126.003 27.6281 126.545 26.1458 127.429 25.2451ZM137.956 24.4356C138.491 24.2467 139.098 24.2628 139.636 24.4304C140.179 24.5993 140.677 24.92 141.06 25.339C141.234 25.5292 141.395 25.7391 141.524 25.9626C141.593 26.081 141.665 26.3256 141.743 26.4712C142.165 26.7145 142.346 27.2688 141.968 27.6632L141.951 27.6805L141.9 27.7305C141.697 27.9313 141.391 28.0183 141.114 27.9381C140.493 27.7589 140.418 27.271 140.203 26.7532C140.062 26.4112 139.819 26.1085 139.524 25.8862C138.828 25.3611 137.686 25.1937 136.848 25.4412C136.803 25.4544 136.751 25.3977 136.782 25.3565C136.941 25.151 137.033 24.9823 137.245 24.8166C137.461 24.6484 137.697 24.5268 137.956 24.4356Z" fill="black"/>
</svg>
