<?xml version="1.0" encoding="UTF-8" standalone="no"?>
<svg
   xmlns:dc="http://purl.org/dc/elements/1.1/"
   xmlns:cc="http://creativecommons.org/ns#"
   xmlns:rdf="http://www.w3.org/1999/02/22-rdf-syntax-ns#"
   xmlns:svg="http://www.w3.org/2000/svg"
   xmlns="http://www.w3.org/2000/svg"
   xmlns:sodipodi="http://sodipodi.sourceforge.net/DTD/sodipodi-0.dtd"
   xmlns:inkscape="http://www.inkscape.org/namespaces/inkscape"
   width="565"
   height="628"
   viewBox="0 0 565 628"
   version="1.1"
   id="svg12"
   sodipodi:docname="jumbo.svg"
   style="fill:none"
   inkscape:version="0.92.4 (5da689c313, 2019-01-14)">
  <metadata
     id="metadata18">
    <rdf:RDF>
      <cc:Work
         rdf:about="">
        <dc:format>image/svg+xml</dc:format>
        <dc:type
           rdf:resource="http://purl.org/dc/dcmitype/StillImage" />
      </cc:Work>
    </rdf:RDF>
  </metadata>
  <defs
     id="defs16" />
  <sodipodi:namedview
     pagecolor="#ffffff"
     bordercolor="#666666"
     borderopacity="1"
     objecttolerance="10"
     gridtolerance="10"
     guidetolerance="10"
     inkscape:pageopacity="0"
     inkscape:pageshadow="2"
     inkscape:window-width="3440"
     inkscape:window-height="1377"
     id="namedview14"
     showgrid="false"
     inkscape:zoom="1.0925926"
     inkscape:cx="296.06845"
     inkscape:cy="485.16319"
     inkscape:window-x="-8"
     inkscape:window-y="-8"
     inkscape:window-maximized="1"
     inkscape:current-layer="svg12" />
  <path
     d="m 16.0097,347.72542 c 8.0448,0.791 16.0895,1.58 24.1343,2.37 38.5284,2.945 77.042,9.095 115.275,12.786 0.952,-1.55 2.815,-1.295 3.947,-0.218 3.815,-0.334 8.091,-3.251 11.547,-0.217 0.112,-0.016 0.224,-0.034 0.337,-0.045 6.154,-11.815 10.407,-24.416 14.535,-37.035 2.635,-7.758 6.18,-15.268 12.731,-20.477 11.179,-7.763 36.795,-23.506 49.923,-22.845 0.217,-2.351 1.313,-4.774 3.112,-6.34 -3.965,-6.763 11.889,-11.175 13.008,-10.391 -0.717,-22.594 9.907,-42.215 33.332,-46.714 20.986,-4.375 50.835,-5.11 62.122,16.831 1.241,-0.14 13.923,-0.206 15.15,-0.069 1.908,-2.417 22.86,20.489 14.273,28.463 76.773,33.975 120.427,29.921 141.676,125.434 2.873,8.973 3.082,18.791 6.116,27.564 10.792,25.21 19.546,52.055 21.724,79.487 5.262,1.348 5.867,10.629 -0.228,11.972 -2.328,0.513 -4.275,1.214 -5.972,2.544 1.327,22.479 -4.108,73.831 -7.532,73.673 -6.982,22.23 -38.127,28.504 -60.176,20.692 3.801,7.154 0,11.652 0,15.474 -79.339,3.003 -166.089,1.273 -245.406,5.392 -10.146,-0.145 -20.817,2.493 -30.825,0.975 -6.103,-1.464 -6.113,-11.064 0.078,-12.251 l -27.05,-5.877 c 0.605,-0.228 -11.15,-8.05 -20.034,-22.666 -8.269,-16.35 -2.641,-36.086 -6.388,-53.871 -29.264,-2.394 -59.0126,-3.418 -87.9568,-8.376 -3.9465,11.813 -21.0302,-2.314 -26.4605,-7.997 0.0068,-0.009 0.0135,-0.018 0.0203,-0.027 -2.628,-0.719 -4.7355,-3.183 -4.8059,-6.1 -1.843,-2.634 -2.2299,-6.347 -0.4625,-8.893 -8.1006,-46.761 -20.4499,-94.505 -24.9136,-141.705 -1.57793,-0.35 -3.06393,-1.042 -4.3238,-2.108 l 0.1021,-0.102 c -2.13455,-2.381 -2.54964,-6.49 1.00888,-8.513 2.8705,-1.633 5.26732,-1.126 8.38252,-0.82 z"
     id="path2"
     inkscape:connector-curvature="0"
     style="clip-rule:evenodd;fill:#ffffff;fill-rule:evenodd" />
  <path
     d="m 358.551,230.33342 c -2.39,-6.01 -10.471,-3.674 -9.57,2.639 0.539,3.782 2.609,7.776 4.469,11.091 1.514,2.698 3.242,5.331 5.584,7.353 -4.169,3.891 -8.497,7.641 -12.934,11.2 -4.841,3.884 -9.933,7.464 -15.195,10.754 -4.615,2.886 -9.438,5.442 -13.788,8.735 -4.044,3.061 -7.729,6.742 -9.604,11.548 -1.997,5.118 -1.129,10.403 0.342,15.517 l 0.169,0.578 c 1.502,5.067 4.103,11.175 0.497,15.949 -1.837,2.43 -4.506,4.151 -6.811,6.094 -2.048,1.727 -3.971,3.605 -5.734,5.622 -3.845,4.397 -6.973,9.345 -8.946,14.858 l -0.177,0.501 c -1.691,4.88 -2.927,10.859 -0.642,15.651 0.656,1.373 2.771,0.927 3.138,-0.411 0.831,-3.03 0.787,-6.203 1.484,-9.275 0.724,-3.196 1.93,-6.229 3.504,-9.099 3.047,-5.552 7.173,-10.294 12.048,-14.304 l 1.459,-1.187 c 3.803,-3.122 7.297,-6.434 8.069,-11.601 0.826,-5.529 -1.388,-10.795 -2.812,-16.028 -0.992,-3.646 -1.316,-7.141 -0.244,-10.437 1.31,2.139 3.097,4.169 4.511,5.98 2.815,3.608 5.657,7.193 8.491,10.786 2.906,3.683 5.74,7.425 8.44,11.264 1.207,1.717 2.401,3.444 3.592,5.174 0.895,1.299 2.143,2.598 3.119,3.923 -0.237,0.709 -0.219,1.527 0.211,2.107 5.174,6.994 12.536,-7.6 14.456,-11.287 3.91,-7.508 6.82,-15.486 10.743,-22.993 4.064,-7.782 8.693,-15.357 13.852,-22.462 3.121,-4.297 6.618,-8.334 9.473,-12.767 6.725,6.1 15.574,10.19 23.703,13.898 8.931,4.074 18.209,7.402 27.366,10.936 l 2.705,1.051 c 15.777,6.16 31.94,12.927 45.054,23.869 15.41,12.857 24.527,30.777 31.314,49.335 7.813,21.363 14.276,43.303 20.302,65.228 3.083,11.219 6.009,22.488 8.759,33.793 2.424,9.96 4.433,20.02 7.238,29.877 -5.69,-0.201 -12.179,2.002 -17.037,2.639 -22.141,2.899 -43.983,7.52 -64.886,15.522 -2.582,0.988 -3.329,3.568 -2.767,5.659 -1.489,-0.421 -2.977,-0.847 -4.466,-1.265 1.632,-2.5 0.853,-6.971 0.725,-9.743 l -0.008,-0.19 c -0.132,-3.694 -0.532,-7.391 -0.792,-11.077 -0.495,-7.028 -1.139,-14.004 -1.995,-20.991 l -0.218,-1.747 c -0.97,-7.602 -1.687,-15.248 -2.746,-22.837 l -0.125,-0.869 c 0.508,-1.941 1.099,-3.859 1.719,-5.769 1.653,-5.086 3.986,-9.874 6.03,-14.801 0.241,-0.579 -0.585,-0.913 -0.97,-0.565 -3.463,3.116 -6.213,7.069 -8.423,11.204 -0.038,-0.195 -0.072,-0.391 -0.112,-0.586 l -0.252,-1.241 c -0.622,-3.028 -1.378,-6.213 -3.235,-8.669 -0.198,-0.261 -0.589,-0.316 -0.776,0 -1.777,3.008 -1.975,6.817 -2.249,10.24 -0.309,3.872 -0.348,7.793 -0.293,11.676 0.106,7.587 0.641,15.197 1.067,22.772 0.418,7.444 1.238,14.794 2.296,22.165 l 0.201,1.382 c 0.517,3.509 0.94,7.061 1.622,10.545 l 0.192,0.949 c 0.365,1.728 0.589,4.164 1.315,6.188 -18.669,-5.209 -37.368,-10.3 -56.101,-15.301 -13.54,-3.615 -27.094,-7.175 -40.642,-10.759 -0.715,-1.289 -1.605,-2.493 -2.716,-3.568 -3.66,-3.547 -8.511,-5.129 -12.96,-2.399 -0.362,0.222 -0.392,0.789 0,1.004 0.853,0.466 1.707,0.944 2.546,1.442 l -8.136,-2.204 c -6.08,-1.648 -12.233,-3.708 -18.457,-4.857 -11.463,-5.66 -23.792,-9.756 -35.868,-13.804 l -1.423,-0.482 c -6.183,-2.108 -12.578,-4.469 -18.966,-5.638 -4.677,-0.856 -10.166,0.177 -12.047,4.97 -2.381,1.569 -4.621,3.414 -6.782,5.228 -1.563,1.311 -3.061,2.705 -4.585,4.062 l -0.28,0.247 c -1.246,1.081 -2.232,1.805 -2.538,3.525 -0.158,0.889 0.407,2.091 1.502,1.973 3.353,-0.359 6.079,-4.247 8.353,-6.568 1.757,-1.795 3.527,-3.65 5.131,-5.622 0.934,0.509 2.216,0.417 2.81,-0.71 3.086,-5.844 11.537,-1.794 16.213,-0.409 l 6.698,1.984 c 3.349,0.993 6.697,1.991 10.039,3.007 9.186,2.79 18.326,5.913 27.595,8.476 -0.83,0.911 -0.715,2.533 0.86,3.151 7.255,2.847 15.215,4.32 22.752,6.274 4.759,1.235 9.515,2.477 14.269,3.727 0.816,1.321 1.402,2.815 1.649,4.555 0.907,6.397 -0.843,13.778 -2.547,19.966 l -0.257,0.923 c -1.401,4.974 -3.463,11.072 -7.753,14.213 -1.047,0.766 -2.381,1.3 -3.725,1.42 -8.398,-4.324 -16.796,-8.648 -25.199,-12.964 -1.556,-0.8 -2.995,0.283 -3.344,1.57 -2.963,-0.487 -5.919,-1.253 -8.611,-2.167 -4.524,-1.537 -8.057,-4.468 -12.298,-6.496 -8.206,-3.921 -16.586,0.896 -23.934,4.558 l -1.693,0.833 c -3.295,1.599 -10.149,4.671 -11.73,0.297 -1.529,-4.231 3.305,-8.754 6.427,-10.658 3.722,-2.271 8.055,-3.486 12.262,-4.498 2.401,-0.578 4.832,-1.05 7.278,-1.395 2.774,-0.39 5.639,-0.331 8.31,-1.232 1.328,-0.446 1.532,-2.555 0,-2.903 -4.111,-0.936 -9.019,0.085 -13.309,1.128 l -2.243,0.553 c -4.323,1.061 -8.687,2.393 -12.625,4.51 -2.863,1.54 -5.885,3.879 -7.859,6.742 -1.714,-1.593 -3.848,-1.539 -6.07,-0.949 l -1.207,0.336 c -1.992,0.552 -3.606,0.932 -5.545,0.55 -0.259,-1.411 -0.521,-2.822 -0.803,-4.234 -2.762,-13.872 -5.791,-27.692 -9.134,-41.437 -5.765,-23.71 -12.437,-47.159 -19.958,-70.368 l -0.755,-2.32 c -1.735,-5.308 -3.131,-11.092 -5.927,-15.969 -2.645,-4.611 -6.883,-7.268 -11.918,-8.674 -5.714,-1.596 -11.718,-2.432 -17.546,-3.51 -1.301,-0.24 -2.604,-0.468 -3.906,-0.704 1.1,-1.987 1.921,-4.242 2.66,-5.972 l 0.13,-0.3 c 1.589,-3.623 3.016,-7.312 4.394,-11.02 l 1.03,-2.788 c 2.489,-6.713 5.057,-13.315 8.555,-19.594 3.682,-6.608 8.568,-12.01 14.657,-16.481 12.416,-9.117 27.381,-13.767 39.423,-23.51 0.494,-0.399 -0.139,-1.081 -0.64,-0.829 -8.131,4.087 -16.909,6.867 -25.367,10.194 l -1.668,0.659 c -6.685,2.651 -13.473,5.536 -19.259,9.829 -6.451,4.786 -11.532,10.729 -15.35,17.797 -3.764,6.968 -6.171,14.766 -8.826,22.208 l -0.71,1.983 c -1.071,2.973 -2.177,5.938 -3.445,8.831 -1.006,2.298 -2.884,4.92 -3.738,7.544 -2.335,-0.405 -4.669,-0.811 -7.007,-1.202 -50.629,-8.456 -101.8242,-13.425 -153.1329,-14.878 -2.007324,-0.057 -3.0456232,1.859 -2.749849,3.611 4.923949,29.127 9.299719,58.354 14.100849,87.504 2.0958,12.722 4.2333,25.434 6.4209,38.141 1.1081,6.437 2.3893,12.85 3.4388,19.297 0.8474,5.206 1.4626,10.454 2.9172,15.54 1.3048,4.56 3.307,8.957 6.5955,12.436 3.5448,3.75 8.4924,5.565 13.4727,6.423 12.6428,2.177 25.6107,3.066 38.356,4.516 l 67.8578,7.723 c -0.992,9.017 -1.066,17.893 -0.611,27.015 l 0.259,4.98 c 0.212,4.005 0.466,8.016 1.041,11.98 0.721,4.973 2.995,9.184 6.344,12.898 3.075,3.411 6.812,6.321 10.446,9.11 3.773,2.896 7.671,5.691 12.106,7.481 l 0.576,0.229 c 3.891,1.52 11.19,3.873 16.509,3.013 -0.695,3.485 -2.04,7.232 -0.848,10.68 0.553,1.601 2.646,2.399 3.929,1.037 2.54,-2.7 2.738,-6.266 3.34,-9.789 0.626,-3.666 1.166,-7.344 1.645,-11.032 0.927,-7.13 1.649,-14.325 1.869,-21.516 0.227,-7.384 0.14,-14.779 -0.258,-22.155 -0.205,-3.788 -0.458,-7.574 -0.939,-11.337 -0.205,-1.606 -0.414,-3.212 -0.654,-4.813 -0.087,-0.584 -0.184,-1.165 -0.288,-1.745 l 6.09,0.687 c 9.339,1.043 18.683,1.985 28.088,2.132 1.113,0.017 1.97,-0.491 2.53,-1.23 0.597,0.973 1.636,1.668 3.124,1.662 13.134,-0.049 25.365,-4.345 37.311,-9.408 6.021,-2.553 11.949,-5.317 17.979,-7.848 5.629,-2.363 11.647,-4.049 17.14,-6.71 l 14.433,7.574 c 0.106,0.372 0.242,0.724 0.386,1.019 0.94,1.919 2.793,2.96 4.685,3.744 1.817,0.754 3.698,0.989 5.531,0.798 10.946,5.739 21.895,11.472 32.852,17.192 l 10.959,5.715 c 21.834,11.373 43.582,22.932 65.554,34.038 l 1.618,0.814 c 7.589,3.807 15.738,7.666 24.16,10.546 0.15,2.132 0.055,4.206 -0.123,6.464 l -0.043,0.491 c -0.251,2.668 -0.79,6.01 1.349,7.909 1.113,0.988 3.101,0.991 3.857,-0.498 1.373,-2.7 0.141,-6.957 -0.294,-9.89 -0.155,-1.043 -0.343,-2.116 -0.621,-3.156 9.655,2.875 19.603,4.269 29.428,2.655 9.566,-1.571 16.975,-7.6 22.948,-14.974 6.304,-7.782 10.783,-16.851 13.187,-26.572 2.735,-11.062 2.913,-22.487 2.849,-33.818 -0.068,-12.066 -0.514,-24.192 -1.981,-36.177 1.607,-0.378 3.39,-0.705 5.014,-0.592 0.804,1.288 2.365,1.83 3.775,1.662 3.067,3.384 -4.712,6.841 -7.197,7.707 -0.863,0.301 -0.771,1.703 0.225,1.661 l 0.627,-0.03 c 3.84,-0.204 7.808,-0.86 10.067,-4.431 1.809,-2.862 1.266,-6.252 -0.892,-8.586 -1.424,-13.477 -4.831,-26.601 -8.001,-39.747 -3.111,-12.904 -6.57,-25.725 -10.237,-38.481 l -1.644,-5.709 c -5.774,-20.001 -11.809,-40.164 -19.773,-59.371 -3.977,-9.59 -8.559,-19.004 -14.769,-27.366 -5.789,-7.795 -12.623,-14.465 -20.479,-20.162 -14.645,-10.622 -31.829,-17.039 -48.714,-23.154 l -0.756,-0.273 c -8.749,-3.167 -17.478,-6.371 -26.128,-9.801 -7.65,-3.034 -14.979,-6.881 -22.593,-9.96 0.247,-0.449 0.486,-0.904 0.716,-1.363 l 0.141,0.118 c 0.024,0.02 0.048,0.038 0.074,0.056 0.766,0.53 1.893,0.269 2.524,-0.326 1.782,-1.682 1.178,-3.549 -0.011,-5.293 l -0.155,-0.222 c -1.454,-2.039 -2.752,-4.194 -4.094,-6.306 l -0.841,-1.321 c -2.253,-3.529 -4.622,-7.082 -7.626,-9.999 -1.392,-1.351 -2.915,-2.362 -4.529,-3.116 0.138,-0.292 -1.072,-0.889 -1.416,-0.588 -5.113,-1.872 -10.997,-1.48 -16.572,-0.964 m -200.915,307.134 7.11,0.809 c 7.822,0.89 15.647,1.751 23.473,2.604 l 16.998,1.848 c 0.044,0.969 0.161,1.917 0.183,2.649 0.111,3.775 0.194,7.551 0.272,11.326 0.157,7.568 -0.015,15.144 -0.513,22.697 -0.483,7.319 -1.119,14.639 -2.107,21.909 l -0.202,1.453 -0.117,0.764 c -0.806,0.078 -1.598,0.461 -2.257,1.249 -1.438,1.717 -6.644,0.047 -8.677,-0.676 -3.344,-1.191 -6.493,-3.202 -9.398,-5.218 -2.837,-1.969 -5.392,-4.265 -7.847,-6.684 l -2.009,-1.987 c -1.998,-1.987 -3.999,-4.103 -5.223,-6.602 -1.66,-3.388 -1.875,-7.547 -2.362,-11.238 -0.599,-4.539 -1.313,-9.078 -2.067,-13.594 m 201.141,-68.956 0.737,0.194 c 26.79,7.121 53.539,14.452 80.41,21.259 13.298,3.369 26.66,6.493 39.974,9.798 l 2.156,0.539 c 10.503,2.656 21.133,5.852 29.176,13.473 0.297,0.281 0.728,-0.15 0.449,-0.448 -8.669,-9.232 -20.998,-13.14 -32.836,-16.528 -2.188,-0.626 -4.379,-1.237 -6.568,-1.86 16.099,-5.742 32.453,-10.737 49.183,-14.299 4.309,-0.918 8.667,-1.591 12.972,-2.512 3.002,-0.643 5.934,-1.572 8.904,-2.342 l 2.337,-0.588 0.031,7.387 c 0.039,10.463 0.02,20.918 -0.513,31.38 l -0.101,1.938 c -0.623,11.642 -1.595,23.527 -5.725,34.504 -3.356,8.921 -8.705,17.325 -15.701,23.823 -3.539,3.287 -7.345,5.846 -12.049,7.11 -4.368,1.173 -8.944,1.31 -13.435,0.997 -21.537,-1.503 -40.709,-13.207 -59.418,-22.897 -30.601,-15.851 -61.205,-31.693 -91.837,-47.482 0.828,-0.567 1.608,-1.219 2.317,-1.952 4.107,-4.244 6.274,-10.054 7.697,-15.68 1.515,-5.989 2.421,-12.408 2.527,-18.591 m -39.664,42.343 c -0.271,-0.146 -0.584,0.036 -0.596,0.342 -0.095,2.34 1.198,4.649 2.164,6.757 l 0.102,0.225 c 1.174,2.612 2.459,5.189 3.788,7.725 2.656,5.067 5.417,10.081 8.298,15.023 5.793,9.942 12.232,19.466 19.842,28.123 1.719,1.956 4.546,-0.552 3.443,-2.657 -5.319,-10.151 -11.519,-19.735 -17.901,-29.236 -3.195,-4.756 -6.387,-9.518 -9.614,-14.253 -1.346,-1.976 -2.709,-3.945 -4.109,-5.884 l -0.844,-1.159 M 8.39902,351.09342 c 26.88278,0.812 53.73408,2.566 80.48908,5.314 24.8819,2.556 49.6729,5.959 74.3249,10.2 5.148,0.886 10.291,1.808 15.427,2.767 l 3.081,0.579 c 5.137,0.974 11.412,1.376 15.986,4.122 4.822,2.894 6.125,8.942 7.729,13.93 1.886,5.866 3.725,11.749 5.514,17.646 7.103,23.414 13.591,47.03 19.379,70.803 2.873,11.8 5.423,23.666 8.109,35.509 2.386,10.522 5.02,20.926 7.771,31.343 -0.339,-0.264 -0.755,-0.464 -1.257,-0.572 -13.661,-2.907 -27.606,-4.171 -41.471,-5.777 l -1.341,-0.157 c -14.343,-1.687 -28.686,-3.362 -43.038,-4.976 l -95.019,-10.69 c -5.604,-0.63 -11.6073,-0.716 -17.0609,-2.22 -9.272,-2.559 -11.4453,-12.929 -13.0009,-21.188 l -0.047,-0.249 c -4.6901,-24.953 -8.4236,-50.122 -12.7977,-75.137 m 222.8215,91.959 c 3.689,-0.244 8.738,-3.624 11.536,-3.381 -1.469,2.466 -2.132,5.279 -1.285,8.283 2.356,8.359 13.014,4.034 18.147,1.481 4.209,-2.095 8.274,-4.659 12.933,-5.64 5.279,-1.11 8.856,0.99 13.315,3.411 3.663,1.987 7.653,3.415 11.755,4.154 2.182,0.393 4.254,0.435 6.322,0.282 0.124,0.101 0.265,0.195 0.425,0.279 l 1.094,0.575 c -4.947,0.226 -9.986,1.753 -14.59,3.152 -4.771,1.448 -9.454,3.194 -14.113,4.98 l -4.583,1.762 c -11.304,4.331 -23.006,8.443 -35.24,8.407 -0.879,-0.002 -1.6,0.241 -2.167,0.638 m 17.09,-54.575 c -3.644,-0.446 -7.008,0.032 -9.92,2.405 -3.512,2.862 -5.872,7.609 -10.921,7.921 -1.472,0.09 -1.814,2.161 -0.351,2.594 3.758,1.113 6.801,-0.921 9.362,-3.562 l 1.721,-1.8 c 2.531,-2.621 4.865,-4.647 9.158,-4.491 4.599,0.168 9.205,1.231 13.773,1.772 5.175,0.612 10.35,1.134 15.541,1.584 0.241,0.021 0.282,-0.359 0.056,-0.415 l -5.814,-1.447 m -19.088,-19.465 -0.601,-0.06 c -5.292,-0.514 -10.132,-0.534 -14.858,2.314 l -0.907,0.549 c -4.261,2.591 -8.899,5.643 -11.564,9.838 -0.436,0.687 0.284,1.495 1.014,1.32 5.122,-1.23 8.866,-4.989 13.173,-7.802 4.834,-3.158 9.827,-2.637 15.338,-2.146 5.337,0.475 10.67,1.127 15.954,2.017 4.965,0.836 9.946,2.154 14.961,2.575 l -10e-4,-0.01 c 0.573,-0.001 0.9,-0.862 0.316,-1.154 -5.09,-2.542 -10.984,-3.746 -16.521,-4.907 m -177.072,-54.863 c 0.512,-2.448 -2.498,-3.583 -3.893,-1.641 l -0.297,0.409 c -3.0133,4.131 -7.3716,9.313 -7.1497,14.566 -2.6491,0.058 -5.3955,1.668 -6.4276,4.06 -0.4772,1.106 -0.6389,2.417 -0.5336,3.774 -2.4078,0.187 -5.0338,1.769 -6.5059,3.309 -2.44,2.552 -2.6326,6.159 -0.8822,9.142 3.8165,6.501 12.154,8.866 19.1925,9.394 l 0.2508,0.018 c 7.2697,0.503 17.7457,0.367 22.7297,-5.872 4.809,-6.019 -0.505,-10.892 -5.955,-13.538 1.419,-1.296 2.153,-3.154 1.462,-5.113 -1.212,-3.445 -5.495,-4.775 -7.914,-7.169 -2.95,-2.92 -4.899,-6.924 -4.122,-11.11 m -3.951,5.063 c 0.802,3.485 2.772,6.673 5.515,9.199 1.049,0.966 2.196,1.826 3.416,2.565 l 0.146,0.085 c 1.082,0.608 3.742,1.746 3.537,3.11 -0.211,1.401 -4.544,3.594 -5.725,3.595 -0.268,0 -0.42,0.42 -0.146,0.542 2.14,0.945 4.009,1.351 6.102,0.351 1.399,1.428 2.757,2.906 4.102,4.371 2.38,2.592 1.566,5.329 -1.246,7.259 -4.517,3.101 -11.383,3.025 -16.654,2.8 -5.3047,-0.227 -10.9751,-1.411 -15.1188,-4.945 l -0.1805,-0.158 c -2.252,-2.003 -4.309,-5.399 -0.8601,-7.328 1.3504,-0.756 2.8096,-0.711 4.0919,-1.079 1.2,2.353 3.1464,4.238 5.5217,4.601 1.9196,0.294 3.2415,-2.12 1.4954,-3.274 l -0.3923,-0.244 c -2.1927,-1.4 -4.0637,-3.556 -4.0141,-6.364 0.0338,-1.95 2.7551,-4.412 4.5279,-2.58 l 0.0811,0.087 c 1.4834,1.673 4.0964,-0.435 3.1207,-2.288 l -0.0469,-0.084 m 348.71,-107.146 c 0.007,-0.419 -0.582,-0.575 -0.787,-0.213 -3.444,6.06 -5.244,13.489 -7.078,20.166 -1.921,6.994 -3.472,14.06 -4.866,21.177 -2.822,14.412 -4.325,28.741 -4.427,43.429 -0.014,2.097 3.401,2.655 3.735,0.506 2.218,-14.287 4.343,-28.59 6.578,-42.874 1.125,-7.184 2.433,-14.341 3.686,-21.503 m -30.93,-10.133 c 0.253,-0.836 -0.962,-1.115 -1.273,-0.351 -6.911,16.97 -9.251,36.201 -4.814,54.104 0.679,2.738 4.688,1.552 4.176,-1.152 m -87.225,-67.68 c 0.034,-0.626 -0.777,-0.725 -1.083,-0.294 -3.275,4.615 -4.633,10.796 -10.378,13.182 -2.868,1.19 -6.096,0.983 -8.63,2.995 -1.694,1.345 -2.993,3.469 -1.721,5.506 0.41,0.658 1.558,0.988 2.115,0.273 0.812,-1.042 1.242,-2.29 2.346,-3.071 1.556,-1.102 3.655,-1.17 5.44,-1.688 2.309,-0.67 4.344,-1.842 6.01,-3.583 m -48.803,-90.3 c -0.337,-0.172 -0.661,-0.062 -0.877,0.23 -0.308,0.416 -0.27,0.821 0.107,1.106 -0.504,1.031 -1.1,3.613 -1.185,3.989 -0.344,1.524 -0.711,3.039 -1.095,4.553 -0.774,3.053 -1.452,6.13 -2.227,9.184 -0.821,3.237 -1.8,6.44 -2.889,9.597 -0.07,0.204 -0.147,0.413 -0.228,0.625 l -0.125,0.319 -0.03,-0.048 c -0.221,-0.35 -0.682,-0.105 -0.628,0.264 0.051,0.337 0.119,0.673 0.177,1.01 l -0.114,0.302 c -0.713,1.918 -1.201,3.938 0.106,5.63 0.489,0.633 1.027,1.008 1.698,1.119 1.075,3.546 2.424,7.025 3.867,10.366 l 0.424,0.975 c 2.124,4.876 4.389,9.687 7.771,13.837 3.692,4.532 8.771,7.626 11.987,12.591 1.497,2.31 2.538,4.738 3.383,7.347 l 0.318,0.99 c 0.6,1.845 1.292,3.633 3.022,4.715 0.552,0.345 1.379,0.235 1.824,-0.236 3.548,-3.754 -0.166,-10.764 -2.305,-14.399 -2.974,-5.054 -7.278,-8.287 -11.587,-12.101 -4.645,-4.11 -7.608,-9.608 -10.474,-15.025 -1.755,-3.319 -3.45,-6.709 -5.234,-10.042 1.864,-1.648 2.461,-4.922 3.092,-7.198 l 0.058,-0.204 c 1.044,-3.644 1.873,-7.383 2.397,-11.138 0.504,-3.611 0.715,-7.17 0.581,-10.801 l -0.038,-0.925 m -8.707,10.554 c 0.412,-0.565 -0.27,-1.205 -0.835,-1.087 -3.435,0.711 -6.794,2.791 -9.878,4.474 l -0.329,0.178 c -2.461,1.328 -4.938,2.955 -6.231,5.534 -1.405,2.804 -1.289,6.033 -1.098,9.08 l 0.018,0.285 c 0.235,3.654 0.273,7.45 1.046,11.038 0.396,1.836 2.058,2.354 3.48,1.92 1.691,5.342 6.442,9.278 9.912,13.494 4.425,5.375 3.592,12.631 3.13,19.104 -0.187,2.621 3.071,3.366 4.75,1.967 l 3.867,-3.213 c 0.645,-0.537 1.288,-1.074 1.929,-1.614 0.55,-0.462 1.094,-0.928 1.634,-1.4 l 0.807,-0.713 c 0.358,-0.32 1.936,-2.083 2.397,-2.157 1.118,-0.177 3.773,2.769 4.682,3.693 l 0.115,0.116 c 1.71,1.677 3.256,3.483 4.695,5.397 0.265,0.352 0.782,0.06 0.593,-0.346 -1.29,-2.764 -2.789,-5.407 -4.57,-7.88 l -0.36,-0.493 c -1.185,-1.597 -2.775,-4.417 -4.866,-4.889 -2.554,-0.576 -5.104,1.986 -6.962,3.408 l -0.117,0.089 c -0.884,0.663 -1.758,1.339 -2.63,2.018 0.091,-4.819 -0.517,-9.688 -3.005,-13.842 -1.754,-2.929 -4.381,-5.098 -6.63,-7.615 -2.503,-2.803 -3.81,-6.248 -6.076,-9.166 -0.291,-0.376 -0.694,-0.578 -1.129,-0.642 -0.087,-2.347 -0.433,-4.717 -0.7,-7.038 l -0.077,-0.695 c -0.27,-2.522 -0.908,-5.603 0.327,-7.965 1.166,-2.231 3.841,-3.806 5.822,-5.319 l 1.618,-1.256 m 116.172,-31.134 c 1.035,0.599 2.002,1.343 2.879,2.274 2.761,2.93 4.735,6.576 6.656,10.084 1.034,1.889 2.032,3.799 3.074,5.684 0.454,0.82 0.92,1.631 1.392,2.441 0.218,0.373 0.866,1.115 1.187,1.572 -0.357,0.5 -0.726,0.993 -1.102,1.48 -0.144,0.186 -10.048,10.979 -13.501,15.204 -5.287,6.47 -10.012,13.305 -14.052,20.621 -3.956,7.164 -6.968,14.749 -10.633,22.051 -1.834,3.656 -3.883,7.286 -6.494,10.45 -0.101,0.124 -0.207,0.24 -0.31,0.362 -0.997,-2.693 -3.551,-5.577 -4.805,-7.233 l -0.117,-0.156 c -2.845,-3.836 -5.849,-7.556 -8.918,-11.214 -2.803,-3.339 -5.678,-6.606 -8.622,-9.82 l -1.107,-1.202 c -2.052,-2.217 -4.657,-5.534 -7.66,-7.118 0.322,-0.573 0.694,-1.141 1.122,-1.701 2.814,-3.678 6.791,-6.347 10.715,-8.756 l 2.545,-1.548 c 9.593,-5.849 19.037,-11.968 27.365,-19.567 4.407,-4.021 8.752,-8.232 12.456,-12.922 l 1.31,-1.658 m -9.386,-12.223 c 4.492,0.377 9.343,0.287 13.495,1.751 -3.691,3.491 -7.199,7.259 -10.803,10.808 -0.32,-2.4 -0.976,-4.771 -1.532,-7.112"
     id="path4"
     inkscape:connector-curvature="0"
     style="clip-rule:evenodd;fill:#000000;fill-rule:evenodd" />
  <path
     d="m 314.063,13.388424 c -31.989,0 -65.076,24.805 -76.802,40.634 -9.859,13.308 -15.167,73.486996 -15.167,114.156996 0,8.505 -4.692,24.539 -3.323,32.675 5.018,29.814 26.878,54.818 70.145,54.818 43.267,0 74.288,-17.156 106.448,-63.221 15.603,0 23.165,-11.97 23.275,-30.862 0.11,-18.891 -15.061,-25.764 -15.061,-25.764 0,0 5.409,-74.552996 -8.214,-93.961996 -13.624,-19.41 -49.312,-28.475 -81.301,-28.475 z"
     id="path6"
     inkscape:connector-curvature="0"
     style="clip-rule:evenodd;fill:#ffffff;fill-rule:evenodd" />
  <path
     d="m 327.523,2.8494237 c -20.198,-2.045 -39.989,-0.326 -59.893,3.2300003 -1.522,0.276 -2.384,1.274 -2.704,2.474 -9.375,0.428 -18.761,1.117 -28.124,1.629 -3.398,0.186 -5.324,3.545 -3.775,6.578 0.31,0.602 0.631,1.188 0.958,1.774 l -0.41,-0.135 c -2.817,-0.904 -5.86,-1.35 -8.604,0.085 -3.493,1.826 -4.863,5.856 -4.091,9.564 0.198,0.947 0.53,1.854 0.907,2.74 -0.766,-0.051 -1.538,-0.034 -2.304,0.067 -4.079,0.541 -7.11,3.669 -7.324,7.834 -0.315,6.29 3.735,12.67 8.507,17.173 -0.692,1.426 -0.958,3.106 -0.67,4.808 0.575,3.364 3.053,5.379 5.925,6.694 -1.198,3.805 -1.764,7.782 -1.43,11.848 0.112,1.357 1.298,2.478 2.55,2.753 -4.668,12.857996 -7.031,26.662996 -8.73,40.113996 -1.211,9.571 -1.808,19.197 -1.881,28.84 -0.035,4.353 0.036,8.712 0.219,13.066 l 0.074,1.632 c 0.225,4.707 0.236,9.649 1.081,14.305 -2.884,4.908 -4.045,11.002 -4.535,16.502 -0.608,6.808 0.355,13.83 2.502,20.307 8.101,24.471 32.552,39.913 57.11,43.927 22.732,3.714 49.036,-1.285 62.32,-21.942 0.209,-0.327 -0.236,-0.597 -0.495,-0.382 -9.505,7.732 -20.529,11.181 -32.507,12.86 -20.71,2.898 -43.989,-2.017 -60.608,-15.047 -7.978,-6.256 -13.73,-15.364 -16.26,-25.165 -1.29,-5.01 -1.735,-10.235 -1.228,-15.392 0.519,-5.23 2.834,-9.694 4.293,-14.637 0.49,-1.668 -0.028,-3.218 -1.048,-4.322 -0.287,-4.014 -0.964,-8.06 -1.222,-12.061 -0.287,-4.549 -0.463,-9.097 -0.525,-13.651 -0.118,-9.446 0.276,-18.909 1.071,-28.315 1.453,-17.224 5.313,-34.029996 7.577,-51.107996 0.839,0.752 2.041,1.061 3.301,0.404 l 0.13,-0.071 0.688,-0.394 c 0.039,0 0.084,0.005 0.124,0.01 4.704,0.457 9.583,-0.196 14.09,-1.6 4.716,-1.465 9.093,-3.72 13.003,-6.724 0.743,3.77 1.054,7.58 1.059,11.424 0.005,2.401 2.546,3.647 4.563,2.621 8.941,-4.543 17.482,-9.778 25.589,-15.662 0.947,4.853 1.893,9.705 2.845,14.563 0.366,1.872 2.75,2.627 4.276,1.736 6.073,-3.534 11.318,-8.161 15.589,-13.662 0.852,1.631 1.707,3.262 2.568,4.889 l 1.296,2.438 c 1.279,2.395 2.992,5.045 5.792,5.811 2.963,0.811 5.437,-1.11 6.434,-3.793 0.304,-0.834 0.586,-1.691 0.845,-2.554 2.524,5.767 5.374,11.403 8.597,16.779 4.834,8.064996 10.637,15.250996 16.423,22.622996 1.757,2.238 4.766,0.101 5.008,-2.074 0.141,-1.279 0.259,-2.564 0.361,-3.844 3.371,6.806 6.889,13.548 10.722,20.095 l -0.549,2.151 v 0 c -1.581,6.357 -2.895,12.758 -4.322,19.148 -0.461,2.062 0.634,5.009 3.042,5.361 2.877,0.419 5.598,1.889 8.545,0.878 3.213,-1.104 3.848,-3.882 5.364,-6.515 0.303,-0.525 0.655,-1.007 1.034,-1.464 l 0.096,0.125 v 0 c 0.237,0.31 0.8,-0.028 0.659,-0.383 l -0.165,-0.41 v 0 c 1.303,-1.384 2.863,-2.538 4.296,-3.78 3.408,-0.574 7.24,0.055 9.588,1.44 5.346,3.155 7.802,9.659 7.853,15.64 0.062,7 -2.107,14.868 -5.769,20.853 -1.611,2.632 -3.82,5.01 -6.738,6.177 -2.896,1.16 -6.034,0.8 -8.98,1.893 -1.95,0.728 -3.15,2.892 -1.972,4.853 0.079,0.136 0.169,0.259 0.254,0.389 l -0.876,1.164 c -0.603,0.806 -1.232,1.669 -1.818,2.567 -1.498,1.725 -3.076,3.387 -4.602,5.084 -2.822,3.127 -5.561,6.34 -8.338,9.513 -2.62,2.993 -5.392,5.805 -8.248,8.572 -2.699,2.622 -6.068,4.825 -8.547,7.621 -2.411,2.728 -3.065,7.489 0.902,9.068 4.388,1.751 8.273,-2.352 11.227,-5.088 l 0.125,-0.115 c 5.415,-4.985 10.305,-10.681 14.188,-16.954 3.847,2.62 9.411,2.87 13.242,0.251 2.015,-1.378 3.562,-3.694 4.313,-6.213 0.709,0.159 1.417,0.252 2.108,0.241 0.355,0.206 0.712,0.407 1.073,0.594 2.857,1.488 6.366,0.823 7.673,-2.339 1.19,-2.871 -0.036,-6.131 -1.108,-8.897 l -0.222,-0.572 c -0.608,-1.577 -1.279,-3.296 -2.112,-4.914 2.321,-1.747 4.304,-3.917 5.983,-6.385 5.639,-8.314 8.456,-20.471 7.211,-30.39 -0.749,-5.985 -3.56,-12.185 -8.163,-16.221 l 0.169,-0.439 v 0 c 1.29,-3.274 2.462,-6.561 3.222,-10.021 0.89,-4.046 1.325,-8.24 1.718,-12.359 0.834,-8.702 0.609,-17.602 -0.501,-26.269996 -2.084,-16.316 -7.369,-32.334 -16.749,-45.911 2.659,-3.185 4.766,-6.933 3.668,-11.244 -0.502,-1.978 -1.645,-3.855 -3.37,-4.988 -0.951,-0.625 -2.084,-0.721 -3.036,-1.239 l -0.287,-0.158 c -0.418,-0.244 -0.098,-0.218 0.151,-1.353 0.986,-4.532 0.17,-8.91 -4.816,-10.415 -4.693,-1.415 -9.133,1.589 -11.91,5.168 -7.268,-5.157 -16.845,-7.857 -25.268,-10.15 -9.577,-2.599 -19.402,-4.2220003 -29.267,-5.2260003 z M 406.025,154.85142 c 0.034,-3.691 -3.465,-5.968 -6.907,-5.364 -2.312,0.402 -4.241,1.782 -6.051,3.209 l -0.883,0.699 c -2.206,1.731 -4.737,3.599 -6.052,6.05 -1.926,3.619 2.146,8.488 5.949,5.951 2.609,-1.748 4.281,-4.551 5.992,-7.154 l 0.177,-0.268 c 0.777,-1.167 1.459,-2.407 2.525,-3.342 l 0.23,-0.202 c 0.35,-0.299 0.726,-0.571 1.178,-0.7 0.872,-0.251 2.488,0.1 2.873,1.139 l 0.034,0.106 c 0.141,0.525 0.929,0.412 0.935,-0.124 z"
     id="path8"
     inkscape:connector-curvature="0"
     style="clip-rule:evenodd;fill:#000000;fill-rule:evenodd" />
  <path
     d="m 308.255,180.90342 c -9.657,-1.173 -19.018,1.785 -28.459,3.276 -4.985,0.787 -9.976,1.374 -15.021,1.593 -1.014,0.044 -2.03,0.07 -3.045,0.091 -0.094,-0.895 -0.595,-1.716 -1.678,-2.207 -2.222,-1.008 -4,-1.462 -6.44,-1.365 -2.232,0.088 -4.473,0.318 -6.672,0.72 -3.992,0.733 -8.003,2.394 -10.923,5.281 -6.759,6.681 -5.731,17.411 -0.508,24.688 10.79,15.035 30.483,15.733 47.349,15.537 l 1.557,-0.021 c 15.357,-0.219 37.329,2.071 44.306,-15.408 2.566,-6.428 2.209,-13.878 -0.932,-20.043 -3.747,-7.353 -11.634,-11.183 -19.534,-12.142 z m -47.971,25.034 0.138,0.005 c 7.081,0.273 14.16,0.465 21.245,0.59 -0.212,1.82 -0.429,3.641 -0.676,5.457 -0.194,1.429 -0.402,2.857 -0.619,4.283 -0.091,0.603 -0.427,1.541 -0.332,2.139 l 0.034,0.236 v 0 c -0.364,0.165 -0.694,0.43 -0.94,0.814 -0.085,0.134 -0.147,0.268 -0.209,0.401 -5.5,0.044 -11.419,-0.063 -17.026,-1.063 l -0.011,-0.122 v 0 c -0.102,-0.717 -0.4,-1.199 -0.796,-1.53 -0.394,-2.285 -0.358,-4.72 -0.51,-6.987 -0.095,-1.408 -0.198,-2.816 -0.298,-4.223 z m 26.793,0.692 c 5.104,0.087 10.209,0.154 15.312,0.092 l 2.316,-0.036 v 0 c -0.489,2.625 -1.021,5.241 -1.464,7.884 -0.461,2.755 1.962,4.506 4.06,4.435 -0.236,0.039 -0.471,0.079 -0.706,0.112 -6.554,0.927 -13.358,0.681 -20.009,0.674 0.358,-2.09 0.213,-4.447 0.267,-6.191 l 0.01,-0.27 c 0.102,-2.234 0.173,-4.467 0.214,-6.7 z m 34.666,-0.483 c -0.177,1.365 -0.522,2.701 -1.037,3.945 -2.179,5.255 -7.173,7.708 -12.457,8.74 0.916,-0.316 1.644,-1.077 1.828,-2.381 0.458,-3.241 0.623,-6.535 0.636,-9.826 3.682,-0.034 7.39,-0.113 11.03,-0.478 z m -80.664,-1.121 c 2.622,0.619 5.669,0.335 8.242,0.452 2.41,0.11 4.821,0.205 7.231,0.303 -0.114,1.646 -0.224,3.291 -0.345,4.936 -0.155,2.126 -0.17,4.373 -0.577,6.49 -4.85,-1.656 -9.196,-4.312 -12.457,-8.558 -0.812,-1.058 -1.539,-2.3 -2.094,-3.623 z m 68.285,-15.5 c 4.364,1.034 8.495,3.218 10.715,7.213 1.318,2.371 1.898,5.181 1.786,7.95 -3.689,-0.429 -7.441,-0.592 -11.176,-0.727 -0.012,-0.673 -0.028,-1.345 -0.048,-2.015 l -0.058,-1.719 c -0.101,-3.278 -0.152,-7.395 -1.219,-10.702 z m -22.592,0.398 1.922,-0.216 c 5.336,-0.608 10.67,-1.247 16.008,-0.881 0.772,0.054 1.556,0.138 2.342,0.253 -0.943,3.405 -0.864,7.405 -1.258,10.776 -0.152,1.303 -0.345,2.596 -0.558,3.884 l -0.926,-0.043 v 0 c -5.726,-0.311 -11.459,-0.502 -17.19,-0.729 0,-1.077 -0.006,-2.154 -0.023,-3.232 l -0.021,-1.077 c -0.065,-2.753 0.112,-5.853 -0.296,-8.735 z m -26.801,-0.435 c 5.59,0.903 11.367,1.095 16.857,1.101 2.193,0.003 4.385,-0.132 6.576,-0.326 -0.143,1.167 -0.217,2.348 -0.324,3.498 -0.217,2.326 -0.464,4.647 -0.733,6.967 l -0.239,2.03 v 0 c -7.045,-0.32 -14.089,-0.665 -21.132,-1.023 l -0.994,-0.053 v 0 l -0.278,-3.901 c -0.19,-2.601 -0.398,-5.202 -0.693,-7.791 l 0.221,-0.079 v 0 c 0.26,-0.107 0.506,-0.254 0.739,-0.423 z m -2.427,0.966 c -0.308,3.677 -0.478,7.37 -0.705,11.054 l -4.643,-0.248 c -0.774,-0.042 -1.547,-0.085 -2.321,-0.13 -3.009,-0.173 -6.875,-1.085 -9.849,-0.234 -0.227,-2.706 0.546,-5.341 2.986,-7.158 4.284,-3.192 9.74,-2.056 14.532,-3.284 z m 15.863,-32.874 c -6.914,-3.961 -24.261,-8.01 -25.359,4.437 -0.506,5.728 3.751,10.474 8.722,12.592 l 0.186,0.078 c 4.662,1.917 12.925,4.083 16.96,-0.075 3.357,-3.46 -1.096,-9.665 -5.268,-6.83 -2.145,1.456 -6.658,0.383 -9.051,-0.31 l -0.149,-0.044 c -2.582,-0.759 -6.025,-3.188 -4.957,-6.369 0.945,-2.813 4.965,-3.327 7.483,-3.419 3.758,-0.134 7.416,0.739 11.139,1.023 0.59,0.045 0.772,-0.81 0.294,-1.083 z m -28.638,-20.016 c -9.383,-0.439 -15.221,9.811 -13.063,18.209 0.373,1.449 1.993,2.871 3.557,2.708 l 0.394,-0.036 c 0.201,-0.019 0.402,-0.044 0.587,-0.095 1.485,-0.412 2.816,-1.957 2.708,-3.559 l -0.029,-0.467 c -0.219,-3.967 0.211,-8.538 4.924,-9.499 3.997,-0.815 6.229,3.034 6.276,6.577 0.009,0.629 0.716,1.068 1.272,0.73 2.889,-1.759 3.389,-5.259 2.286,-8.272 -1.399,-3.818 -4.9,-6.108 -8.912,-6.296 z m 69.634,2.199 c -6.828,-2.28 -14.196,1.362 -17.502,7.401 -1.16,0.336 -2.319,1.231 -2.157,2.6 0.232,1.971 0.583,3.213 1.948,4.707 2.136,2.337 6.137,1.142 7.025,-1.735 l 0.037,-0.13 c 1.009,-3.719 5.101,-6.173 8.829,-4.871 4.355,1.52 4.229,6.122 7.283,8.802 0.359,0.315 0.79,0.365 1.22,0.157 3.245,-1.568 2.662,-6.289 1.505,-8.991 -1.517,-3.545 -4.466,-6.699 -8.188,-7.94 z m 9.301,-20.746 c -5.534,-5.648 -19.963,-11.114 -23.748,-0.684 -0.722,1.987 0.814,4.666 2.881,5.078 3.386,0.674 6.39,-0.797 9.753,-0.533 2.723,0.215 5.563,1.125 7.74,2.813 6.029,4.673 7.356,12.577 11.557,18.526 0.204,0.289 0.602,0.168 0.639,-0.174 0.957,-8.66 -2.761,-18.84 -8.822,-25.026 z m -72.166,-5.561 c -3.672,-1.297 -7.83,-1.186 -11.522,-0.035 -3.718,1.16 -7.132,3.362 -9.761,6.24 -1.194,1.307 -2.298,2.748 -3.183,4.283 -0.471,0.813 -0.966,2.493 -1.5,3.494 -2.893,1.67 -4.129,5.478 -1.539,8.186 l 0.116,0.119 0.347,0.344 c 1.392,1.378 3.491,1.976 5.391,1.425 4.253,-1.231 4.769,-4.581 6.241,-8.138 0.973,-2.349 2.639,-4.427 4.658,-5.954 4.774,-3.607 12.601,-4.756 18.348,-3.057 0.306,0.091 0.665,-0.299 0.447,-0.582 -1.089,-1.411 -1.716,-2.569 -3.174,-3.708 -1.48,-1.155 -3.095,-1.99 -4.869,-2.617 z"
     id="path10"
     inkscape:connector-curvature="0"
     style="clip-rule:evenodd;fill:#000000;fill-rule:evenodd" />
</svg>
