<svg width="521" height="632" viewBox="0 0 521 632" fill="none" xmlns="http://www.w3.org/2000/svg">
<path opacity="0.16" d="M456.746 632C421.4 632 392.746 603.346 392.746 568C392.746 532.654 421.4 504 456.746 504C492.092 504 520.746 532.654 520.746 568C520.746 603.346 492.092 632 456.746 632Z" fill="#FECA2F"/>
<path opacity="0.16" d="M240.746 568C108.198 568 0.746094 460.548 0.746094 328C0.746094 195.452 108.198 88 240.746 88C373.294 88 480.746 195.452 480.746 328C480.746 460.548 373.294 568 240.746 568Z" fill="#8F68FB"/>
<path opacity="0.16" fill-rule="evenodd" clip-rule="evenodd" d="M416.746 0L368.746 48L416.746 96L464.746 48L416.746 0Z" fill="#FA3A69"/>
<mask id="mask0" mask-type="alpha" maskUnits="userSpaceOnUse" x="3" y="33" width="471" height="536">
<path d="M238.821 568.449C108.954 568.449 3.67651 463.298 3.67651 333.588V33.1489H473.966V333.588C473.966 463.298 368.688 568.449 238.821 568.449Z" fill="white"/>
</mask>
<g mask="url(#mask0)">
<path fill-rule="evenodd" clip-rule="evenodd" d="M284.682 204.932C263.346 194.061 267.98 165.786 262.659 146.262C258.852 132.294 242.6 127.6 245.031 111.998C251.143 72.7661 292.686 64.129 331.154 83.7291C369.621 103.329 384.984 137.296 374.69 171.345C364.395 205.394 323.149 224.532 284.682 204.932Z" fill="#191847"/>
<path fill-rule="evenodd" clip-rule="evenodd" d="M260.574 108.521C239.974 122.209 216.445 171.565 228.677 182.121C233.555 186.33 247.14 189.03 262.764 188.251L229.133 235.5L273.936 258.328L293.393 182.015C306.893 176.783 318.717 167.967 324.471 154.27C341.051 114.801 281.175 94.8334 260.574 108.521Z" fill="#B28B67"/>
<path fill-rule="evenodd" clip-rule="evenodd" d="M257.832 107.259C265.62 113.157 278.907 129.738 286.973 147.922C289.017 147.93 291.12 148.415 293.103 149.425C299.45 152.659 302.163 160.056 299.162 165.946C297.937 168.35 295.949 170.132 293.594 171.179C294.139 176.841 293.71 182.278 291.967 187.205C301.406 192.014 353.182 175.559 335.168 126.077C317.153 76.5953 244.287 97.0025 257.832 107.259Z" fill="#191847"/>
<path fill-rule="evenodd" clip-rule="evenodd" d="M243.922 404.322L165.498 650.673L127.508 860.179H97.7207L137.864 404.322H243.922Z" fill="#B28B67"/>
<path fill-rule="evenodd" clip-rule="evenodd" d="M243.922 404.322L165.498 650.673L127.508 860.179H97.7207L137.864 404.322H243.922Z" fill="black" fill-opacity="0.1"/>
<path fill-rule="evenodd" clip-rule="evenodd" d="M271.978 404.322C266.651 539.582 272.92 609.351 274.112 621.64C275.304 633.929 291.629 713.611 330.276 864.304L298.536 853.83C237.458 715.622 216.644 643.793 209.639 625.645C202.634 607.497 184.028 533.722 153.822 404.322H271.978Z" fill="#B28B67"/>
<path fill-rule="evenodd" clip-rule="evenodd" d="M254.342 404.322L220.997 529.835H119.15L134.336 404.322H254.342Z" fill="#69A1AC"/>
<path fill-rule="evenodd" clip-rule="evenodd" d="M273.099 404.322C284.07 435.921 286.154 477.759 279.351 529.835H175.42L146.841 404.322H273.099Z" fill="#89C5CC"/>
<path fill-rule="evenodd" clip-rule="evenodd" d="M338.846 418.904L296.627 408.547C302.471 496.057 305.813 542.549 306.653 548.024C308.542 560.342 294.424 574.864 287.921 582.939C300.207 592.307 304.221 569.959 319.645 582.074C333.723 593.131 342.57 609.013 363.598 602.69C366.183 601.913 369.907 597.488 364.928 592.063C352.523 578.547 335.404 556.037 333.922 549.663C331.9 540.971 333.542 497.385 338.846 418.904ZM86.9473 348.047L16.3684 387.541C-1.97317 390.231 -17.4871 394.383 -30.1734 399.997C-33.2556 402.179 -37.184 406.852 -25.3471 407.274C-13.5102 407.696 -1.06991 408.654 0.164763 412.705C1.3994 416.755 -6.17321 420.601 -3.41758 426.186C-1.58052 429.909 9.61337 422.314 30.164 403.401L98.0432 384.446L86.9473 348.047Z" fill="#B28B67"/>
<path fill-rule="evenodd" clip-rule="evenodd" d="M261.501 218.465L244.767 211.229C196.683 276.072 127.832 328.716 38.2168 369.163L78.2819 449.51C174.136 384.003 241.937 308.666 261.501 218.465Z" fill="#191847"/>
<path fill-rule="evenodd" clip-rule="evenodd" d="M284.888 448.794L129.469 410.044C186.51 334.657 222.382 267.48 237.085 208.512L285.645 213.47C308.253 279.758 301.129 352.656 284.888 448.794Z" fill="#DDE3E9"/>
<path fill-rule="evenodd" clip-rule="evenodd" d="M283.559 212.95C279.867 212.158 274.234 210.986 266.662 209.434L247.556 237.806C236.874 275.543 210.765 350.45 169.228 462.527L271.108 487.927C268.856 495.822 266.412 503.748 263.777 511.705L339.529 530.592C358.912 404.579 341.294 298.957 286.675 213.726L286.63 213.75L286.619 213.713L283.559 212.95Z" fill="#2F3676"/>
<path fill-rule="evenodd" clip-rule="evenodd" d="M242.41 481.587L270.892 488.686C281.04 453.295 287.335 418.529 289.777 384.389C274.503 433.29 258.715 465.689 242.41 481.587Z" fill="black" fill-opacity="0.1"/>
<path fill-rule="evenodd" clip-rule="evenodd" d="M263.274 422.746L218.648 387.715L213.037 410.22L263.274 422.746Z" fill="white" fill-opacity="0.2"/>
</g>
</svg>
